<?xml version="1.0" encoding="utf-8"?>
<!-- Generator: Adobe Illustrator 19.1.0, SVG Export Plug-In . SVG Version: 6.00 Build 0)  -->
<svg version="1.1" id="Layer_1" xmlns="http://www.w3.org/2000/svg" xmlns:xlink="http://www.w3.org/1999/xlink" x="0px" y="0px"
	 width="30px" height="30px" viewBox="0 0 30 30" enable-background="new 0 0 30 30" xml:space="preserve">
<rect x="0" y="0" fill="#0C2B57" width="30" height="30"/>
<g>
	<path fill="#FFFFFF" d="M16.8,8.1l1.6,1.2L13.2,15l5,5.6L16.6,22l-6-7L16.8,8.1z"/>
</g>
</svg>
