<?xml version="1.0" encoding="utf-8"?>
<!-- Generator: Adobe Illustrator 21.1.0, SVG Export Plug-In . SVG Version: 6.00 Build 0)  -->
<svg version="1.1" id="Layer_1" xmlns="http://www.w3.org/2000/svg" xmlns:xlink="http://www.w3.org/1999/xlink" x="0px" y="0px"
	 viewBox="0 0 47 47" style="enable-background:new 0 0 47 47;" xml:space="preserve">
<style type="text/css">
	.st0{opacity:0.2;fill:none;stroke:#707070;stroke-miterlimit:10;enable-background:new    ;}
	.st1{fill:#CACACA;}
</style>
<circle class="st0" cx="23.8" cy="23.9" r="22.2"/>
<path class="st1" d="M26.2,16.3l1.8,1.3l-5.7,6.3l5.4,6.1L26,31.5l-6.5-7.6L26.2,16.3z"/>
</svg>
