<?xml version="1.0" encoding="utf-8"?>
<!-- Generator: Adobe Illustrator 19.1.0, SVG Export Plug-In . SVG Version: 6.00 Build 0)  -->
<svg version="1.1" id="Layer_1" xmlns="http://www.w3.org/2000/svg" xmlns:xlink="http://www.w3.org/1999/xlink" x="0px" y="0px"
	 width="68px" height="68px" viewBox="0 0 68 68" enable-background="new 0 0 68 68" xml:space="preserve">
<path opacity="0.85" fill="none" stroke="#E7EAED" stroke-width="2" stroke-miterlimit="10" d="M34,33V7.9c0.1-2.3-1.8-4.1-4.1-4.1
	H9c-2.2,0-4.1,1.9-4.1,4.1v50.8c0,2.2,1.9,4.1,4.1,4.1h20.9"/>
<path opacity="0.85" fill="none" stroke="#E7EAED" stroke-width="2" stroke-miterlimit="10" d="M5.5,11.2h28"/>
<path opacity="0.85" fill="none" stroke="#E7EAED" stroke-width="2" stroke-miterlimit="10" d="M17.2,8.3h4.5c0.2,0,0.4-0.1,0.4-0.4
	c0-0.2-0.1-0.4-0.4-0.4h-4.5c-0.2,0-0.4,0.1-0.4,0.4C16.8,8.1,17,8.3,17.2,8.3z"/>
<path fill="none" stroke="#C0C8D0" stroke-width="2" stroke-miterlimit="10" d="M64,58.4V37.5c0-2.2-1.9-4.1-4.1-4.1H9.1
	c-2.2,0-4.1,1.9-4.1,4.1v20.9c0,2.2,1.9,4.1,4.1,4.1h50.8C62.2,62.6,64,60.7,64,58.4z"/>
<path fill="none" stroke="#C0C8D0" stroke-width="2" stroke-miterlimit="10" d="M12.5,62V34 M56.6,34v28"/>
<path fill="#C0C8D0" d="M10.7,48c0-1-0.8-1.9-1.9-1.9c-1.1,0-1.9,0.8-1.9,1.9s0.8,1.9,1.9,1.9S10.7,49,10.7,48z"/>
<path fill="none" stroke="#E7EAED" stroke-width="2" stroke-miterlimit="10" d="M59.5,45.7v4.5c0,0.2,0.1,0.4,0.4,0.4
	c0.2,0,0.4-0.1,0.4-0.4v-4.5c0-0.2-0.1-0.4-0.4-0.4C59.7,45.3,59.5,45.5,59.5,45.7z"/>
<path fill="none" stroke="#C0C8D0" stroke-width="2" stroke-miterlimit="10" d="M48.2,28v-6.4c0,0-0.5-7.3-8-7.3"/>
<g>
	<polygon fill="none" stroke="#C0C8D0" stroke-width="2" stroke-miterlimit="10" points="44.1,25.1 44.8,24.4 48.1,28 51.5,24.4 
		52.2,25.1 48.1,29.4 	"/>
</g>
</svg>
