<?xml version="1.0" encoding="utf-8"?>
<!-- Generator: Adobe Illustrator 19.1.0, SVG Export Plug-In . SVG Version: 6.00 Build 0)  -->
<svg version="1.1" id="Layer_1" xmlns="http://www.w3.org/2000/svg" xmlns:xlink="http://www.w3.org/1999/xlink" x="0px" y="0px"
	 width="98.5px" height="20.9px" viewBox="0 0 98.5 20.9" enable-background="new 0 0 98.5 20.9" xml:space="preserve">
<pattern  x="-139.8" y="-194.6" width="78" height="68" patternUnits="userSpaceOnUse" id="New_Pattern_Swatch_14" viewBox="0 -68 78 68" overflow="visible">
	<g>
		<polygon fill="none" points="0,0 78,0 78,-68 0,-68 		"/>
		<polygon fill="#0B978D" points="78,0 0,0 0,-68 78,-68 		"/>
	</g>
</pattern>
<pattern  x="-139.8" y="-194.6" width="78" height="68" patternUnits="userSpaceOnUse" id="New_Pattern_Swatch_3" viewBox="0 -68 78 68" overflow="visible">
	<g>
		<polygon fill="none" points="0,0 78,0 78,-68 0,-68 		"/>
		<g>
			<polygon fill="#EF4123" points="78,0 0,0 0,-68 78,-68 			"/>
		</g>
	</g>
</pattern>
<pattern  id="SVGID_1_" xlink:href="#New_Pattern_Swatch_3" patternTransform="matrix(1 0 0 1 -226.2089 -311.2452)">
</pattern>
<polygon fill="url(#SVGID_1_)" points="11.5,17 5.9,13.7 6,7.2 11.6,4 17.2,7.3 17.1,13.8 "/>
<polygon fill="#FFD400" points="30.7,17 25.1,13.7 25.2,7.2 30.8,4 36.4,7.3 36.3,13.8 "/>
<polygon fill="#5A9DDC" points="49.9,17 44.3,13.7 44.4,7.2 50,4 55.6,7.3 55.5,13.8 "/>
<pattern  id="SVGID_2_" xlink:href="#New_Pattern_Swatch_14" patternTransform="matrix(1 0 0 1 1320.2302 -1199.2372)">
</pattern>
<polygon fill="url(#SVGID_2_)" points="69.1,17 63.5,13.7 63.6,7.2 69.2,4 74.8,7.3 74.7,13.8 "/>
<polygon fill="#942170" points="88.3,17 82.7,13.7 82.8,7.2 88.4,4 94,7.3 93.9,13.8 "/>
</svg>
