<?xml version="1.0" encoding="utf-8"?>
<!-- Generator: Adobe Illustrator 19.1.0, SVG Export Plug-In . SVG Version: 6.00 Build 0)  -->
<svg version="1.1" id="Layer_1" xmlns="http://www.w3.org/2000/svg" xmlns:xlink="http://www.w3.org/1999/xlink" x="0px" y="0px" width="35px" height="35px" viewBox="0 0 35 35" enable-background="new 0 0 35 35" xml:space="preserve">
	<pattern x="-132.6" y="-188.7" width="78" height="68" patternUnits="userSpaceOnUse" id="New_Pattern_Swatch_1" viewBox="0 -68 78 68" overflow="visible">
		<g>
			<polygon fill="none" points="0,0 78,0 78,-68 0,-68 		"/>
			<polygon fill="#0C2B57" points="78,0 0,0 0,-68 78,-68 		"/>
		</g>
	</pattern>
	<g>
		<pattern id="SVGID_1_" xlink:href="#New_Pattern_Swatch_1" patternTransform="matrix(1 0 0 1 949.9463 -464.0354)"></pattern>
		<circle fill="none" stroke="#96A4B6" stroke-miterlimit="10" cx="17.4" cy="17.3" r="15.5"/>
		<g id="layer1_10_" transform="translate(-282.32053,-396.30734)">
			<pattern id="path5_1_" xlink:href="#New_Pattern_Swatch_1" patternTransform="matrix(1 0 0 1 927.9463 -411.0354)"></pattern>
			<path
				id="path5_10_"
				fill="#0C2B57"
				d="M307.4,409.1c-0.5,0.3-1.1,0.4-1.7,0.4c0.6-0.4,1.1-1,1.3-1.7
			c-0.6,0.4-1.2,0.6-1.9,0.7c-0.5-0.6-1.3-1-2.2-1c-1.7,0-3,1.3-3,3c0,0.3,0,0.4,0.1,0.7c-2.5-0.1-4.7-1.3-6.1-3.1
			c-0.3,0.4-0.4,1-0.4,1.5c0,1.1,0.5,1.9,1.3,2.5c-0.5,0-1-0.2-1.3-0.4l0,0c0,1.4,1.1,2.6,2.4,2.9c-0.3,0.1-0.5,0.1-0.8,0.1
			c-0.2,0-0.4,0-0.5-0.1c0.4,1.1,1.5,2,2.7,2c-1.1,0.8-2.3,1.2-3.7,1.2c-0.3,0-0.4,0-0.7,0c1.3,0.9,2.9,1.3,4.6,1.3
			c5.5,0,8.5-4.5,8.5-8.5c0-0.1,0-0.3,0-0.4C306.6,410.1,307.1,409.6,307.4,409.1L307.4,409.1z"/>
		</g>
	</g>
</svg>
