<?xml version="1.0" encoding="utf-8"?>
<!-- Generator: Adobe Illustrator 19.1.0, SVG Export Plug-In . SVG Version: 6.00 Build 0)  -->
<svg version="1.0" xmlns="http://www.w3.org/2000/svg" xmlns:xlink="http://www.w3.org/1999/xlink" x="0px" y="0px"
	 viewBox="0 0 500 500" enable-background="new 0 0 500 500" xml:space="preserve">
<g id="base-group-of-4-bkrf">
	<image overflow="visible" width="500" height="500" xlink:href="group-of-4-bkrf.png" >
	</image>
</g>
<g id="selected-blue-top" display="none">
	<image display="inline" overflow="visible" width="500" height="500" xlink:href="selected-blue-top.png" >
	</image>
</g>
<g id="selected-kabaya" display="none">
	<image display="inline" overflow="visible" width="500" height="500" xlink:href="selected-kabaya.png" >
	</image>
</g>
<g id="selected-red-top" display="none">
	<image display="inline" overflow="visible" width="500" height="500" xlink:href="selected-red-top.png" >
	</image>
</g>
<g id="selected-flower-dress" display="none">
	<image display="inline" overflow="visible" width="500" height="500" xlink:href="selected-flower-dress.png" >
	</image>
</g>
<g id="ath-flower-dress" display="none">
	<path display="inline" fill-rule="evenodd" clip-rule="evenodd" fill="#C5D1EB" d="M382,20c0,0-11.8,3-11,18c0,0-1.3,4.8,1,8
		c0,0-1.9,24.9,6,38l-1,16c0,0-18.5,1.5-21,17c0,0-6.8,15.7-9,44l-8,52l-6,38l7,39l6,26l-9,109l5,7v19v3l-4,5c0,0-6,18.9-24,28
		c0,0-9.6,3.3,4,7l1-1c0,0,14.5,4.9,27,3l11-12c0,0,7.3-2.8,6-9l-1-4h5l7-4l7-1l4-4c0,0,22-0.7,24-2l5-5c0,0,6.4-0.8,12,4l9,2
		c0,0,2.1-57.8,1-86l-3-72l2-2l4-1c0,0,2.3,0.5,4,0l3-2l4-3l6-12c0,0,1.8-34.4,5-41l5-50c0,0,9-57.5-3-84c0,0-4.4-6.5-17-10l-12-7
		l-1-4h-6h-2c0,0-7.5-7.2-8-11v-4v-3l6,2c0,0,2.9-14.7,2-17c0,0,5.9-11.8-1-13V30c0,0-5.5-12.5-23-16C401,14,385.4,12.5,382,20z"/>
</g>
<g id="path-red-top" display="none">
	<path display="inline" fill-rule="evenodd" clip-rule="evenodd" fill="#C5D1EB" d="M272,77l-14,4c0,0-23.5-3.6-26,23l6,10l-1,15
		l3,27l-25,9c0,0-11.2,8.5-6,19c0,0-1.7,3.1,2,5c0,0-5,5.2,3,5c0,0-3.7,7.1,5,7c0,0,5,5.6,12,5c0,0,1.9-0.8-1-4l8-4v7
		c0,0-5.4,20.8-5,26c0,0-11.3,28.6-6,84l6,90c0,0,3.7,19.5,6,21l-1,11c0,0,5.2,6.7,10,7l-3,3c0,0-0.8,10.9,7,10c0,0,7.3,1.8,11-2
		l6-2l5-6l11-3l5-23v-2l-4-1l-1-11c0,0-10.6-91.4-8-104c0,0-2.5-17.2,1-27c0,0,7.8,0.2,11,19l6,22l-2,52l-2,47c0,0-5.5,25-4,28l7,2
		c0,0,3.5,6.6,9,8c0,0,10.3,9.8,17,10c0,0,13.1,3.8,15,3c0,0,6.1-6.7,3-10l-1-11l-2-5l2-14l8-105c0,0-4.5-34.4-11-46l1-15l-3-4
		l-5-14v-7l1-6c0,0-1.2-8.7-3-10l2-2l-2-4l3-2v-8l3-7v-9c0,0,9.8-6.2,9-20l1-13l4-8c0,0-2.8-39.3-2-49c0,0-5.3-11.2-16-10l-6-4
		c0,0-13.2-4-17-9l1-6l3-5c0,0,5.4-1.6,7-6l5-9c0,0,1.8-7.7-1-9V24l1-6c0,0-7.4-12.4-18-13c0,0-13-1-20,2c0,0-4.7-1.9-7,6
		c0,0-5.2,4.8-5,18c0,0-2.6,5.7-3,12c0,0-5.2,8.7-1,17l5,10L272,77z"/>
</g>
<g id="path-kabaya" display="none">
	<path display="inline" fill-rule="evenodd" clip-rule="evenodd" fill="#C5D1EB" d="M174,24c0,0-15.3,1.3-16,29l-1,16l-8,15
		c0,0-19.5,4.2-28,18l2,10l-4,9l12,33l-8,44l-3,32c0,0-0.7,4.8,7,6l-1,13c0,0,10.1,61,9,71v21l-2,4l2,3l-2,4c0,0-1.7,1.9,1,3l-1,3
		l-2,3l-3,11l-3,66l-10,9c0,0-8,17.7,16,15l18-16c0,0,10.2,0.7,12,0l4-3l7,6l3,1c0,0,1.3,11.1,10,7c0,0,3.2,0.5,6-1c0,0,3.5,0.7,5-1
		c0,0,20.4,2.7,23-4l3-44c0,0,4.8-128.6,2-142l1-1l5-1l5-47l5-17c0,0,1.4-57-3-67l1-7v-8c0,0-2-7.3-8-10l1-5c0,0-2-4.5-9-6l-11-5
		c0,0-3.5-5-3-16c0,0,3.1-22.6,1-28c0,0-10.6-24.7-23-24C186,23,179,16.4,174,24z"/>
</g>
<g id="path-blue-top" display="none">
	<path display="inline" fill-rule="evenodd" clip-rule="evenodd" fill="#C5D1EB" d="M59,86l-7,5c0,0-36.3,0.9-27,60l2,2l3,1
		c0,0,2.8,33.6,6,40l-8,18c0,0-11.1,41.9,1,59c0,0,15.1,57.8,15,61c0,0,1.2,16.9-1,23c0,0-3.5,42.5,9,60l7,19c0,0-2.2,7.9,0,13
		c0,0-0.8,7.3,5,10l26,8l5-1c0,0,4.3,3,7,0c0,0,3.2,0.7,6-1l4-1l4-2c0.8-3.1,0.4-6.2-7-8l-21-12l-5-13c0,0,0.6-12.4-5-18l-1-51
		c0,0,8.1-9.5,2-16l8-33l9,30c0,0-1.2,7.4,2,9c0,0-1.1,10-3,13c0,0-3.8,5.3-2,25l-10,20c0,0-1.8,14.8,3,24l2,6c0,0,10.8,14.2,22,14
		c0,0,5.5-5-3-8c0,0-4.4-3.8-5-8l-1-13l8-6l1-11l17-30c0,0,5.5-13.2,5-16l3-2l-2-3l3-3l-4-5l1-3l3-2c0,0-1.6-86.6-16-104l-1-2l2-3
		v-17l10-60l-13-37c0,0-4.6-8.7-17-12l-7-8l2-10c0,0,6.1-0.2,7-3c0,0,5.4,10.7,13,1c0,0-10.7-5.2-10-9l1-3c0,0,4.2-13.1,3-17l3-1
		l-2-4c0,0,2.5-19.3-7-26c0,0-5-9.4-17-10c0,0-20-2.9-25,8c0,0-2,20.6-1,25c0,0-3.8-0.5-2,7c0,0-14.5,18-5,32l2-3L59,86z"/>
</g>
</svg>
