<?xml version="1.0" encoding="utf-8"?>
<!-- Generator: Adobe Illustrator 18.0.0, SVG Export Plug-In . SVG Version: 6.00 Build 0)  -->
<!DOCTYPE svg PUBLIC "-//W3C//DTD SVG 1.1//EN" "http://www.w3.org/Graphics/SVG/1.1/DTD/svg11.dtd">
<svg version="1.1" id="Layer_1" xmlns="http://www.w3.org/2000/svg" xmlns:xlink="http://www.w3.org/1999/xlink" x="0px" y="0px"
	 width="30px" height="30px" viewBox="0 0 30 30" enable-background="new 0 0 30 30" xml:space="preserve">
<rect x="3" y="16.6" fill="#DA8267" width="22.7" height="13.4"/>
<g>
	<g>
		<path fill="#FFFFFF" d="M11,19.3c0.5-0.1,1-0.2,1.5-0.3s1-0.1,1.4-0.1c1.1,0,1.9,0.2,2.4,0.6c0.6,0.4,0.8,0.9,0.8,1.6
			c0,0.5-0.2,1-0.5,1.3s-0.8,0.5-1.4,0.7c0.8,0.1,1.3,0.4,1.7,0.8s0.6,0.9,0.6,1.6c0,0.8-0.3,1.4-1,1.9C16,27.8,15,28,13.8,28
			c-0.5,0-0.9,0-1.4-0.1s-1-0.2-1.5-0.4v-1.9h0.7c0,0.6,0.2,1,0.5,1.3s0.7,0.4,1.3,0.4c0.6,0,1.1-0.2,1.4-0.5s0.5-0.8,0.5-1.4
			c0-0.6-0.2-1.1-0.5-1.5s-0.8-0.5-1.4-0.5h-0.4v-0.7h0.3c0.6,0,1-0.1,1.3-0.4s0.4-0.7,0.4-1.2c0-0.5-0.1-0.9-0.4-1.1
			s-0.7-0.4-1.2-0.4c-0.5,0-0.8,0.1-1.1,0.4s-0.4,0.6-0.5,1.1H11V19.3z"/>
	</g>
</g>
</svg>
