<?xml version="1.0" encoding="utf-8"?>
<!-- Generator: Adobe Illustrator 18.0.0, SVG Export Plug-In . SVG Version: 6.00 Build 0)  -->
<!DOCTYPE svg PUBLIC "-//W3C//DTD SVG 1.1//EN" "http://www.w3.org/Graphics/SVG/1.1/DTD/svg11.dtd">
<svg version="1.1" id="Layer_1" xmlns="http://www.w3.org/2000/svg" xmlns:xlink="http://www.w3.org/1999/xlink" x="0px" y="0px"
	 width="30px" height="30px" viewBox="0 0 30 30" enable-background="new 0 0 30 30" xml:space="preserve">
<rect x="3" y="16.6" fill="#DA8267" width="22.7" height="13.4"/>
<g>
	<g>
		<path fill="#FFFFFF" d="M17.7,27.8h-4.8v-0.7h1.3v-1.6h-3.7v-0.7l3.7-5.9h2.2v5.8h1.5v0.8h-1.5v1.6h1.3V27.8z M14.1,24.8v-4.2
			l-2.6,4.2H14.1z"/>
	</g>
</g>
</svg>
