<?xml version="1.0" encoding="utf-8"?>
<!-- Generator: Adobe Illustrator 18.0.0, SVG Export Plug-In . SVG Version: 6.00 Build 0)  -->
<!DOCTYPE svg PUBLIC "-//W3C//DTD SVG 1.1//EN" "http://www.w3.org/Graphics/SVG/1.1/DTD/svg11.dtd">
<svg version="1.1" id="Layer_1" xmlns="http://www.w3.org/2000/svg" xmlns:xlink="http://www.w3.org/1999/xlink" x="0px" y="0px"
	 width="214.3px" height="107px" viewBox="0 0 214.3 107" enable-background="new 0 0 214.3 107" xml:space="preserve">
<image display="none" overflow="visible" width="1544" height="428" xlink:href="15-44.png"  transform="matrix(0.2506 0 0 0.2506 0 0)">
</image>
<path fill="#D4EAFA" d="M642.1,129.1c-6.5,0-8.1,5.7-8.1,5.7s-1.6-5.7-8.1-5.7c-5,0-8.2,4.2-8.2,10c0,9.8,16.2,19.9,16.2,19.9
	s16.2-10.2,16.2-19.9C650.2,133.3,647,129.1,642.1,129.1z"/>
<path fill="#DA8267" d="M40.4,20.3c-6.5,0-8.1,5.7-8.1,5.7s-1.6-5.7-8.1-5.7c-5,0-8.2,4.2-8.2,10c0,9.8,16.2,19.9,16.2,19.9
	s16.2-10.2,16.2-19.9C48.6,24.5,45.4,20.3,40.4,20.3z"/>
<path fill="#D4EAFA" d="M677.1,129.1c-6.5,0-8.1,5.7-8.1,5.7s-1.6-5.7-8.1-5.7c-5,0-8.2,4.2-8.2,10c0,9.8,16.2,19.9,16.2,19.9
	s16.2-10.2,16.2-19.9C685.2,133.3,682,129.1,677.1,129.1z"/>
<path fill="#D4EAFA" d="M712,129.1c-6.5,0-8.1,5.7-8.1,5.7s-1.6-5.7-8.1-5.7c-5,0-8.2,4.2-8.2,10c0,9.8,16.2,19.9,16.2,19.9
	s16.2-10.2,16.2-19.9C720.2,133.3,717,129.1,712,129.1z"/>
<path fill="#F1D4C5" d="M747,129.1c-6.5,0-8.1,5.7-8.1,5.7s-1.6-5.7-8.1-5.7c-5,0-8.2,4.2-8.2,10c0,9.8,16.2,19.9,16.2,19.9
	s16.2-10.2,16.2-19.9C755.2,133.3,752,129.1,747,129.1z"/>
<path fill="#F1D4C5" d="M782,129.1c-6.5,0-8.1,5.7-8.1,5.7s-1.6-5.7-8.1-5.7c-5,0-8.2,4.2-8.2,10c0,9.8,16.2,19.9,16.2,19.9
	s16.2-10.2,16.2-19.9C790.2,133.3,787,129.1,782,129.1z"/>
<path fill="#F1D4C5" d="M817,129.1c-6.5,0-8.1,5.7-8.1,5.7s-1.6-5.7-8.1-5.7c-5,0-8.2,4.2-8.2,10c0,9.8,16.2,19.9,16.2,19.9
	s16.2-10.2,16.2-19.9C825.2,133.3,822,129.1,817,129.1z"/>
<path fill="#DA8267" d="M852,129.1c-6.5,0-8.1,5.7-8.1,5.7s-1.6-5.7-8.1-5.7c-5,0-8.2,4.2-8.2,10c0,9.8,16.2,19.9,16.2,19.9
	s16.2-10.2,16.2-19.9C860.1,133.3,857,129.1,852,129.1z"/>
<path fill="#DA8267" d="M887,129.1c-6.5,0-8.1,5.7-8.1,5.7s-1.6-5.7-8.1-5.7c-5,0-8.2,4.2-8.2,10c0,9.8,16.2,19.9,16.2,19.9
	s16.2-10.2,16.2-19.9C895.1,133.3,891.9,129.1,887,129.1z"/>
<path fill="#DA8267" d="M921.9,129.1c-6.5,0-8.1,5.7-8.1,5.7s-1.6-5.7-8.1-5.7c-5,0-8.2,4.2-8.2,10c0,9.8,16.2,19.9,16.2,19.9
	s16.2-10.2,16.2-19.9C930.1,133.3,926.9,129.1,921.9,129.1z"/>
<g>
	<text transform="matrix(1 0 0 1 61.2514 58.0002)" fill="#DA8267" font-family="'PlayfairDisplay-Black'" font-size="26.5864">Extreme!</text>
</g>
<text transform="matrix(1 0 0 1 59.6258 30.5544)" fill="#333333" font-family="'Roboto-Regular'" font-size="15">your passion level is</text>
</svg>
