<?xml version="1.0" encoding="utf-8"?>
<!-- Generator: Adobe Illustrator 18.1.1, SVG Export Plug-In . SVG Version: 6.00 Build 0)  -->
<svg version="1.1" id="Layer_1" xmlns="http://www.w3.org/2000/svg" xmlns:xlink="http://www.w3.org/1999/xlink" x="0px" y="0px"
	 viewBox="0 0 21.9 30.8" enable-background="new 0 0 21.9 30.8" xml:space="preserve">
<g opacity="0.85">
	<path fill="#FF6700" d="M13.2,7.7c-0.1,0-0.1-0.1-0.2-0.1c-0.1,0-0.2,0-0.2,0l-1.8,0l-1.8,0c0,0-0.1,0-0.2,0
		c-0.1,0-0.2,0.1-0.2,0.1C7.3,8.5-1.4,15.4,0.3,25.3c0.4,2.1,1.5,4.2,5,5.2c1.4,0.4,8.9,0.4,10.3,0.1c4.1-1,5.6-3.3,6-5.6
		C23.3,15,14.6,8.5,13.2,7.7z"/>
	<path fill="#FAAF40" d="M9.3,6.4c0.1,0,3.2,0,3.2,0s0.1,0,0.2,0c0.2,0.1,0.4,0.4,0.1,0.7c0,0-0.1,0.1-0.2,0.1c-0.1,0-0.2,0-0.2,0
		l-3.2,0c0,0-0.1,0-0.3-0.1C8.9,7.2,8.8,7,8.8,6.9C8.8,6.7,9,6.6,9,6.5C9.1,6.4,9.2,6.4,9.3,6.4z"/>
	<path fill="#FF6700" d="M9.2,6c0.1,0,3.2,0,3.2,0s0.1,0,0.2,0c0.1,0,0.1-0.1,0.1-0.1c0.5-0.5,1.3-2.5,1.5-5.6c0-0.1,0-0.1-0.1-0.2
		C14.2,0,14-0.2,13.3,0.3C12.7,0.8,12.6,0,12,0.1c-0.6,0-0.6,0.5-1.2,0.5c-0.6,0-0.5-0.5-1.1-0.4c-0.6,0-0.4,0.5-1,0.4
		c-0.6,0-0.6-0.6-1.3-0.4c-0.6,0.2,0,3,1.4,5.7c0,0,0.1,0.1,0.2,0.1C9.1,6,9.2,6,9.2,6z"/>
	<g>
		<path fill="#FFFFFF" d="M10.4,25.3v-1.6c-0.9,0-1.9-0.3-2.4-0.7L8.4,22c0.6,0.4,1.4,0.7,2.3,0.7c1.1,0,1.9-0.6,1.9-1.5
			c0-0.9-0.6-1.4-1.8-1.9c-1.6-0.6-2.6-1.4-2.6-2.8c0-1.3,0.9-2.3,2.4-2.5v-1.6h1v1.5c0.9,0,1.6,0.3,2.1,0.6l-0.4,1
			c-0.3-0.2-1-0.6-2-0.6c-1.2,0-1.7,0.7-1.7,1.4c0,0.8,0.6,1.2,2,1.8c1.6,0.7,2.5,1.5,2.5,2.9c0,1.3-0.9,2.4-2.5,2.7v1.6H10.4z"/>
	</g>
</g>
</svg>
