<?xml version="1.0" encoding="utf-8"?>
<!-- Generator: Adobe Illustrator 17.0.0, SVG Export Plug-In . SVG Version: 6.00 Build 0)  -->
<!DOCTYPE svg PUBLIC "-//W3C//DTD SVG 1.1//EN" "http://www.w3.org/Graphics/SVG/1.1/DTD/svg11.dtd">
<svg version="1.1" id="Layer_1" xmlns="http://www.w3.org/2000/svg" xmlns:xlink="http://www.w3.org/1999/xlink" x="0px" y="0px"
	 width="690px" height="254px" viewBox="0 0 690 254" enable-background="new 0 0 690 254" xml:space="preserve">
<path fill="none" stroke="#FFE100" stroke-miterlimit="10" d="M1.001,158.978l0.322,2.724l0.361-2.896l0.177,1.931l0.498,0.565
	l0.349-2.429l0.322,1.688l0.546-1.256l0.322,1.362l0.353-0.683l0.361,0.463l0.322-1.495l0.353,2.751l0.322-2.967l0.361,2.39
	l0.18-1.786l0.314,1.931l0.184-1.794l0.683,1.221l0.345-1.503l0.184,2.398l0.322-2.253l0.361,0.255l0.361,1.531l0.322-1.852
	l0.349,1.425l0.33-0.997l0.53,1.181l0.322-2.076l0.361,2.649l0.361-2.477l0.322,2.049l0.353-1.833l0.322,1.786l0.184,0.828
	l0.349-3.756l0.322,3.289l0.184-1.746l0.675,2.174l0.361-3.395l0.498,2.83l0.184-1.256l0.169-0.969l0.506,1.511l0.184,1.389
	l0.177-3.038l0.494,1.389l0.361-0.82l0.361,1.86l0.322-2.037l0.53,0.361l0.322,1.57l0.184-1.794l0.353,1.511l0.322-1.036
	l0.184,0.852l0.494-0.106l0.361-1.221l0.353,1.542l0.322-1.609l0.361,1.676l0.177-1.852l0.683,2.174l0.322-3.289l0.184,1.582
	l0.169,2.068l0.679-1.892l0.361,0.856l0.322-1.287l0.361,1.688l0.177-0.29l0.498-1.719l0.361,2.009l0.177-1.794l0.322,1.464
	l0.184-1.503l0.855,0.506l0.177,0.82l0.322-1.079l0.353,1.079l0.361-0.106l0.322-1.436l0.361,2.869l0.314-3.689l0.185,4.219
	l0.357-4.863l0.322,4.011l0.538-2.253l0.177,1.495l0.322-2.001l0.361,2.331l0.177-1.436l0.683,0.93l0.169-1.935l0.33,3.764
	l0.534-3.831l0.145,1.181l0.177,1.609l0.538-0.859l0.145-1.68 M34.651,160.52l0.145-1.68l0.714,2.363l0.314-2.186l0.184,1.075
	l0.506,0.353l0.526,0.824l0.184-1.609l0.141-1.071l0.542,2.645l0.177-0.569l0.145-2.037l0.714,2.826l0.137-1.931l0.546-0.612
	l0.314,2.39l0.542,0.361l0.169-2.253l0.153-1.213l0.353,3.258l0.498-1.04l0.184-1.075l0.675,1.036l0.184,0.361l0.353-1.896
	l0.33,1.825l0.169,0.247l0.357-1.436l0.326-0.137l0.357,1.864l0.498-2.076l0.361,1.821l0.184-2.037l0.314,2.323l0.538-2.217
	l0.322,2.041l0.361-0.722l0.349-0.895l0.149,1.939l0.357-3.328l0.353,4.286l0.322-4.286l0.361,3.434l0.506-1.688l0.177-0.671
	l0.177,1.393l0.498,0.177l0.357-0.997l0.498,0.891l0.361-1.181l0.322,1.358l0.177-1.397l0.545,0.577l0.314,0.679l0.184-1.464
	l0.353,1.535l0.506,0.216l0.173-2.323l0.326,2.253l0.534-1.071l0.506-0.361l0.177,1.688l0.498,0.106l0.177-1.833l0.177-0.498
	l0.361,2.186l0.33-2.041l0.349,2.041l0.498-1.688l0.361,1.864l0.177-0.644l0.506-1.287l0.177,2.288l0.322-2.614l0.714,2.002
	l0.145-2.967l0.361,4.117l0.169-4.36l0.33,4.537l0.534-4.078l0.322,3.862l0.353-2.319l0.184,0.926l0.177-1.535l0.859,0.071
	l0.137,1.393l0.361-2.292l0.357,3.222l0.149-1.397l0.349-0.887l0.361,1.707l0.322-0.82l0.361-0.82l0.499,1.397l0.177,0.498
	l0.184-2.002l0.675,2.107l0.357-2.068l0.506,0.322l0.169,1.707l0.33-2.535l0.353,2.688 M69.129,158.766l0.353,2.688l0.361-2.504
	l0.322,1.852l0.361-0.604l0.322-0.675l0.53,0.247l0.18,0.75l0.141,0.506l0.357-2.551l0.361,3.403l0.322-2.79l0.361,0.283
	l0.314,3.049l0.361-4.046l0.177,3.152l0.506-0.071l0.534-2.151h0.498l0.177,2.182l0.33-4.184l0.361,4.788l0.353-2.535l0.314,1.005
	l0.184-1.472l0.361,2.68l0.314-2.963l0.361,1.962l0.502,0.687l0.353-2.759l0.184-0.361l0.498,3.152l0.353-3.356l0.33,2.606
	l0.177,0.789l0.361-1.609l0.491-0.938l0.357,2.147l0.149-0.75l0.357-1.036l0.353,0.432l0.322,1.754l0.546-0.106l0.322-2.975
	l0.353,3.473l0.322-3.473h0.177l0.361,2.469l0.495-0.498l0.361-2.751l0.322,5.863l0.361-5.259l0.361,1.358l0.137,1.217l0.538,0.683
	l0.322-4.011l0.361,4.502l0.357-2.17l0.322-0.828l0.353,2.08l0.498,0.965l0.177-3.222l0.184-0.573l0.177,2.896l0.683-1.825
	l0.177,1.252l0.322-1.935l0.361,2.975l0.679-2.327l0.177,1.032l0.177,1.295l0.506-3.187l0.177,0.965l0.322,2.323l0.53-4.392
	l0.33,4.898l0.177-1.326l0.534-1.213l0.149-0.722l0.534,2.724l0.177-0.538l0.33-4.117l0.353,6.342l0.322-5.443l0.353,3.112
	l0.361-1.931l0.322,3.434l0.361-5.797l0.322,5.043l0.534-2.936l0.177,0.039l0.145,2.213l0.53-0.098l0.506-1.864l0.184-1.648
	l0.361,5.369l0.314-4.294l0.353,1.393l0.502,1.935l0.353-3.513l0.184,1.036l0.498,2.115 M103.317,159.441l0.498,2.115l0.184-0.891
	l0.177-1.688l0.498,0.294l0.498,2.743l0.361-4.929l0.357,4.761l0.141-1.472l0.357-1.181l0.675,1.754l0.184-1.425l0.361,1.279
	l0.137-2.174l0.722,2.107l0.137-0.965l0.369,1.177l0.177-1.609l0.322,2.115l0.349-2.045l0.498,0.251l0.361,1.107l0.177-0.208
	l0.322-1.036l0.546,1.817l0.322-1.542l0.169-1.103l0.361,2.83l0.502-0.428l0.361-2.579l0.177,3.038l0.322-1.786l0.361-0.33
	l0.322,1.794l0.345-2.394l0.369,2.186l0.322-1.111l0.177,0.573l0.679-0.718l0.353,0.604l0.177,0.428l0.506-1.852l0.177,2.469
	l0.322-2.684l0.361,2.001l0.177-1.326l0.683,0.436l0.349,0.491l0.149-0.675l0.357,0.432l0.353,0.965l0.506-2.292l0.353,3.151
	l0.33-3.289l0.177,2.213l0.353-2.712l0.322,3.532l0.534-2.359l0.33,0.137l0.353,3.403l0.322-5.718l0.361,4.89l0.177-0.247
	l0.322-3.395l0.714,3.434l0.145-2.535l0.538-0.294l0.173,2.186l0.149,0.926l0.357-3.646l0.353,2.826l0.322-2.253l0.361,2.217
	l0.499-2.469l0.361,3.795l0.322-4.227l0.177,1.142l0.361,1.758l0.314-1.609l0.184,0.573l0.679,0.29l0.353-0.863l0.506,0.467
	l0.177,0.573l0.538,0.032l0.145-1.174l0.353,1.856l0.185-3.473l0.322,4.156l0.534-3.328l0.177,1.287l0.322,1.036l0.675-0.177
	l0.184-2.83l0.353,3.893l0.184-2.39l0.322-0.392l0.361,2.323l0.671-2.076l0.177,1.079l0.506,0.491l0.177-2.002 M137.971,160.98
	l0.177-2.002l0.361,2.79l0.322-2.896l0.177,2.72l0.361-2.398l0.675,1.181l0.177-0.353l0.33,0.891l0.357-1.935l0.177,1.044
	l0.314,1.248l0.361-2.504l0.33,1.825l0.53,0.895l0.322-2.045l0.177-1.174l0.361,4.761l0.679-4.333l0.177,1.221l0.506,2.712
	l0.177-4.184l0.177-1.574l0.322,5.047l0.361-1.648l0.353-1.397l0.506,0.789l0.357,1.319l0.326-1.641l0.349,0.82l0.322,0.506
	l0.361-0.683l0.353-0.644l0.145,1.429l0.361-0.071l0.361-2.363l0.322,2.614l0.177-0.502l0.675-1.817l0.357,3.034l0.184-0.75
	l0.498-1.436l0.177-0.671l0.506,2.614l0.53-0.616l0.145-2.359l0.361,4.368l0.353-4.156l0.145-0.349l0.534,2.818l0.177-0.75
	l0.498-1.248l0.185,1.103l0.498,0.973l0.184-1.005l0.177-1.181l0.683,2.323l0.357-2.068h0.141l0.534,2.147l0.177-0.538l0.506-2.406
	l0.353,4.015l0.322-3.54l0.184,0.71l0.177,0.608l0.498,0.856l0.177-1.425l0.506-0.75l0.534,2.284l0.177-0.93l0.145-1.715
	l0.714,3.473l0.33-3.328l0.353,0.859l0.322,1.998l0.177-1.362l0.177-1.252l0.506,2.147l0.349-1.892l0.683-0.757l0.177,3.615
	l0.185-0.428l0.177-2.751l0.506,0.789l0.499,1.28l0.361-2.889l0.353,3.006l0.145,0.887l0.526-3.395l0.184,0.106l0.506,2.861
	l0.353-3.787l0.322,3.179l0.177,0.899l0.506-2.614l0.177-0.039l0.538,2.186l0.137-0.859l0.357-1.503l0.361,0.506l0.322,2.853
	 M171.982,159.523l0.322,2.853l0.361-3.611l0.498,3.112l0.177-0.538l0.361-1.97l0.498-0.067l0.361,3.148l0.322-5.326l0.357,4.537
	l0.177-0.392l0.314-2.535l0.546-0.538l0.322,4.431l0.353-3.611l0.184,1.111l0.322,0.361l0.538-0.757l0.145,0.789l0.349-1.609
	l0.361,2.186l0.498-3.006l0.361,3.642l0.137-2.21l0.714,1.319l0.145-2.284l0.361,3.709l0.361-3.638l0.322,2.319l0.349-1.786
	l0.184-0.145l0.322,3.579l0.353-6.797l0.33,9.619l0.353-10.012l0.177,8.01l0.683,0.039l0.361-6.621l0.314,7.794l0.357-11.009
	l0.322,13.407l0.177-10.977l0.546,1.464l0.322,6.868l0.353-9.298l0.322,12.41l0.361-13.442l0.184,12.975l0.306-13.199l0.184,9.482
	l0.679,2.535l0.353-9.258l0.506,2.284l0.177,4.761l0.361-9.16l0.33,13.199l0.353-14.447l0.177,10.875l0.322-8.799l0.357,8.87
	l0.361-8.226l0.314,6.794l0.538-5.298l0.322,7.335l0.361-8.83l0.322,5.612l0.177,1.676l0.361-8.536l0.322,12.009l0.357-13.834
	l0.353,14.517l0.322-12.516l0.538,8.866l0.322-5.043l0.177,2.284l0.506-1.456l0.361,2.002l0.353-4.576l0.322,8.077l0.357-8.944
	l0.498,10.518l0.177-9.054l0.184-7.076l0.322,18.666l0.361-16.303l0.353,11.436l0.498-5.428l0.361,4.47l0.145-6.476l0.353,7.159
	l0.357-7.551l0.322,8.976l0.361-10.624l0.498,10.557l0.538-12.881l0.145,11.731l0.177,4.184l0.177-12.724l0.498-0.255l0.361,10.334
	l0.679-10.73l0.177,14.019 M206.637,155.01l0.177,14.019l0.353-17.3l0.33,12.331l0.177-8.367l0.361,7.579l0.498-0.75l0.361-5.864
	l0.498-2.363l0.173,11.805l0.184-1.221l0.314-10.761l0.361,13.662l0.322-14.089l0.538,13.513l0.322-14.156l0.361,15.2l0.353-18.175
	l0.33,19.568l0.349-17.845l0.322,16.558l0.361-16.593l0.353,15.129l0.322-12.233l0.361,12.265l0.33-13.163l0.53,11.016l0.184-3.826
	l0.137-8.187l0.534,15.447l0.322-15.738l0.361,9.337l0.177,7.261l0.322-15.883l0.538,13.63l0.322-13.517l0.177-3.619l0.361,20.137
	l0.322-13.305l0.184,8.367l0.526,0.828l0.322-12.7l0.361,12.732l0.322-9.046l0.353,5.506l0.506-4.364l0.177-3.607l0.361,13.697
	l0.322-11.982l0.534,9.474l0.177-0.859l0.145-9.403l0.538,10.232l0.322-10.232l0.538,9.113l0.177-7.61l0.322,5.326l0.184-1.57
	l0.498-2.578l0.534,5.047l0.177,2.681l0.322-13.269l0.353,14.337l0.33-10.581l0.538,1.495l0.322,6.303l0.184-9.914l0.353,13.23
	l0.322-14.333L230,169.068l0.349-18.995l0.322,18.748l0.361-16.028l0.322,15.165l0.353-15.624l0.361,13.662l0.322-11.417
	l0.361,12.198l0.498,1.032l0.357-15.228l0.322,11.413l0.177-4.117l0.538-5.298l0.322,10.479l0.184-4.788l0.169-1.574l0.867,4.694
	l0.177-8.626l0.322,11.837l0.357-14.195l0.318,17.881l0.357-20.212l0.361,16.421l0.322-10.479l0.177,1.217l0.184,6.578l0.491-3.756
	l0.369,4.007l0.322-12.194l0.353,15.659l0.679-10.938l0.177,4.867 M240.97,156.588l0.177,4.867l0.184,8.218l0.322-23.854
	l0.353,28.536l0.361-23.744l0.322,14.886l0.353-11.201l0.322,12.594l0.538-12.347l0.326,11.13l0.177-9.16l0.353,6.26l0.184-5.228
	l0.675,7.622l0.322-14.588l0.184,7.551l0.177,12.622l0.675-30.408l0.361,45.816l0.181-14.235l0.498-23.065l0.353,26.931l0.33-21.711
	l0.177-7.539l0.506,31.111l0.353-33.552l0.361,24.608l0.137-0.353l0.361-25.318l0.357,35.075l0.498-42.233l0.353,57.979l0.33-67.598
	l0.353,60.546l0.322-52.999l0.184-1.754l0.177,56.86l0.683-39.113l0.357,26.244l0.318-11.268l0.357-23.638l0.177,38.477
	l0.322-42.555l0.538,45.958l0.322-72.214l0.361,102.434l0.353-87.653l0.145,19.27l0.361,37.163l0.357-45.742l0.314,44.305
	l0.546-49.388l0.314,70.24l0.361-78.285l0.314,62.692l0.361-44.988l0.361,35.008l0.322-32.9l0.361,42.17l0.322-54.258l0.357,47.037
	l0.353-11.452l0.322-32.041l0.361,55.22l0.322-55.075l0.177,9.474l0.177,38.654l0.867-28.78l0.169,20.275l0.33-30.726l0.349,30.726
	l0.184-6.762l0.184-19.992l0.491,21.601l0.506-29.396l0.361,48.069l0.353-55.114l0.322,47.779l0.361-36.119l0.322,34.69
	l0.349-36.017l0.184,26.535l0.322-11.656l0.361-3.222l0.353,14.168l0.498-23.572l0.361,35.805l0.322-43.277l0.361,46.134
	l0.322-45.746l0.349,32.692l0.177,13.662l0.322-44.667l0.538,41.017l0.33-32.861l0.177,10.44l0.361,13.591l0.314-29.356
	l0.361,32.928l0.357-25.922l0.322,18.489 M274.981,149.614l0.322,18.489l0.361-14.843l0.314,9.623l0.538,3.501l0.184-7.865
	l0.322-5.404l0.353,19.71l0.322-26.605l0.361,29.572l0.357-30.4l0.318,23.218l0.542-13.846l0.322,5.506l0.177,4.788l0.353-8.469
	l0.322,4.148l0.184-2.936l0.675,2.045l0.369,4.101l0.314-10.039l0.181,16.515l0.353-22.135l0.322,16.625l0.538-17.378l0.322,23.104
	l0.177-13.591l0.361,9.407l0.322-9.368l0.538,12.877l0.322-20.495l0.357,18.666l0.361-15.232l0.314,12.123l0.361-5.432l0.184-3.473
	l0.491,9.376l0.361-15.239l0.145,6.146l0.177,10.518l0.683-16.091l0.357,19.133l0.361-20.165l0.322,18.089l0.177-10.051l0.361,6.794
	l0.314-9.906l0.361,11.162l0.498-10.334l0.361,10.871l0.498,0.604l0.173-10.832l0.184-4.757l0.322,15.306l0.361-12.049l0.353,8.469
	l0.322-3.434l0.361,2.896l0.322-7.904l0.353,9.156l0.683,4.973l0.181-13.658l0.177-7.155l0.314,21.06l0.546-18.014l0.322,15.514
	l0.184-4.439l0.353-5.895l0.498,6.86l0.361-7.257l0.173,1.295l0.326,6.829l0.357-9.843l0.322,8.693l0.353,1.425l0.361-11.22
	l0.322,13.481l0.353-12.798l0.33,10.263l0.538-7.767l0.322,14.702l0.349-23.638l0.361,22.849l0.322-18.45l0.177,4.254l0.177,10.761
	l0.506-9.403l0.361,5.188l0.314-5.934l0.361,10.075l0.357-16.374l0.326,20.314l0.357-16.99l0.499,11.33l0.361-12.119l0.322,16.527
	l0.353-16.095l0.361,9.765l0.137-1.111l0.361-4.898l0.357,6.797l0.318-7.657 M309.314,163.778l0.318-7.657l0.534-5.475l0.33,22.139
	l0.177-10.294l0.185-9.659l0.675,18.634l0.361-29.188l0.322,36.409l0.361-31.652l0.169,3.006l0.322,20.852l0.357-17.955l0.184,9.906
	l0.491,2.614l0.361-9.874l0.506,7.649l0.361-3.607l0.498,6.436l0.177-11.55l0.322,9.619l0.184-5.758l0.534-2.79l0.314,13.269
	l0.361-20.381l0.322,24.137l0.361-26.252l0.361,27.826l0.137-8.764l0.184-16.095l0.534,15.667l0.498-8.587l0.177,0.039l0.498,11.201
	l0.361-17.779l0.322,20.353l0.353-22.147l0.361,27.786l0.322-32.751l0.361,30.934l0.322-23.823l0.357,18.779l0.361-19.101
	l0.314,20.742l0.361-20.275l0.322,19.066l0.361-18.246l0.353,16.672l0.322-14.125l0.177,12.194l0.361-14.164l0.33,16.487
	l0.349-18.136l0.322,22.528l0.361-22.316l0.498,17.064l0.177-2.477l0.361-13.473l0.322,18.418l0.353-18.705l0.361,16.841
	l0.322-14.808l0.349,13.132l0.33-13.524l0.361,17.241l0.361-21.103l0.314,20.459l0.361-14.878l0.499,9.91l0.353-12.692l0.322,19.737
	l0.357-22.39l0.184-2.606l0.322,30.675l0.353-31.181l0.506,25.318l0.361-19.278l0.353,16.13l0.498-17.987l0.184,15.809l0.177,7.158
	l0.322-22.029l0.534,16.232l0.322-12.269l0.177,2.292l0.361,5.542l0.683,3.073l0.169-17.057l0.33,25.495l0.361-24.996l0.177-1.535
	l0.322,26.609l0.349-29.082l0.322,28.466l0.361-25.785l0.361,21.248l0.314-16.06l0.361,13.944l0.33-15.016l0.538,16.633
	l0.314-17.422l0.357,12.516 M343.788,151.399l0.357,12.516l0.184,4.47l0.322-14.765l0.538,12.053l0.314-7.406l0.361,0.251
	l0.361,4.576l0.498-8.085l0.177,6.974l0.177,8.587l0.33-21.068l0.349,16.236l0.506-6.79l0.538,7.543l0.137-14.878l0.185,2.319
	l0.177,13.163l0.675-5.863l0.361-7.367l0.322,17.845l0.357-24.003l0.177,5.836l0.322,17.453l0.361-17.885l0.184,10.624l0.491-9.082
	l0.361,12.41l0.506-4.439l0.353-12.37l0.322,26.001l0.357-29.36l0.498,12.151l0.177,9.874l0.361-20.738l0.322,20.773l0.361-12.265
	l0.177,4.333l0.498-0.078l0.184-0.926l0.353-2.72l0.322,8.332l0.357-10.518l0.322,8.732l0.714,3.748l0.145-13.018l0.177-3.932
	l0.361,20.177l0.322-21.024l0.538,17.339l0.506-14.235l0.169,12.661l0.502-13.874l0.177,19.203l0.184-1.221l0.353-19.847
	l0.322,17.339l0.538-16.695l0.33,21.173l0.353-20.275l0.177,1.711l0.322,11.303l0.357-7.296l0.322,6.401l0.361-8.155l0.353,12.916
	l0.322-18.85l0.361,19.494l0.314-13.093l0.538,8.226l0.33-13.736l0.357,22.28l0.177-6.33l0.177-16.197l0.498,16.413l0.361-12.834
	l0.322,15.302l0.361-18.921l0.314,16.919l0.546-10.656l0.322,13.477l0.353-17.877l0.181,8.509l0.322,2.653l0.361-7.767l0.353,8.477
	l0.322-6.436l0.177,4.761l0.675-7.688l0.361,12.3l0.184-2.614l0.322-6.829l0.679,7.367l0.177-6.586l0.177-2.857l0.361,8.724
	l0.498-10.122l0.184,12.873l0.675-13.662l0.177,7.445l0.184,10.294l0.322-18.238 M377.984,170.709l0.322-18.238l0.357,10.734
	l0.314-3.505l0.361,0.031l0.361,2.214l0.322-8.509l0.353,19.172l0.322-26.138l0.546,29.643l0.322-28.469l0.353,16.915l0.357-5.93
	l0.322,4.827l0.353-8.516l0.322,11.346l0.177-3.658l0.184-7.045l0.859,1.326l0.177,8.403l0.177,2.543l0.145-16.566l0.856,17.924
	l0.184-18.85l0.177-2.147l0.353,20.169l0.506-19.027l0.353,20.706l0.322-22.775l0.361,30l0.322-34.545l0.361,32.685l0.349-27.681
	l0.322,16.197l0.184,8.446l0.498-27.072l0.361,28.214l0.361-23.422l0.137,3.756l0.177,13.658l0.538-12.331l0.322,11.091
	l0.357-16.174l0.322,21.923l0.538-22.5l0.322,26.079l0.361-31.476l0.353,27.367l0.145-21.142l0.353,17.806l0.506,2.861l0.353-23.709
	l0.181,7.94l0.177,13.991l0.506-17.21l0.353,15.914l0.506,4.29l0.361-29.788l0.314,36.299l0.361-31.974l0.177,2.83l0.322,21.778
	l0.349-20.491l0.506,15.094l0.361-14.772l0.322,15.875l0.177,3.187l0.361-25.502l0.322,33.191l0.361-32.869l0.491,30.365
	l0.361-29.215l0.181-6.546l0.322,39.984l0.353-34.156l0.361,24.886l0.675,2.967l0.184-28.995l0.145-10.236l0.353,61.378l0.361-66.02
	l0.322,46.774l0.534-31.613l0.322,35.514l0.353-42.166l0.322,44.525l0.361-42.955l0.361,36.809l0.314-27.288l0.361,17.516
	l0.33-12.159l0.177,20l0.349-40.597l0.326,56.578l0.357-54.215l0.498,47.637l0.361-48.713l0.361,40.518l0.137-3.042l0.361-25.711
	l0.361,26.185l0.322-27.873 M412.316,173.114l0.322-27.873l0.349,33.944l0.33-40.805l0.353,41.955l0.361-35.659l0.499,23.426
	l0.361-10.734l0.137-3.54l0.361,11.374l0.498-1.071l0.361-11.436l0.357,14.831l0.314-12.049l0.192-0.283l0.345,11.903l0.506-18.167
	l0.353,18.995l0.145-0.859l0.361-18.489l0.361,30.361l0.322-43.238l0.349,47.563l0.499-47.955l0.361,40.667l0.33-22.469l0.169-1.931
	l0.538,13.305l0.33-13.658l0.353,17.877l0.322-16.491l0.361,10.781l0.173,8.214l0.326-23.387l0.534,24.537l0.322-19.423l0.177-9.368
	l0.361,25.467l0.322-4.584l0.361-18.454l0.361,27.115l0.314-22.743l0.357,15.369l0.506-12.053l0.169,2.83l0.361,7.72l0.506-9.757
	l0.353,8.721l0.499,0.467l0.184-8.301l0.177,0.255l0.145,5.648l0.534,2.147l0.499-11.59l0.361,15.589l0.322-12.049l0.177-1.786
	l0.361,14.16L432.2,153.4l0.177,13.159l0.683-11.366l0.361,14.984l0.349-20.314l0.322,14.733l0.177,7.904l0.361-22.704l0.498,21.232
	l0.361-22.284l0.322,22.928l0.361-19.776l0.314,11.413l0.361-6.939l0.357,12.881l0.322-20.322l0.177,11.197l0.361,7.155l0.322-19.14
	l0.538,22.429l0.499-20.283l0.184,13.238l0.177,8.469l0.322-25.455l0.353,29.678l0.322-33.434l0.357,33.395l0.361-27.143
	l0.322,15.345l0.353-6.115l0.506,11.189l0.361-22.457l0.314,23.823l0.361-15.13l0.177-3.721l0.502,19.419l0.361-24.961l0.314,27.896
	l0.177-5.62l0.361-22.1l0.33,27.182l0.361-24.674l0.675,3.999l0.177,15.914 M446.971,153.115l0.177,15.914l0.357-19.133
	l0.314,19.356l0.184,2.461l0.361-25.856l0.498,27.394l0.361-23.14l0.137,3.893l0.361,12.524l0.353-10.585l0.33,5.824l0.534,4.792
	l0.322-12.049l0.177,10.546l0.361-7.433l0.498-3.183l0.353,15.738l0.145-0.216l0.177-22.429l0.545,18.03l0.322-12.516l0.353,16.731
	l0.322-20.243l0.357,22.037l0.361-22.995l0.314,19.71l0.546-16.068l0.322,12.692l0.353-7.61l0.184,1.327l0.137,2.751l0.538-3.787
	l0.322,7.681l0.357-9.152l0.499,6.079l0.184-4.003l0.353,3.787l0.683,2.508l0.177-7.688l0.177-3.933l0.322,15.836l0.534-20.353
	l0.322,19.71l0.538-6.256l0.145-6.079l0.177-3.968l0.361,18.595l0.322-16.303l0.538,8.254l0.184-0.106l0.137-3.328l0.71-4.36
	l0.322,14.411l0.361-14.772l0.177,14.459l0.322-19.035l0.361,19.172l0.322-16.527l0.353,17.21l0.361-16.703l0.322,10.938
	l0.534-11.299l0.322,20.926l0.177-3.473l0.184-20.812l0.498,15.875l0.538-6.79l0.322-1.719l0.353,11.692l0.33-16.841l0.353,15.773
	l0.184,5l0.322-24.133l0.349,18.269l0.361-8.226l0.675-2.107l0.185,10.518l0.322-13.308l0.361,11.766l0.177,3.081l0.314-13.199
	l0.542-2.759l0.322,16.562l0.353-14.309l0.322,13.984l0.361-20.746l0.361,25.824l0.137-3.324l0.361-28.293l0.361,41.201
	l0.322-40.589l0.534,28.646l0.318-14.16l0.534,4.51l0.153-3.073l0.177-1.405l0.361,8.662l0.322-8.83l0.53,8.901l0.322-13.662
	l0.361,15.699 M481.12,151.796l0.361,15.699l0.177,0.569l0.498-13.874l0.357,15.95l0.33-18.379l0.177,2.245l0.538,13.591
	l0.498-17.622l0.184,21.562l0.177,1.754l0.137-26.256l0.538,24.392l0.322-19.062l0.349,9.874l0.184-2.323l0.498-1.075l0.538,3.077
	l0.33-4.753l0.177,6.684l0.353-8.878l0.33,6.586l0.534,1.833l0.318-9.125l0.357,12.441l0.322-12.009l0.177,13.297l0.361-16.809
	l0.322,13.375l0.538-6.252l0.177-2.041l0.506,12.265l0.177-2.429l0.322-16.236l0.534,27.535l0.322-49.243l0.353,64.298l0.361-52.033
	h0.145l0.361,36.472l0.353-25.887l0.499,11.805l0.184,20.703l0.322-56.468l0.357,64.517l0.353-51.97l0.506,30.801l0.353-14.525
	l0.145-13.984l0.361,57.328l0.361-93.379l0.491,123.784l0.361-170.809l0.322,202.457l0.173-50.569l0.361-116.59l0.322,112.689
	l0.545-56.931l0.137-14.125l0.353,60.86l0.506-74.062l0.353,61.272l0.499-21.825l0.184-16.236l0.173,12.52l0.361,12.225l0.322-29.18
	l0.353,42.021l0.33-49.388l0.361,54.69l0.353-56.617l0.498,61.185l0.184-14.195l0.322-70.989l0.349,102.426l0.361-64.988
	l0.322-4.498l0.538,73.67l0.322-142.952l0.361,166.594l0.169-3.866l0.33-157.536l0.361,146.813l0.314-99.498l0.534,60.542
	l0.322-52.355l0.184-20.703l0.361,103.995l0.491-115.801l0.361,113.976l0.184-46.845l0.145-35.84l0.852,44.564l0.184-30.938
	l0.173-5.043l0.506,35.73l0.169,14.808l0.361-71.672l0.506,99.851l0.353-111.185l0.184,12.908l0.314,69.984 M515.315,120.179
	l0.314,69.984l0.361-23.348l0.33-40.267l0.526,73.846l0.322-71.174l0.538,47.963l0.184-25.746l0.137-9.337l0.361,32.331
	l0.353-39.447l0.322,65.126l0.361-80.471l0.322,63.984l0.534-14.129l0.322-27.425l0.184,0.604l0.353,51.35l0.322-70.42l0.361,75.93
	l0.361-89.047l0.314,103.674l0.361-93.654l0.498,61.645l0.357-32.288l0.322,22.061l0.361-28.497l0.177,41.056l0.322-50.569
	l0.361,39.231l0.498-8.764l0.361-9.91l0.177-6.507l0.322,31.405l0.353-38.305l0.357,27.681l0.498,11.334l0.361-56.9l0.322,69.957
	l0.361-56.931l0.177,6.138l0.322,47.037l0.361-68.375l0.322,78.316l0.353-75.605l0.357,70.597l0.322-60.655l0.353,33.085l0.33,8.909
	l0.538-43.634l0.322,68.658l0.353-81.319l0.361,69.553l0.322-41.692l0.181-7.335l0.353,36.762l0.322-27.355l0.361,22.382
	l0.322-34.258l0.538,54.757l0.314-68.454l0.361,65.875l0.361-53.21l0.322,42.594l0.181-20.106l0.498-9.435l0.353,26.821l0.361-30.4
	l0.322,30.255l0.353-34.765l0.184,10.267l0.137,20.495l0.722-9.337l0.145-10.232l0.526,7.441l0.33,7.826l0.353-16.232l0.361,11.02
	l0.137,4.541l0.361-19.172l0.361,23.25l0.322-16.166l0.361,5.471l0.498-2.39l0.177,8.293l0.357-21.064l0.322,29.211l0.53-29.855
	l0.33,32.936l0.353-29.25l0.184-1.04l0.322,27.716l0.353-27.543l0.322,25.612l0.534-38.305l0.322,54.141l0.361-47.877l0.361,25.671
	l0.498,4.615l0.177-22.355l0.184-13.375l0.322,53.858 M549.648,135.661l0.322,53.858l0.361-55.283l0.314,45.914l0.361-41.448
	l0.357,48.638l0.322-49.282l0.353,28.685l0.683-15.377l0.177,16.303l0.33-14.976l0.353,15.981l0.353-19.929l0.145,24.788
	l0.361-32.253l0.357,41.735l0.314-47.033l0.361,47.924l0.322-40.267l0.361,20.883l0.675-17.661l0.177,18.018l0.184,20.247
	l0.322-51.535l0.361,42.233l0.495-18.779l0.361-4.466l0.361,20.856l0.322-23.54l0.353,12.555l0.177,3.046l0.506-10.801l0.177,2.712
	l0.322,12.265l0.353-30.722l0.357,42.634l0.683-34.871l0.184,13.379l0.137,14.8l0.361-26.283l0.498,30.761l0.361-41.699
	l0.177,13.658l0.322,25.318l0.353-29.356l0.357,16.099l0.506,3.426l0.353-15.848l0.322,16.06l0.184-7.229l0.498-5.569l0.353,11.005
	l0.361-13.438l0.322,22.598l0.357-28.285l0.318,24.462l0.357-21.134l0.361,21.056l0.145-2.284l0.353-21.739l0.361,22.959
	l0.322-11.024l0.361,6.048l0.322-12.724l0.71,13.689l0.145-7.873l0.177-5.251l0.538,18.061l0.322-25.181l0.353,29.007l0.33-23.065
	l0.353,12.009l0.506,1.688l0.177-6.009l0.357,3.501l0.318-9.796l0.357,19.914l0.361-23.454l0.322,19.317l0.361-17.135l0.314,22.284
	l0.361-30.691l0.361,34.333l0.322-28.501l0.177-0.934l0.357,23.179l0.498-17.951l0.361,16.586L580,152.903l0.361,13.481
	l0.506-17.735l0.177,21.668l0.177,4.294l0.322-28.042l0.361,24.502l0.349-20.706l0.33,21.064l0.353-21.99l0.506,20.918l0.353-16.02
	l0.184-5.153l0.322,21.57 M583.981,149.182l0.322,21.57l0.361-17.206l0.314,9.941l0.361-8.371l0.357,14.203l0.314-19.384
	l0.361,18.379l0.322-18.67l0.361,26.935l0.353-31.688l0.506,26.998l0.361-24.141l0.314,22.068l0.184-5.718l0.357-10.553
	l0.498,19.529l0.353-27.649l0.322,25.467l0.361-15.954l0.184,1.111l0.322,8.976l0.353-8.689l0.506,6.291l0.177,0.322l0.349-9.042
	l0.322,11.405l0.538-9.298l0.145,1.931l0.353,5.687l0.506-0.322l0.361-7.296l0.169,5.832l0.506-2.936l0.357,5.22l0.326-7.971
	l0.173,13.414l0.361-24.184l0.498,30.652l0.353-32.37l0.184,10.236l0.137,15.228l0.546-15.514l0.322,9.867l0.534,5.765l0.326-15.922
	l0.173-4.4l0.361,22.461l0.314-24.317l0.361,26.248l0.506-24.101l0.353,20.059l0.36-17.665l0.322,15.483l0.177,0.467l0.357-12.665
	l0.322,6.947l0.184-3.65l0.675,0.714l0.177,1.005l0.361,0.573l0.506,1.319l0.491-1.538l0.184-6.005l0.357,15.514l0.326-16.303
	l0.173-1.005l0.353,9.835l0.33,2.685l0.353-12.053l0.361,10.726l0.137-5.652l0.546-3.469l0.322,8.944l0.534-1.248l0.318-5.259
	l0.357,9.474l0.361-14.05l0.137-0.899l0.361,16.743l0.506-15.522l0.353,10.663l0.177,2.673l0.506-11.299l0.534,10.149l0.141-7.143
	l0.18-1.825l0.353,7.115l0.683,5.365l0.177-15.73l0.184-6.303l0.322,29.144l0.353-27.064l0.322,17.728l0.361-9.611l0.349,6.754
	l0.506-8.112l0.361,12.626l0.322-16.06l0.353,11.154l0.322,1.111l0.361-8.477 M618.451,164.06l0.361-8.477l0.177,1.432l0.498,9.98
	l0.184-5.334l0.177-7.151l0.679,6.401l0.177-3.006l0.498,5.903l0.361-7.834l0.177-0.353l0.322,9.007l0.361-6.578l0.184,2.178
	l0.491,4.223l0.357-10.871l0.33,11.621l0.353-6.974l0.683-0.137l0.177,5.789l0.506-2.072l0.169-7.19l0.361,14.38l0.322-14.733
	l0.184-1.256l0.349,15.239l0.322-14.243l0.538,10.447l0.33-8.615l0.353,8.544l0.322-8.874l0.361,7.834l0.177,0.361l0.322-9.192
	l0.361,10.4l0.349-10.648l0.322,12.802l0.361-10.84l0.683-1.892l0.169,8.187l0.184,6.154l0.322-14.341l0.538,12.947l0.322-12.088
	l0.177-2.041l0.357,13.132l0.498-4.301l0.361-7.512l0.322,12.343l0.361-13.846l0.322,14.674l0.353-14.168l0.361,13.269l0.322-14.486
	l0.184,1.715l0.349,13.67l0.322-14.741l0.361,14.768l0.322-15.267l0.53,13.728l0.33-10.624l0.177,6.224l0.353-4.784l0.184,6.256
	l0.498-2.257l0.506-3.685l0.349,6.762l0.361-5.467l0.322,2.422l0.353-5.396l0.322,13.414l0.361-18.167l0.184-1.362l0.314,24.458
	l0.361-28.422l0.357,27.61l0.322-21.385l0.353,11.009l0.322-1.935l0.361-1.432l0.506,1.044l0.353-2.363l0.361,4.831l0.137-5.797
	l0.361,6.079l0.357-3.571l0.318-1.327l0.357,3.218l0.33-1.892l0.353,2.39l0.498-5.789l0.361,11.448l0.361-16.782l0.322,18.528
	l0.177,0.926l0.349-21.385l0.326,19.027l0.542-11.515l0.491,7.657l0.184-6.436l0.177-4.003l0.33,14.871 M652.639,153.66l0.33,14.871
	l0.353-18.128l0.33,17.951l0.53-14.525l0.322,13.768l0.357-14.372l0.361,11.688l0.137-2.1l0.177-4.368h0.867l0.177,4.254
	l0.361-5.895l0.322,8.693l0.353-13.454l0.322,17.092l0.181-6.04l0.177-10.047l0.498,14.447l0.538-15.491l0.177,6.625l0.322,7.006
	l0.361-11.056l0.322,8.411l0.538-5.365l0.322,4.466l0.357-5.075l0.361,7.406l0.314-7.834l0.361,6.185l0.322-5.608l0.361,5.255
	l0.177,1.817l0.322-11.542l0.353,16.519l0.361-16.703l0.326,11.872l0.53-8.623l0.322,9.266l0.361-7.684l0.322,4.898l0.353-5.008
	l0.506,5.291l0.177-2.677l0.177-3.976l0.506,7.52l0.177-2.586l0.173-4.505l0.506,6.122l0.361-7.696l0.361,9.27l0.491-7.622
	l0.184-1.001l0.177,9.509l0.859-10.184l0.137,9.152l0.184,1.676l0.357-8.799l0.498,8.265l0.353-12.296l0.33,15.836l0.361-15.561
	l0.177,1.648l0.177,9.443l0.498-5.655l0.506,4.623l0.349-10.769l0.361,17.63l0.322-16.841l0.353,9.651l0.185-0.852l0.322-5.652
	l0.361,9.545l0.322-10.439l0.538,2.429l0.322,6.652l0.349-8.513l0.361,6.868l0.137,5.294l0.361-17.025l0.361,16.091l0.314-9.835
	l0.546,0.867l0.322,3.532l0.177,2.508l0.361-9.337l0.322,7.327l0.534-3.112l0.137,1.688l0.361-4.262l0.498,8.622l0.361-12.626
	l0.177,6.158l0.184,6.574l0.498-10.828l0.353,12.186l0.33-9.835l0.349,6.44l0.322-8.332l0.361,9.835l0.361-6.833l0.498,4.863"/>
<polyline fill="none" stroke="#FFFFFF" stroke-miterlimit="10" points="177.158,116.725 177.158,95.795 317.138,95.795 
	317.138,115.418 "/>
<polyline fill="none" stroke="#FFFFFF" stroke-miterlimit="10" points="385.975,74.863 385.975,53.933 582.208,53.933 
	582.208,73.556 "/>
<g>
	<g>
		<path fill="#FFFFFF" d="M210.761,70.172h5.656c4.06,0,6.776,1.372,6.776,5.404c0,3.864-2.772,5.684-6.776,5.684h-3.304v7.28
			h-2.352V70.172z M216.109,79.356c3.22,0,4.76-1.176,4.76-3.78c0-2.66-1.596-3.528-4.76-3.528h-2.996v7.308H216.109z"/>
		<path fill="#FFFFFF" d="M230.641,74.932h2.352l2.016,7.868c0.308,1.288,0.56,2.52,0.812,3.78h0.112
			c0.308-1.26,0.588-2.52,0.924-3.78l2.1-7.868h2.24l2.128,7.868c0.336,1.288,0.644,2.52,0.952,3.78h0.112
			c0.308-1.26,0.56-2.492,0.84-3.78l1.988-7.868h2.184l-3.64,13.608h-2.8l-1.96-7.308c-0.336-1.288-0.588-2.548-0.924-3.92h-0.112
			c-0.308,1.372-0.588,2.66-0.952,3.948l-1.904,7.28h-2.688L230.641,74.932z"/>
		<path fill="#FFFFFF" d="M259.789,79.916c0-1.736-0.588-3.416-2.8-3.416c-1.596,0-2.996,0.728-4.06,1.456l-0.924-1.596
			c1.26-0.812,3.164-1.764,5.348-1.764c3.332,0,4.732,2.212,4.732,5.6v8.344h-1.904l-0.196-1.624h-0.056
			c-1.316,1.064-2.828,1.96-4.508,1.96c-2.296,0-4.004-1.428-4.004-3.864C251.417,82.044,253.993,80.56,259.789,79.916z
			 M256.065,87.027c1.316,0,2.408-0.644,3.724-1.82v-3.78c-4.564,0.56-6.104,1.68-6.104,3.416
			C253.685,86.384,254.721,87.027,256.065,87.027z"/>
		<path fill="#FFFFFF" d="M264.465,74.932h2.38l2.576,7.728c0.392,1.344,0.84,2.716,1.26,4.004h0.112
			c0.392-1.288,0.84-2.66,1.232-4.004l2.576-7.728h2.268l-4.816,13.608h-2.688L264.465,74.932z"/>
		<path fill="#FFFFFF" d="M284.485,74.596c3.472,0,5.432,2.492,5.432,6.384c0,0.476-0.028,0.924-0.084,1.26h-9.184
			c0.168,2.94,1.932,4.788,4.536,4.788c1.288,0,2.38-0.42,3.388-1.064l0.812,1.512c-1.176,0.756-2.632,1.4-4.48,1.4
			c-3.64,0-6.524-2.66-6.524-7.112C278.381,77.312,281.377,74.596,284.485,74.596z M287.901,80.728c0-2.772-1.232-4.312-3.36-4.312
			c-1.904,0-3.64,1.568-3.92,4.312H287.901z"/>
		<path fill="#FFFFFF" d="M292.913,85.46c1.176,0.952,2.38,1.624,4.004,1.624c1.792,0,2.688-0.952,2.688-2.128
			c0-1.4-1.624-2.016-3.108-2.576c-1.932-0.7-4.06-1.624-4.06-3.92c0-2.184,1.736-3.864,4.676-3.864c1.708,0,3.192,0.7,4.228,1.54
			l-1.092,1.456c-0.924-0.7-1.904-1.204-3.108-1.204c-1.708,0-2.492,0.924-2.492,1.96c0,1.26,1.484,1.764,3.024,2.352
			c1.96,0.728,4.144,1.54,4.144,4.116c0,2.212-1.764,4.06-4.984,4.06c-1.932,0-3.78-0.812-5.068-1.876L292.913,85.46z"/>
	</g>
</g>
<g>
	<g>
		<path fill="#FFFFFF" d="M450.964,41.458c1.316,1.372,3.136,2.296,5.068,2.296c2.408,0,3.836-1.204,3.836-2.996
			c0-1.876-1.344-2.464-3.08-3.248l-2.632-1.148c-1.708-0.728-3.724-2.044-3.724-4.732c0-2.8,2.464-4.872,5.796-4.872
			c2.184,0,4.116,0.924,5.404,2.268l-1.232,1.512c-1.12-1.064-2.492-1.736-4.172-1.736c-2.072,0-3.444,1.036-3.444,2.688
			c0,1.764,1.624,2.436,3.052,3.052l2.632,1.12c2.128,0.924,3.78,2.184,3.78,4.9c0,2.912-2.408,5.236-6.272,5.236
			c-2.576,0-4.816-1.064-6.412-2.716L450.964,41.458z"/>
		<path fill="#FFFFFF" d="M469.584,31.854h2.353l2.016,7.868c0.308,1.288,0.56,2.52,0.812,3.78h0.112
			c0.308-1.26,0.588-2.52,0.924-3.78l2.101-7.868h2.239l2.128,7.868c0.337,1.288,0.645,2.52,0.952,3.78h0.112
			c0.308-1.26,0.56-2.492,0.84-3.78l1.988-7.868h2.184l-3.64,13.608h-2.8l-1.96-7.308c-0.336-1.288-0.588-2.548-0.924-3.92h-0.112
			c-0.309,1.372-0.588,2.66-0.952,3.948l-1.904,7.28h-2.688L469.584,31.854z"/>
		<path fill="#FFFFFF" d="M498.731,36.838c0-1.736-0.588-3.416-2.8-3.416c-1.597,0-2.996,0.728-4.061,1.456l-0.924-1.596
			c1.26-0.812,3.164-1.764,5.348-1.764c3.332,0,4.732,2.212,4.732,5.6v8.344h-1.904l-0.195-1.624h-0.057
			c-1.315,1.064-2.828,1.96-4.508,1.96c-2.296,0-4.004-1.428-4.004-3.864C490.359,38.966,492.936,37.482,498.731,36.838z
			 M495.008,43.95c1.315,0,2.407-0.644,3.724-1.82v-3.78c-4.564,0.56-6.104,1.68-6.104,3.416
			C492.627,43.306,493.663,43.95,495.008,43.95z"/>
		<path fill="#FFFFFF" d="M503.407,31.854h2.38l2.576,7.728c0.392,1.344,0.84,2.716,1.26,4.004h0.112
			c0.392-1.288,0.84-2.66,1.231-4.004l2.576-7.728h2.269l-4.816,13.608h-2.688L503.407,31.854z"/>
		<path fill="#FFFFFF" d="M523.427,31.518c3.473,0,5.433,2.492,5.433,6.384c0,0.476-0.028,0.924-0.084,1.26h-9.185
			c0.168,2.94,1.933,4.788,4.536,4.788c1.288,0,2.38-0.42,3.388-1.064l0.812,1.512c-1.176,0.756-2.632,1.4-4.48,1.4
			c-3.64,0-6.523-2.66-6.523-7.112C517.323,34.234,520.319,31.518,523.427,31.518z M526.843,37.65c0-2.772-1.231-4.312-3.359-4.312
			c-1.904,0-3.641,1.568-3.92,4.312H526.843z"/>
		<path fill="#FFFFFF" d="M531.854,42.382c1.177,0.952,2.38,1.624,4.004,1.624c1.792,0,2.688-0.952,2.688-2.128
			c0-1.4-1.624-2.016-3.108-2.576c-1.932-0.7-4.06-1.624-4.06-3.92c0-2.184,1.736-3.864,4.676-3.864c1.708,0,3.192,0.7,4.229,1.54
			l-1.093,1.456c-0.924-0.7-1.903-1.204-3.107-1.204c-1.708,0-2.492,0.924-2.492,1.96c0,1.26,1.484,1.764,3.024,2.352
			c1.96,0.728,4.144,1.54,4.144,4.116c0,2.212-1.764,4.06-4.984,4.06c-1.932,0-3.779-0.812-5.067-1.876L531.854,42.382z"/>
	</g>
</g>
</svg>
