<?xml version="1.0" encoding="utf-8"?>
<!-- Generator: Adobe Illustrator 17.0.0, SVG Export Plug-In . SVG Version: 6.00 Build 0)  -->
<!DOCTYPE svg PUBLIC "-//W3C//DTD SVG 1.1//EN" "http://www.w3.org/Graphics/SVG/1.1/DTD/svg11.dtd">
<svg version="1.1" id="Layer_1" xmlns="http://www.w3.org/2000/svg" xmlns:xlink="http://www.w3.org/1999/xlink" x="0px" y="0px"
	 width="1110px" height="415.778px" viewBox="0 0 1110 415.778" enable-background="new 0 0 1110 415.778" xml:space="preserve">
<path fill="none" stroke="#FFE100" stroke-miterlimit="10" d="M10.077,228.397l0.51,4.318l0.573-4.592l0.28,3.062l0.79,0.896
	l0.554-3.852l0.51,2.676l0.865-1.991l0.51,2.159l0.56-1.083l0.573,0.734l0.51-2.371l0.56,4.362l0.51-4.704l0.573,3.789l0.286-2.831
	l0.498,3.062l0.292-2.844l1.083,1.935l0.548-2.383l0.292,3.802l0.51-3.572l0.572,0.404l0.573,2.427l0.51-2.937l0.554,2.259
	l0.523-1.581l0.84,1.873l0.51-3.292l0.572,4.2l0.573-3.927l0.51,3.248l0.56-2.906l0.51,2.831l0.292,1.313l0.554-5.955l0.51,5.214
	l0.292-2.769l1.07,3.447l0.572-5.382l0.79,4.487l0.292-1.991l0.268-1.537l0.803,2.396l0.292,2.203l0.28-4.816l0.784,2.203l0.573-1.3
	l0.573,2.95l0.51-3.23l0.84,0.573l0.51,2.489l0.292-2.844l0.56,2.396l0.51-1.643l0.292,1.35l0.784-0.168l0.573-1.935l0.56,2.446
	l0.51-2.551l0.573,2.657l0.28-2.937l1.083,3.447l0.51-5.215l0.292,2.508l0.268,3.279l1.077-2.999l0.573,1.357l0.51-2.041
	l0.572,2.676l0.28-0.461l0.79-2.725l0.573,3.186l0.28-2.844l0.51,2.321l0.292-2.383l1.356,0.803l0.28,1.301l0.51-1.711l0.56,1.711
	l0.572-0.168l0.51-2.277l0.573,4.549l0.498-5.849l0.293,6.689l0.566-7.71l0.51,6.36l0.853-3.572l0.28,2.371l0.51-3.173l0.573,3.696
	l0.28-2.277l1.083,1.475l0.268-3.068l0.523,5.968l0.846-6.073l0.23,1.873l0.28,2.551l0.852-1.363l0.23-2.663 M63.429,230.843
	l0.23-2.663l1.132,3.746l0.498-3.466l0.292,1.705l0.803,0.56l0.834,1.307l0.292-2.551l0.224-1.699l0.859,4.194l0.28-0.902
	l0.23-3.229l1.132,4.48l0.218-3.062l0.865-0.971l0.498,3.79l0.859,0.572l0.268-3.572l0.243-1.923l0.56,5.165l0.79-1.649l0.292-1.705
	l1.07,1.643l0.292,0.572l0.56-3.006l0.523,2.893l0.268,0.392l0.566-2.277l0.517-0.218l0.566,2.956l0.79-3.292l0.573,2.887
	l0.292-3.23l0.498,3.684l0.852-3.516l0.51,3.236l0.573-1.145l0.554-1.419l0.237,3.074l0.566-5.277l0.56,6.795l0.51-6.795
	l0.572,5.445l0.803-2.676l0.28-1.064l0.28,2.209l0.79,0.28l0.566-1.581l0.79,1.413l0.573-1.873l0.51,2.153l0.28-2.215l0.865,0.915
	l0.498,1.077l0.292-2.321l0.56,2.433l0.803,0.342l0.274-3.684l0.517,3.572l0.846-1.699l0.803-0.572l0.28,2.676l0.79,0.168
	l0.28-2.906l0.28-0.79l0.573,3.466l0.523-3.236l0.554,3.236l0.79-2.676l0.573,2.956l0.28-1.021l0.803-2.041l0.28,3.628l0.51-4.144
	l1.133,3.174l0.23-4.704l0.573,6.528l0.268-6.913l0.523,7.193l0.846-6.465l0.51,6.123l0.56-3.678l0.292,1.469l0.28-2.433
	l1.363,0.112l0.218,2.209l0.573-3.634l0.566,5.109l0.237-2.215l0.554-1.406l0.573,2.707l0.51-1.301l0.572-1.3l0.79,2.215l0.28,0.79
	l0.292-3.174l1.07,3.341l0.566-3.279l0.803,0.51l0.268,2.707l0.523-4.02l0.56,4.262 M118.095,228.061l0.56,4.262l0.573-3.97
	l0.51,2.937l0.572-0.958l0.51-1.07l0.84,0.392l0.286,1.189l0.224,0.803l0.566-4.045l0.573,5.395l0.51-4.424l0.572,0.448l0.498,4.835
	l0.572-6.416l0.28,4.997l0.803-0.112l0.846-3.41h0.79l0.28,3.46l0.523-6.633l0.573,7.592l0.56-4.02l0.498,1.593l0.292-2.333
	l0.573,4.25l0.498-4.698l0.573,3.111l0.796,1.089l0.56-4.374l0.292-0.573l0.79,4.997l0.56-5.32l0.523,4.132l0.28,1.251l0.573-2.551
	l0.778-1.487l0.566,3.404l0.236-1.188l0.566-1.643l0.56,0.684l0.51,2.782l0.865-0.168l0.51-4.717l0.56,5.507l0.51-5.507h0.28
	l0.573,3.914l0.784-0.79l0.573-4.362l0.51,9.296l0.572-8.338l0.573,2.153l0.218,1.929l0.852,1.083l0.51-6.36l0.573,7.137
	l0.566-3.441l0.51-1.313l0.56,3.298l0.79,1.531l0.28-5.109l0.292-0.908l0.28,4.592l1.083-2.893l0.28,1.985l0.51-3.068l0.573,4.717
	l1.077-3.69l0.28,1.637l0.28,2.053l0.803-5.053l0.28,1.531l0.51,3.684l0.84-6.963l0.523,7.766l0.28-2.103l0.846-1.923l0.236-1.145
	l0.846,4.318l0.28-0.852l0.523-6.528l0.56,10.056l0.51-8.631l0.56,4.935l0.572-3.062l0.51,5.445l0.573-9.191l0.51,7.996l0.846-4.655
	l0.28,0.062l0.23,3.51l0.84-0.156l0.803-2.956l0.292-2.613l0.573,8.512l0.498-6.807l0.56,2.209l0.796,3.068l0.56-5.569l0.292,1.643
	l0.79,3.354 M172.3,229.132l0.79,3.354l0.292-1.413l0.28-2.676l0.79,0.467l0.79,4.35l0.573-7.816l0.566,7.548l0.224-2.333
	l0.566-1.873l1.07,2.782l0.292-2.259l0.572,2.028l0.218-3.447l1.145,3.341l0.218-1.531l0.585,1.867l0.28-2.551l0.51,3.354
	l0.554-3.242l0.79,0.398l0.573,1.755l0.28-0.33l0.51-1.643l0.865,2.881l0.51-2.445l0.268-1.749l0.573,4.487l0.796-0.678l0.573-4.088
	l0.28,4.816l0.51-2.831l0.573-0.523l0.51,2.844l0.547-3.796l0.585,3.466l0.51-1.761l0.28,0.908l1.077-1.139l0.56,0.958l0.28,0.678
	l0.803-2.937l0.28,3.914l0.51-4.256l0.573,3.173l0.28-2.103l1.083,0.691l0.554,0.778l0.237-1.07l0.566,0.684l0.56,1.531l0.803-3.634
	l0.56,4.997l0.523-5.214l0.28,3.51l0.56-4.3l0.51,5.6l0.846-3.74l0.523,0.218l0.56,5.395l0.51-9.066l0.573,7.753l0.28-0.392
	l0.51-5.382l1.133,5.445l0.23-4.02l0.853-0.467l0.274,3.466l0.237,1.468l0.566-5.781l0.56,4.48l0.51-3.572l0.572,3.516l0.79-3.914
	l0.572,6.017l0.51-6.702l0.28,1.811l0.573,2.788l0.498-2.551l0.292,0.908l1.077,0.461l0.56-1.369l0.803,0.74l0.28,0.908l0.852,0.05
	l0.23-1.861l0.56,2.943l0.293-5.507l0.51,6.59l0.846-5.277l0.28,2.041l0.51,1.643l1.07-0.28l0.292-4.487l0.56,6.173l0.292-3.79
	l0.51-0.622l0.573,3.684l1.064-3.292l0.28,1.711l0.803,0.778l0.28-3.174 M227.246,231.571l0.28-3.174l0.573,4.424l0.51-4.592
	l0.28,4.312l0.573-3.802l1.07,1.873l0.28-0.56l0.523,1.413l0.566-3.068l0.28,1.655l0.498,1.979l0.573-3.97l0.523,2.893l0.84,1.419
	l0.51-3.242l0.28-1.861l0.573,7.548l1.077-6.87l0.28,1.935l0.803,4.3l0.28-6.633l0.28-2.495l0.51,8.002l0.572-2.613l0.56-2.215
	l0.803,1.251l0.566,2.091l0.517-2.601l0.554,1.3l0.51,0.803l0.573-1.083l0.56-1.021l0.23,2.265l0.572-0.112l0.573-3.746l0.51,4.144
	l0.28-0.797l1.07-2.881l0.566,4.81l0.292-1.188l0.79-2.277l0.28-1.064l0.803,4.144l0.84-0.977l0.23-3.74l0.572,6.926l0.56-6.59
	l0.23-0.554l0.846,4.468l0.28-1.188l0.79-1.979l0.293,1.749l0.79,1.543l0.292-1.593l0.28-1.873l1.083,3.684l0.566-3.279h0.224
	l0.846,3.404l0.28-0.852l0.803-3.814l0.56,6.366l0.51-5.613l0.292,1.126l0.28,0.965l0.79,1.356l0.28-2.259l0.803-1.188l0.846,3.622
	l0.28-1.475l0.23-2.719l1.133,5.507l0.523-5.277l0.56,1.363l0.51,3.167l0.28-2.159l0.28-1.985l0.803,3.404l0.554-2.999l1.083-1.201
	l0.28,5.731l0.293-0.678l0.28-4.362l0.803,1.251l0.79,2.029l0.572-4.58l0.56,4.766l0.23,1.406l0.834-5.382l0.292,0.168l0.803,4.536
	l0.56-6.005l0.51,5.04l0.28,1.425l0.803-4.144l0.28-0.062l0.852,3.466l0.218-1.363l0.566-2.383l0.573,0.803l0.51,4.524
	 M281.171,229.262l0.51,4.524l0.573-5.725l0.79,4.935l0.28-0.853l0.572-3.124l0.79-0.106l0.572,4.991l0.51-8.444l0.566,7.193
	l0.28-0.622l0.498-4.02l0.865-0.853l0.51,7.025l0.56-5.725l0.292,1.761l0.51,0.573l0.852-1.201l0.23,1.251l0.554-2.551l0.573,3.466
	l0.79-4.766l0.573,5.774l0.218-3.503l1.133,2.091l0.23-3.622l0.573,5.88l0.572-5.768l0.51,3.678l0.554-2.831l0.292-0.23l0.51,5.675
	l0.56-10.778l0.523,15.252l0.56-15.874l0.28,12.7l1.083,0.062L301.591,225l0.498,12.358l0.566-17.454l0.51,21.256l0.28-17.405
	l0.865,2.321l0.51,10.89l0.56-14.741l0.51,19.676l0.573-21.313l0.292,20.572l0.485-20.926l0.292,15.034l1.077,4.02l0.56-14.679
	l0.803,3.622l0.28,7.548l0.572-14.524l0.523,20.927l0.56-22.905l0.28,17.243l0.51-13.951l0.566,14.063l0.573-13.043l0.498,10.771
	l0.853-8.401l0.51,11.63l0.572-14.001l0.51,8.898l0.28,2.657l0.572-13.534l0.51,19.041l0.566-21.935l0.56,23.017l0.51-19.844
	l0.853,14.057l0.51-7.996l0.28,3.622l0.803-2.309l0.573,3.174l0.56-7.256l0.51,12.806l0.566-14.181l0.79,16.677l0.28-14.356
	l0.292-11.219l0.51,29.595l0.573-25.849l0.56,18.133l0.79-8.606l0.573,7.088l0.23-10.267l0.56,11.35l0.566-11.972l0.51,14.231
	l0.573-16.845l0.79,16.739l0.852-20.422l0.23,18.599l0.28,6.633l0.28-20.174l0.79-0.404l0.572,16.384l1.077-17.012l0.28,22.227
	 M336.116,222.106l0.28,22.227l0.56-27.429l0.523,19.551l0.28-13.267l0.573,12.016l0.79-1.188l0.573-9.297l0.79-3.746l0.274,18.718
	l0.292-1.935l0.498-17.062l0.572,21.661l0.51-22.339l0.853,21.424l0.51-22.445l0.572,24.1l0.56-28.817l0.523,31.026l0.554-28.294
	l0.51,26.253l0.573-26.309l0.56,23.988l0.51-19.396l0.573,19.446l0.523-20.871l0.84,17.467l0.292-6.067l0.218-12.98l0.846,24.492
	l0.51-24.953l0.573,14.804l0.28,11.512l0.51-25.183l0.853,21.611l0.51-21.431l0.28-5.737l0.573,31.928l0.51-21.095l0.292,13.267
	l0.834,1.313l0.51-20.136l0.572,20.186l0.51-14.343l0.56,8.73l0.803-6.92l0.28-5.719l0.573,21.717l0.51-18.998l0.846,15.021
	l0.28-1.363l0.23-14.909l0.852,16.222l0.51-16.222l0.853,14.449l0.28-12.066l0.51,8.444l0.292-2.489l0.79-4.088l0.846,8.002
	l0.28,4.25l0.51-21.039l0.56,22.731l0.523-16.776l0.853,2.371l0.51,9.993l0.292-15.718l0.56,20.976l0.51-22.725l0.572,25.743
	l0.554-30.117l0.51,29.725l0.572-25.413l0.51,24.044l0.56-24.772l0.572,21.661l0.51-18.102l0.573,19.34l0.79,1.637l0.566-24.144
	l0.51,18.095l0.28-6.528l0.852-8.401l0.51,16.614l0.292-7.592l0.268-2.495l1.375,7.442l0.28-13.677l0.51,18.768l0.566-22.507
	l0.504,28.35l0.566-32.046l0.573,26.035l0.51-16.614l0.28,1.929l0.292,10.429l0.778-5.955l0.585,6.353l0.51-19.334l0.56,24.828
	l1.077-17.343l0.28,7.716 M390.552,224.608l0.28,7.716l0.292,13.03l0.51-37.821l0.56,45.245l0.572-37.647l0.51,23.602l0.56-17.759
	l0.51,19.968l0.852-19.576l0.517,17.647l0.28-14.523l0.56,9.925l0.292-8.289l1.07,12.084l0.51-23.129l0.292,11.972l0.28,20.012
	l1.07-48.213l0.572,72.643l0.286-22.569l0.79-36.57l0.56,42.7l0.523-34.423l0.28-11.954l0.803,49.327l0.56-53.197l0.572,39.016
	l0.218-0.56l0.573-40.142l0.566,55.611l0.79-66.961l0.56,91.926l0.523-107.178l0.56,95.996l0.51-84.03l0.292-2.781l0.28,90.153
	l1.083-62.014l0.566,41.61l0.504-17.865l0.566-37.479l0.28,61.006l0.51-67.472l0.852,72.867l0.51-114.496l0.573,162.41l0.56-138.976
	l0.23,30.553l0.573,58.922l0.566-72.524l0.498,70.247l0.865-78.305l0.498,111.366l0.573-124.122l0.498,99.4l0.572-71.33
	l0.573,55.506l0.51-52.164l0.572,66.862l0.51-86.027l0.566,74.578l0.56-18.158l0.51-50.801l0.573,87.552l0.51-87.322l0.28,15.021
	l0.28,61.286l1.375-45.63l0.268,32.146l0.523-48.717l0.554,48.717l0.292-10.721l0.292-31.698l0.778,34.249l0.803-46.607
	l0.573,76.214l0.56-87.384l0.51,75.754l0.572-57.267l0.51,55.002l0.554-57.105l0.292,42.071l0.51-18.481l0.573-5.109l0.56,22.464
	l0.79-37.373l0.573,56.769l0.51-68.617l0.572,73.147l0.51-72.531l0.554,51.834l0.28,21.661l0.51-70.82l0.853,65.032l0.523-52.102
	l0.28,16.552l0.572,21.549l0.498-46.545l0.572,52.208l0.566-41.1l0.51,29.315 M444.477,213.55l0.51,29.315l0.573-23.534
	l0.498,15.258l0.853,5.551l0.292-12.47l0.51-8.568l0.56,31.25l0.51-42.183l0.572,46.887l0.566-48.2l0.504,36.813l0.859-21.953
	l0.51,8.73l0.28,7.592l0.56-13.429l0.51,6.577l0.292-4.654l1.07,3.242l0.585,6.503l0.498-15.917l0.286,26.185l0.56-35.096
	l0.51,26.359l0.853-27.554l0.51,36.632l0.28-21.549l0.573,14.916l0.51-14.853l0.852,20.416l0.51-32.495l0.566,29.595l0.572-24.15
	l0.498,19.222l0.573-8.612l0.292-5.507l0.778,14.866l0.572-24.162l0.23,9.744l0.28,16.677l1.083-25.513l0.566,30.335l0.572-31.972
	l0.51,28.68l0.28-15.936l0.573,10.771l0.498-15.706l0.573,17.697l0.79-16.384l0.573,17.237l0.79,0.958l0.274-17.174l0.292-7.542
	l0.51,24.268l0.573-19.103l0.56,13.428l0.51-5.445l0.573,4.592l0.51-12.532l0.56,14.517l1.083,7.884l0.286-21.655l0.28-11.344
	l0.498,33.39l0.865-28.562l0.51,24.598l0.292-7.038l0.56-9.346l0.79,10.877l0.573-11.506l0.274,2.053l0.516,10.827l0.566-15.606
	l0.51,13.783l0.56,2.259l0.573-17.79l0.51,21.375l0.56-20.292l0.523,16.272l0.852-12.315l0.51,23.31l0.554-37.479l0.573,36.228
	l0.51-29.252l0.28,6.745l0.28,17.062l0.803-14.909l0.573,8.226l0.498-9.409l0.573,15.974l0.566-25.961l0.516,32.208l0.566-26.938
	l0.79,17.965l0.573-19.215l0.51,26.203l0.56-25.519l0.572,15.482l0.218-1.761l0.573-7.766l0.566,10.778l0.504-12.14
	 M498.912,236.008l0.504-12.14l0.846-8.68l0.523,35.102l0.28-16.322l0.293-15.314l1.07,29.545L503,201.92l0.51,57.727l0.573-50.185
	l0.268,4.766l0.51,33.061l0.566-28.468l0.292,15.706l0.778,4.144l0.573-15.656l0.803,12.128l0.572-5.719l0.79,10.205l0.28-18.313
	l0.51,15.252l0.292-9.129l0.846-4.424l0.498,21.039l0.573-32.314l0.51,38.269l0.573-41.623l0.572,44.118l0.218-13.895l0.292-25.519
	l0.846,24.841l0.79-13.615l0.28,0.062l0.79,17.759l0.573-28.188l0.51,32.27l0.56-35.114l0.573,44.056l0.51-51.928l0.572,49.047
	l0.51-37.771l0.566,29.775l0.573-30.285l0.498,32.886l0.573-32.146l0.51,30.229l0.573-28.929l0.56,26.434l0.51-22.395l0.28,19.334
	l0.573-22.457l0.523,26.141l0.554-28.755l0.51,35.718l0.572-35.382l0.79,27.056l0.28-3.927l0.572-21.362l0.51,29.203L531,215.99
	l0.573,26.701l0.51-23.478l0.554,20.821l0.523-21.443l0.572,27.336l0.573-33.459l0.498,32.439l0.572-23.59l0.79,15.712l0.56-20.124
	l0.51,31.293l0.566-35.5l0.292-4.132l0.51,48.636l0.56-49.439l0.803,40.142l0.573-30.566l0.56,25.575l0.79-28.518l0.292,25.065
	l0.28,11.35l0.51-34.927l0.846,25.737l0.51-19.452l0.28,3.634l0.573,8.786l1.083,4.872l0.268-27.044l0.523,40.422l0.572-39.632
	l0.28-2.433l0.51,42.189l0.554-46.11l0.51,45.133l0.573-40.883l0.573,33.689l0.498-25.463l0.573,22.109l0.523-23.808L553.072,244
	l0.498-27.622l0.566,19.844 M553.572,216.381l0.566,19.844l0.292,7.088l0.51-23.409l0.852,19.11l0.498-11.742l0.573,0.398
	l0.573,7.256l0.79-12.819l0.28,11.057l0.28,13.615l0.523-33.403l0.554,25.743l0.803-10.765l0.853,11.96l0.218-23.59l0.293,3.678
	l0.28,20.871l1.07-9.297l0.573-11.68l0.51,28.294l0.566-38.057l0.28,9.253l0.51,27.672l0.573-28.356l0.292,16.845l0.778-14.399
	l0.573,19.676l0.803-7.038l0.56-19.614l0.51,41.225l0.566-46.551l0.79,19.265l0.28,15.656l0.573-32.88l0.51,32.936l0.573-19.446
	l0.28,6.87l0.79-0.124l0.292-1.469l0.56-4.312l0.51,13.211l0.566-16.677l0.51,13.845l1.133,5.943l0.23-20.64l0.28-6.235l0.573,31.99
	l0.51-33.334l0.852,27.491l0.803-22.569l0.268,20.074l0.796-21.997l0.28,30.447l0.292-1.935l0.56-31.468l0.51,27.491l0.852-26.471
	l0.523,33.571l0.56-32.146l0.28,2.713l0.51,17.921l0.566-11.568l0.51,10.149l0.573-12.931l0.56,20.479l0.51-29.887l0.573,30.908
	l0.498-20.759l0.852,13.043l0.523-21.779l0.566,35.326l0.28-10.037l0.28-25.681l0.79,26.023l0.573-20.348l0.51,24.262l0.573-29.999
	l0.498,26.826l0.865-16.895l0.51,21.369l0.56-28.344l0.286,13.491l0.51,4.206l0.573-12.315l0.56,13.441l0.51-10.205l0.28,7.548
	l1.07-12.19l0.572,19.502l0.292-4.144l0.51-10.827l1.077,11.68l0.28-10.442l0.28-4.53l0.573,13.833l0.79-16.048l0.292,20.41
	l1.07-21.661l0.28,11.804l0.292,16.322l0.51-28.916 M607.789,246.997l0.51-28.916l0.566,17.019l0.498-5.557l0.572,0.05l0.573,3.51
	l0.51-13.491l0.56,30.397l0.51-41.442l0.865,46.999l0.51-45.139l0.56,26.819l0.566-9.402l0.51,7.654l0.56-13.503l0.51,17.99
	l0.28-5.8l0.292-11.169l1.363,2.103l0.28,13.323l0.28,4.032l0.23-26.265l1.357,28.419l0.292-29.887l0.28-3.404l0.56,31.978
	l0.803-30.167l0.56,32.83l0.51-36.11l0.572,47.566l0.51-54.771l0.573,51.822l0.554-43.888l0.51,25.681l0.292,13.391l0.79-42.924
	l0.573,44.734l0.572-37.137l0.218,5.955l0.28,21.655l0.852-19.551l0.51,17.585l0.566-25.643l0.51,34.759l0.852-35.674l0.51,41.349
	l0.573-49.905l0.56,43.39l0.23-33.521l0.56,28.232l0.803,4.536l0.56-37.591l0.286,12.588l0.28,22.184l0.803-27.286l0.56,25.233
	l0.803,6.801l0.572-47.23l0.498,57.553l0.572-50.696l0.28,4.487l0.51,34.529l0.554-32.488l0.803,23.932l0.573-23.422l0.51,25.17
	l0.28,5.053l0.572-40.435l0.51,52.625l0.573-52.114l0.778,48.144l0.572-46.321l0.286-10.379l0.51,63.396l0.56-54.155l0.572,39.458
	l1.07,4.704l0.292-45.973l0.23-16.229l0.56,97.315l0.573-104.677l0.51,74.161l0.846-50.123l0.51,56.308l0.56-66.856l0.51,70.595
	l0.573-68.106l0.573,58.362l0.498-43.266l0.573,27.772l0.523-19.278l0.28,31.71l0.554-64.367l0.517,89.705l0.566-85.959l0.79,75.53
	l0.573-77.235l0.573,64.242l0.218-4.822l0.572-40.764l0.573,41.517l0.51-44.193 M662.224,250.811l0.51-44.193l0.554,53.819
	l0.523-64.696l0.56,66.52l0.572-56.539l0.79,37.143l0.573-17.019l0.218-5.613l0.572,18.033l0.79-1.699l0.572-18.133l0.566,23.515
	l0.498-19.103l0.305-0.448l0.548,18.873l0.803-28.804l0.56,30.117l0.23-1.363l0.572-29.315l0.573,48.138l0.51-68.554l0.554,75.412
	l0.79-76.034l0.572,64.479l0.523-35.624l0.268-3.062l0.852,21.095l0.523-21.655l0.56,28.344l0.51-26.147l0.572,17.093l0.274,13.024
	l0.517-37.081l0.846,38.904l0.51-30.796l0.28-14.853l0.573,40.378l0.51-7.268l0.572-29.259l0.573,42.992l0.498-36.06l0.566,24.368
	l0.803-19.11l0.268,4.486l0.573,12.24l0.803-15.469l0.56,13.827l0.79,0.741l0.292-13.161l0.28,0.404l0.23,8.954l0.846,3.404
	l0.79-18.375l0.572,24.716l0.51-19.103l0.28-2.831l0.573,22.451l0.51-23.36l0.28,20.864l1.083-18.021l0.572,23.758l0.554-32.208
	l0.51,23.36l0.28,12.532l0.573-35.998l0.79,33.664l0.573-35.332l0.51,36.353l0.573-31.356l0.498,18.095l0.573-11.002l0.566,20.423
	l0.51-32.221l0.28,17.753l0.573,11.344l0.51-30.348l0.852,35.562l0.79-32.158l0.292,20.989l0.28,13.428l0.51-40.36l0.56,47.055
	l0.51-53.01l0.566,52.948l0.573-43.035l0.51,24.33l0.56-9.695l0.803,17.741l0.573-35.606l0.498,37.771l0.573-23.988l0.28-5.899
	l0.797,30.789l0.572-39.576l0.498,44.23l0.28-8.911l0.573-35.04l0.523,43.098l0.572-39.122l1.07,6.341l0.28,25.233 M717.17,219.101
	l0.28,25.233l0.566-30.335l0.498,30.69l0.292,3.901l0.573-40.994l0.79,43.434l0.573-36.688l0.218,6.173l0.573,19.856l0.56-16.782
	l0.523,9.234l0.846,7.598l0.51-19.103l0.28,16.72l0.573-11.786l0.79-5.047l0.56,24.953l0.23-0.342l0.28-35.562l0.865,28.587
	l0.51-19.844l0.56,26.527l0.51-32.096l0.566,34.94l0.573-36.458l0.498,31.25l0.865-25.475l0.51,20.124l0.56-12.066l0.292,2.103
	l0.218,4.362l0.852-6.005l0.51,12.178l0.566-14.511l0.79,9.639l0.292-6.347l0.56,6.005l1.083,3.976l0.28-12.19l0.28-6.235
	l0.51,25.108l0.846-32.27l0.51,31.25l0.852-9.919l0.23-9.639l0.28-6.291l0.573,29.483l0.51-25.849l0.852,13.086l0.292-0.168
	l0.218-5.277l1.126-6.913l0.51,22.849l0.573-23.422l0.28,22.924l0.51-30.18l0.573,30.397l0.51-26.203l0.56,27.286l0.573-26.483
	l0.51,17.342l0.846-17.915l0.51,33.179l0.28-5.507l0.292-32.998l0.79,25.17l0.853-10.765l0.51-2.726l0.56,18.537l0.523-26.701
	l0.56,25.009l0.292,7.928l0.51-38.263l0.554,28.966l0.572-13.043l1.07-3.341l0.293,16.677l0.51-21.101l0.572,18.655l0.28,4.885
	l0.498-20.926l0.859-4.375l0.51,26.259l0.56-22.688l0.51,22.171l0.573-32.893l0.573,40.945l0.218-5.271l0.573-44.859l0.573,65.325
	l0.51-64.354l0.846,45.419l0.504-22.451l0.846,7.15l0.243-4.872l0.28-2.228l0.573,13.733l0.51-14.001l0.84,14.113l0.51-21.661
	l0.572,24.89 M771.313,217.01l0.572,24.89l0.28,0.902l0.79-21.997l0.566,25.289l0.523-29.14l0.28,3.559l0.853,21.549l0.79-27.94
	l0.292,34.187l0.28,2.781l0.218-41.629l0.852,38.673l0.51-30.223l0.554,15.656l0.292-3.684l0.79-1.705l0.852,4.879l0.523-7.536
	l0.28,10.597l0.56-14.075l0.523,10.442l0.846,2.906l0.504-14.467l0.566,19.726l0.51-19.041l0.28,21.082l0.572-26.651l0.51,21.207
	l0.853-9.913l0.28-3.236l0.803,19.446l0.28-3.852l0.51-25.743l0.846,43.658l0.51-78.075l0.56,101.945l0.573-82.499h0.23
	l0.573,57.827l0.56-41.044l0.79,18.718l0.292,32.824l0.51-89.531l0.566,102.293l0.56-82.4l0.803,48.835l0.56-23.03l0.23-22.171
	l0.573,90.894l0.572-148.054l0.778,196.261l0.572-270.82l0.51,320.999l0.274-80.178l0.572-184.855l0.51,178.67l0.865-90.265
	l0.218-22.395l0.56,96.494l0.803-117.427l0.56,97.147l0.79-34.604l0.292-25.743l0.274,19.85l0.572,19.383l0.51-46.265l0.56,66.625
	l0.523-78.305l0.573,86.712l0.56-89.767l0.79,97.01l0.292-22.507l0.51-112.555l0.554,162.398l0.572-103.04l0.51-7.131l0.852,116.805
	l0.51-226.652l0.572,264.137l0.268-6.129l0.523-249.775l0.572,232.775l0.498-157.755l0.846,95.99l0.51-83.01l0.292-32.824
	l0.572,164.886l0.778-183.604l0.572,180.711l0.292-74.273l0.231-56.825l1.35,70.658l0.292-49.053l0.274-7.996l0.802,56.651
	l0.268,23.478l0.572-113.637l0.803,158.315l0.56-176.286l0.292,20.466l0.498,110.961 M825.53,166.881l0.498,110.961l0.572-37.018
	l0.523-63.844l0.834,117.085l0.51-112.847l0.852,76.047l0.292-40.82l0.218-14.804l0.572,51.262l0.56-62.544l0.51,103.258
	l0.572-127.588l0.51,101.447l0.846-22.401l0.51-43.483l0.292,0.958l0.56,81.416l0.51-111.652l0.572,120.389l0.572-141.185
	l0.498,164.376l0.572-148.49l0.79,97.738l0.566-51.193l0.51,34.977l0.572-45.182l0.28,65.095l0.51-80.178l0.572,62.201l0.79-13.895
	l0.572-15.712l0.28-10.317l0.51,49.793l0.56-60.733l0.566,43.888l0.79,17.971l0.572-90.215l0.51,110.918l0.572-90.265l0.28,9.732
	l0.51,74.578l0.572-108.41l0.51,124.172l0.56-119.872l0.566,111.932l0.51-96.17l0.56,52.457l0.523,14.125l0.852-69.183l0.51,108.858
	l0.56-128.932l0.573,110.277l0.51-66.103l0.286-11.63l0.56,58.287l0.51-43.372l0.572,35.488l0.51-54.317l0.852,86.818l0.498-108.535
	l0.572,104.446l0.573-84.366l0.51,67.534l0.286-31.878l0.79-14.959l0.56,42.525l0.572-48.2l0.51,47.97l0.56-55.12l0.292,16.278
	l0.218,32.495l1.145-14.804l0.23-16.222l0.834,11.798l0.523,12.408l0.56-25.737l0.572,17.473l0.218,7.2l0.572-30.397l0.573,36.863
	l0.51-25.631l0.572,8.674l0.79-3.79l0.28,13.148l0.566-33.397l0.51,46.315l0.84-47.335l0.523,52.22l0.56-46.377l0.292-1.649
	l0.51,43.944l0.56-43.67l0.51,40.609l0.846-60.733l0.51,85.841l0.572-75.909l0.572,40.702l0.79,7.318l0.28-35.444l0.292-21.207
	l0.51,85.393 M879.966,191.429l0.51,85.393l0.572-87.652l0.498,72.798l0.572-65.717l0.566,77.117l0.51-78.137l0.56,45.481
	l1.083-24.38l0.28,25.849l0.523-23.745l0.56,25.338l0.56-31.598l0.23,39.302l0.572-51.137l0.566,66.171l0.498-74.572l0.572,75.984
	l0.51-63.844l0.572,33.11l1.07-28.002l0.28,28.568l0.292,32.102l0.51-81.709l0.572,66.961l0.784-29.775l0.572-7.081l0.572,33.067
	l0.51-37.323l0.56,19.906l0.28,4.829l0.802-17.125l0.28,4.3l0.51,19.446l0.56-48.711L899,264.239l1.082-55.288l0.292,21.213
	l0.218,23.465l0.572-41.673l0.79,48.773l0.572-66.115l0.28,21.655l0.51,40.142l0.56-46.545l0.566,25.525l0.802,5.432l0.56-25.127
	l0.51,25.463l0.292-11.462l0.79-8.83l0.56,17.448l0.572-21.306l0.51,35.83l0.566-44.846l0.504,38.786l0.566-33.509l0.573,33.384
	l0.23-3.622l0.56-34.467l0.573,36.402l0.51-17.479l0.573,9.589l0.51-20.174l1.126,21.704l0.23-12.482l0.28-8.326l0.853,28.637
	l0.51-39.924l0.56,45.991l0.523-36.57l0.56,19.041l0.802,2.676l0.28-9.527l0.566,5.551l0.504-15.532l0.566,31.574l0.573-37.186
	l0.51,30.628l0.573-27.168l0.498,35.332l0.573-48.661l0.572,54.435l0.51-45.189l0.28-1.481l0.566,36.751l0.79-28.462l0.573,26.297
	l0.497-26.247l0.573,21.375l0.802-28.12l0.28,34.355l0.28,6.807l0.51-44.46l0.573,38.848l0.554-32.83l0.523,33.397l0.56-34.865
	l0.802,33.167l0.56-25.401l0.292-8.17l0.51,34.199 M934.401,212.866l0.51,34.199l0.573-27.28l0.498,15.762l0.573-13.273l0.566,22.52
	l0.498-30.733l0.573,29.14l0.51-29.601l0.572,42.706l0.56-50.241l0.803,42.805l0.572-38.275l0.498,34.99l0.292-9.066l0.566-16.733
	l0.79,30.964l0.56-43.838l0.51,40.379l0.573-25.295l0.292,1.761l0.51,14.231l0.56-13.777l0.803,9.975l0.28,0.51l0.554-14.337
	l0.51,18.083l0.853-14.741l0.23,3.062l0.56,9.017l0.802-0.51l0.573-11.568l0.267,9.247l0.803-4.655l0.566,8.276l0.516-12.638
	l0.274,21.269l0.573-38.344l0.79,48.599l0.56-51.324l0.292,16.229l0.218,24.144l0.865-24.598l0.51,15.644l0.847,9.141l0.516-25.245
	l0.274-6.976l0.573,35.612l0.497-38.555l0.573,41.617l0.803-38.213l0.56,31.804l0.572-28.008l0.51,24.548l0.28,0.741l0.566-20.08
	l0.51,11.014l0.292-5.787l1.07,1.133l0.28,1.593l0.572,0.908l0.803,2.091l0.778-2.439l0.292-9.521l0.566,24.598l0.516-25.849
	l0.274-1.593l0.56,15.594l0.523,4.256l0.56-19.11l0.572,17.006l0.218-8.961l0.865-5.501l0.51,14.181l0.847-1.979l0.504-8.338
	l0.566,15.021l0.572-22.277l0.218-1.425l0.573,26.546l0.802-24.61l0.56,16.907l0.28,4.238l0.803-17.915l0.846,16.092l0.224-11.325
	l0.286-2.894l0.56,11.282l1.083,8.506l0.28-24.94l0.292-9.994l0.51,46.209l0.56-42.911l0.51,28.107l0.572-15.239l0.554,10.709
	l0.803-12.862l0.572,20.018l0.51-25.463l0.56,17.685l0.51,1.761l0.573-13.441 M989.054,236.456l0.573-13.441l0.28,2.271l0.79,15.824
	l0.292-8.457l0.28-11.338l1.077,10.149l0.28-4.767l0.79,9.359l0.572-12.42l0.28-0.56l0.51,14.281l0.572-10.429l0.292,3.454
	l0.778,6.695l0.566-17.237l0.523,18.425l0.56-11.058l1.083-0.218l0.28,9.178l0.803-3.285l0.267-11.4l0.572,22.8l0.51-23.36
	l0.292-1.991l0.554,24.162l0.51-22.582l0.852,16.564l0.523-13.658l0.56,13.547l0.51-14.069l0.573,12.42l0.28,0.573l0.51-14.573
	l0.572,16.49l0.554-16.882l0.51,20.298l0.572-17.187l1.083-2.999l0.267,12.98l0.292,9.757l0.51-22.737l0.852,20.528l0.51-19.166
	l0.28-3.236l0.566,20.821l0.79-6.82l0.572-11.91l0.51,19.57l0.572-21.953l0.51,23.266l0.56-22.464l0.572,21.039l0.51-22.968
	l0.292,2.719l0.554,21.673l0.51-23.372l0.572,23.416l0.51-24.206l0.84,21.767l0.523-16.845l0.28,9.869l0.56-7.585l0.292,9.919
	l0.79-3.578l0.803-5.843l0.554,10.721l0.572-8.668l0.51,3.839l0.56-8.556l0.51,21.269l0.572-28.804l0.292-2.159l0.498,38.779
	l0.572-45.064l0.566,43.776l0.51-33.907l0.56,17.454l0.51-3.068l0.572-2.271l0.802,1.655l0.56-3.746l0.572,7.66l0.218-9.191
	l0.572,9.639l0.566-5.663l0.504-2.103l0.566,5.103l0.523-2.999l0.56,3.789l0.79-9.178l0.572,18.151l0.572-26.608l0.51,29.377
	l0.28,1.468l0.554-33.907l0.517,30.167l0.859-18.257l0.778,12.14l0.292-10.205l0.28-6.347l0.523,23.577 M1043.26,219.966
	l0.523,23.577l0.56-28.742l0.523,28.462l0.84-23.03l0.51,21.829l0.566-22.787l0.572,18.531l0.218-3.329l0.28-6.926h1.375l0.28,6.745
	l0.572-9.346l0.51,13.783l0.56-21.331l0.51,27.1l0.286-9.577l0.28-15.93l0.79,22.905l0.852-24.561l0.28,10.504l0.51,11.107
	l0.572-17.529l0.51,13.335l0.852-8.506l0.51,7.081l0.566-8.046l0.572,11.742l0.498-12.42l0.572,9.807l0.51-8.892l0.572,8.332
	l0.28,2.881l0.51-18.301l0.56,26.191l0.573-26.483l0.516,18.824l0.84-13.671l0.51,14.692l0.572-12.184l0.51,7.766l0.56-7.94
	l0.803,8.388l0.28-4.244l0.28-6.303l0.803,11.922l0.28-4.101l0.274-7.143l0.803,9.707l0.572-12.203l0.572,14.698l0.778-12.084
	l0.292-1.587l0.28,15.077l1.363-16.148l0.218,14.511l0.292,2.657l0.566-13.951l0.79,13.105l0.56-19.495l0.523,25.108l0.572-24.673
	l0.28,2.614l0.28,14.972l0.79-8.967l0.803,7.33l0.554-17.075l0.572,27.952l0.51-26.701l0.56,15.301l0.293-1.35l0.51-8.961
	l0.572,15.133l0.51-16.552l0.852,3.852l0.51,10.547l0.554-13.497l0.572,10.89l0.218,8.394l0.572-26.994l0.573,25.513l0.498-15.594
	l0.865,1.375l0.51,5.6l0.28,3.976l0.573-14.804l0.51,11.618l0.846-4.935l0.218,2.676l0.572-6.758l0.79,13.671l0.572-20.018
	l0.28,9.763l0.292,10.423l0.79-17.168l0.56,19.321l0.523-15.594l0.554,10.211l0.51-13.211l0.572,15.594l0.573-10.834l0.79,7.71"/>
<polyline fill="none" stroke="#FFFFFF" stroke-miterlimit="10" points="289.377,161.405 289.377,128.22 511.318,128.22 
	511.318,159.333 "/>
<polyline fill="none" stroke="#FFFFFF" stroke-miterlimit="10" points="620.459,95.031 620.459,61.846 931.59,61.846 931.59,92.959 
	"/>
<g>
	<g>
		<path fill="#FFFFFF" d="M338.426,94.891h7.186c5.16,0,8.609,1.743,8.609,6.866c0,4.909-3.522,7.222-8.609,7.222h-4.198v9.249
			h-2.989L338.426,94.891L338.426,94.891z M345.221,106.559c4.091,0,6.048-1.494,6.048-4.803c0-3.38-2.028-4.482-6.048-4.482h-3.806
			v9.285C341.415,106.559,345.221,106.559,345.221,106.559z"/>
		<path fill="#FFFFFF" d="M363.683,100.939h2.989l2.561,9.996c0.392,1.636,0.712,3.201,1.032,4.803h0.142
			c0.392-1.601,0.748-3.201,1.174-4.803l2.669-9.996h2.844l2.704,9.996c0.428,1.636,0.819,3.201,1.21,4.803h0.143
			c0.392-1.601,0.712-3.166,1.067-4.803l2.525-9.996h2.775l-4.624,17.289h-3.557l-2.491-9.285c-0.427-1.636-0.747-3.237-1.174-4.98
			h-0.143c-0.393,1.743-0.747,3.38-1.21,5.016l-2.419,9.249h-3.415L363.683,100.939z"/>
		<path fill="#FFFFFF" d="M400.717,107.27c0-2.206-0.747-4.34-3.557-4.34c-2.029,0-3.806,0.925-5.16,1.85l-1.174-2.028
			c1.601-1.032,4.019-2.241,6.795-2.241c4.234,0,6.012,2.811,6.012,7.115v10.601h-2.419l-0.248-2.063h-0.072
			c-1.671,1.351-3.593,2.491-5.728,2.491c-2.917,0-5.087-1.814-5.087-4.909C390.079,109.974,393.353,108.089,400.717,107.27z
			 M395.984,116.307c1.672,0,3.06-0.818,4.732-2.312v-4.803c-5.798,0.712-7.755,2.135-7.755,4.34
			C392.96,115.489,394.277,116.307,395.984,116.307z"/>
		<path fill="#FFFFFF" d="M406.657,100.939h3.024l3.273,9.819c0.498,1.707,1.067,3.45,1.601,5.087h0.143
			c0.498-1.636,1.067-3.38,1.564-5.087l3.273-9.819h2.883l-6.118,17.289h-3.415L406.657,100.939z"/>
		<path fill="#FFFFFF" d="M432.092,100.511c4.412,0,6.903,3.166,6.903,8.111c0,0.605-0.036,1.174-0.107,1.601h-11.67
			c0.213,3.735,2.456,6.083,5.763,6.083c1.636,0,3.024-0.533,4.304-1.351l1.032,1.921c-1.494,0.961-3.344,1.779-5.692,1.779
			c-4.624,0-8.288-3.38-8.288-9.036C424.337,103.963,428.143,100.511,432.092,100.511z M436.433,108.302
			c0-3.522-1.564-5.479-4.267-5.479c-2.419,0-4.626,1.992-4.98,5.479H436.433z"/>
		<path fill="#FFFFFF" d="M442.8,114.315c1.495,1.21,3.024,2.063,5.087,2.063c2.276,0,3.415-1.21,3.415-2.704
			c0-1.779-2.063-2.561-3.949-3.273c-2.455-0.889-5.159-2.063-5.159-4.98c0-2.775,2.206-4.909,5.941-4.909
			c2.17,0,4.055,0.889,5.373,1.956l-1.389,1.85c-1.174-0.889-2.418-1.53-3.947-1.53c-2.17,0-3.166,1.174-3.166,2.491
			c0,1.601,1.886,2.241,3.842,2.988c2.491,0.925,5.265,1.956,5.265,5.229c0,2.811-2.241,5.159-6.333,5.159
			c-2.455,0-4.802-1.032-6.438-2.383L442.8,114.315z"/>
	</g>
</g>
<g>
	<g>
		<path fill="#FFFFFF" d="M719.581,43.3c1.672,1.743,3.986,2.917,6.439,2.917c3.06,0,4.874-1.53,4.874-3.806
			c0-2.383-1.707-3.13-3.913-4.126l-3.344-1.458c-2.17-0.925-4.731-2.597-4.731-6.012c0-3.557,3.13-6.19,7.364-6.19
			c2.775,0,5.229,1.174,6.865,2.881l-1.565,1.921c-1.423-1.351-3.166-2.206-5.3-2.206c-2.632,0-4.375,1.317-4.375,3.415
			c0,2.241,2.063,3.095,3.878,3.878l3.345,1.423c2.704,1.174,4.802,2.775,4.802,6.225c0,3.7-3.06,6.653-7.967,6.653
			c-3.273,0-6.118-1.351-8.147-3.45L719.581,43.3z"/>
		<path fill="#FFFFFF" d="M743.239,31.098h2.989l2.561,9.996c0.392,1.636,0.712,3.201,1.032,4.803h0.142
			c0.393-1.601,0.747-3.201,1.174-4.803l2.669-9.996h2.844l2.704,9.996c0.428,1.636,0.82,3.201,1.21,4.803h0.142
			c0.392-1.601,0.712-3.166,1.067-4.803l2.525-9.996h2.775l-4.624,17.289h-3.557l-2.491-9.285c-0.427-1.636-0.747-3.237-1.174-4.98
			h-0.142c-0.393,1.743-0.747,3.38-1.21,5.016l-2.419,9.249h-3.415L743.239,31.098z"/>
		<path fill="#FFFFFF" d="M780.271,37.43c0-2.206-0.747-4.34-3.557-4.34c-2.029,0-3.806,0.925-5.16,1.85l-1.174-2.028
			c1.601-1.032,4.019-2.241,6.795-2.241c4.234,0,6.012,2.811,6.012,7.115v10.6h-2.419l-0.248-2.063h-0.072
			c-1.671,1.351-3.593,2.491-5.728,2.491c-2.917,0-5.087-1.814-5.087-4.909C769.633,40.134,772.906,38.248,780.271,37.43z
			 M775.538,46.466c1.672,0,3.06-0.818,4.732-2.312v-4.803c-5.798,0.712-7.755,2.135-7.755,4.34
			C772.515,45.648,773.83,46.466,775.538,46.466z"/>
		<path fill="#FFFFFF" d="M786.21,31.098h3.024l3.273,9.819c0.498,1.707,1.067,3.45,1.601,5.087h0.143
			c0.498-1.636,1.067-3.38,1.565-5.087l3.273-9.819h2.882l-6.118,17.289h-3.416L786.21,31.098z"/>
		<path fill="#FFFFFF" d="M811.646,30.671c4.412,0,6.903,3.166,6.903,8.111c0,0.605-0.036,1.174-0.107,1.601h-11.67
			c0.213,3.735,2.456,6.083,5.763,6.083c1.637,0,3.024-0.533,4.304-1.351l1.032,1.921c-1.494,0.961-3.344,1.779-5.692,1.779
			c-4.624,0-8.288-3.38-8.288-9.036C803.891,34.122,807.698,30.671,811.646,30.671z M815.986,38.462
			c0-3.522-1.565-5.479-4.267-5.479c-2.419,0-4.626,1.992-4.98,5.479H815.986z"/>
		<path fill="#FFFFFF" d="M822.353,44.474c1.495,1.21,3.024,2.063,5.087,2.063c2.276,0,3.415-1.21,3.415-2.704
			c0-1.779-2.063-2.561-3.949-3.273c-2.455-0.889-5.159-2.063-5.159-4.98c0-2.775,2.206-4.909,5.941-4.909
			c2.17,0,4.055,0.889,5.373,1.956l-1.389,1.85c-1.174-0.889-2.418-1.53-3.947-1.53c-2.17,0-3.166,1.174-3.166,2.491
			c0,1.601,1.886,2.241,3.842,2.988c2.491,0.925,5.265,1.956,5.265,5.229c0,2.811-2.241,5.159-6.333,5.159
			c-2.455,0-4.802-1.032-6.438-2.383L822.353,44.474z"/>
	</g>
</g>
</svg>
