Revenue,FY2007,FY2008,FY2009,FY2010,FY2011,FY2012,FY2013,FY2014 (Revised),FY2015 (Estimated),FY2016
Corporate Income Tax,9250000000,10554000000,9551000000,10687000000,12096000000,12750000000,12680000000,13460000000,13480000000,13480000000
Personal Income Tax,4537000000,5414000000,6114000000,6470000000,6871000000,7653000000,7690000000,8940000000,8910000000,8910000000
Withholding Tax,1150000000,1176000000,1137000000,957000000,1258000000,1272000000,1150000000,1120000000,1140000000,1140000000
Statutory Boards' Contributions,1683000000,2143000000,410000000,573000000,353000000,539000000,530000000,520000000,820000000,820000000
Assets Taxes,2582000000,2904000000,1987000000,2803000000,3902000000,3791000000,4180000000,4410000000,4410000000,4410000000
Customs and Excise Taxes,1985000000,2065000000,2125000000,2048000000,2133000000,2130000000,2190000000,2450000000,2960000000,2960000000
Goods and Services Tax,6165000000,6487000000,6914000000,8198000000,8687000000,8820000000,9510000000,10110000000,10480000000,10480000000
Motor Vehicle Taxes,2189000000,1835000000,1856000000,1851000000,1920000000,1764000000,1650000000,1810000000,2120000000,2120000000
Betting Taxes,673000000,1771000000,1727000000,2279000000,2373000000,2761000000,2720000000,3670000000,5080000000,5080000000
Stamp Duty,1713000000,1432000000,2386000000,3277000000,3175000000,2301000000,2380000000,2620000000,2710000000,2710000000
Other Taxes,3677000000,1929000000,2410000000,2706000000,3307000000,4176000000,3930000000,2790000000,2600000000,2600000000
Vehicle Quota Premiums,1698000000,367000000,623000000,1602000000,2112000000,4291000000,5250000000,6140000000,6110000000,6110000000
Other Fees and Charges,2956000000,2845000000,2142000000,2384000000,2587000000,2605000000,2900000000,3010000000,3110000000,3110000000
Others,115000000,165000000,165000000,226000000,302000000,325000000,250000000,330000000,330000000,330000000
Special Transfers,2142000000,7099000000,5481000000,7095000000,8427000000,8870000000,8580000000,12830000000,11670000000,11670000000
Net Investment Income/Returns Contribution,2405000000,4343000000,7006000000,7352000000,7916000000,7650000000,8290000000,8550000000,8940000000,8940000000