
<svg version="1.1" id="Layer_1" xmlns="http://www.w3.org/2000/svg" xmlns:xlink="http://www.w3.org/1999/xlink" x="0px" y="0px"
	 width="980px" height="1000px" viewBox="0 0 980 1000" enable-background="new 0 0 980 1000" xml:space="preserve">
<circle fill="#FFFFFF" cx="507" cy="499" r="347.1"/>
<path id="f_1_" fill="#333333" d="M522.7,660.2v-150h51.5l9-58.2H525v-35.8c0-15.7,4.5-29.1,29.1-29.1h31.3v-58.2
	c-6.7,0-24.6-2.2-44.8-2.2c-44.8,0-76.1,26.9-76.1,78.4v42.5H413v58.2h49.3v150L522.7,660.2L522.7,660.2z"/>
</svg>
