<?xml version="1.0" encoding="utf-8"?>
<!-- Generator: Adobe Illustrator 19.1.0, SVG Export Plug-In . SVG Version: 6.00 Build 0)  -->
<svg version="1.1" id="Layer_1" xmlns="http://www.w3.org/2000/svg" xmlns:xlink="http://www.w3.org/1999/xlink" x="0px" y="0px"
	 viewBox="0 0 106.1 43.1" enable-background="new 0 0 106.1 43.1" xml:space="preserve">
<g>
	<path d="M20,43v-9H2v-9c-1-1.5-2-3.6-2-7.2V1h11.7l0,0H20V0h15v7h3v13h-3v23H20z"/>
	<path fill="#FFFFFF" d="M23,4.5v18.6H10c-2.3,0-3.7-0.2-4.2-0.7c-0.6-0.6-0.9-2.1-0.9-4.7V4.6h7v3.5H16V4.5H23z M6.6,24.6h25.3
		v14.2h-7.2v-8.4H6.6V24.6z M11.8,17.5H16v-3.8h-4.1V17.5z M24.7,4h7.2v6.6H35v5.2h-3.2V23h-7.2V4z"/>
	<path d="M47.3,43c-3.2,0-5.8-0.7-7.3-2c-1.7-1.5-2.9-3.8-2.9-6.9V29h-1V15h19.5c0,0,0-1,0-1H37V0h34v7.1c0,2.1,0.1,4.1,0,5.8
		c0,0.7,0.1,1.1,0,2.1h1v14h-1v14H47.3z"/>
	<path fill="#FFFFFF" d="M68.8,18.9v5.9h-28v-5.9H68.8z M41.8,26.4h7.7v6.4h17.8v6h-20c-2.1,0-3.6-0.3-4.3-1
		c-0.7-0.6-1.1-1.9-1.1-3.8V26.4z M42.1,4.1h25.3v3c0,2.1-0.1,3.9-0.2,5.5c-0.1,1.6-0.3,3.3-0.6,4.9h-7.4c0.1-0.6,0.2-1.4,0.2-2.4
		s0.1-1.9,0.1-2.6v-2.4H42.1V4.1z"/>
	<path d="M85,43v-2.5c-1,0.6-2.1,0.8-3.2,0.8c-2.3,0-5.5-1.1-8.1-6.1c-1.7-3.2-2.5-6.9-2.5-11.3c0-2.9,0.5-5.9,1.3-7.9H71V2h3V0h32
		v43H85z"/>
	<path fill="#FFFFFF" d="M79.1,11.6h-3.6V6.2h3.2V4.1h6.7v2.1h3.3v5.3h-3.2c0.4,0.2,0.7,0.6,1,1.2c0.3,0.6,0.6,1.1,0.7,1.6H90V4.1
		h6.1v34.7H90v-8.2h-1.7c-0.3,1.4-0.8,2.7-1.6,3.9c-1.2,1.9-2.7,2.8-4.5,2.8c-1.8,0-3.5-1.3-4.9-4c-1.4-2.7-2.1-5.9-2.1-9.6
		c0-2.6,0.3-5,1-7.2C77.2,13.9,78.1,12.2,79.1,11.6z M80.8,23.3c0,1.6,0.1,3.1,0.4,4.4c0.3,1.4,0.7,2,1.2,2c0.5,0,0.9-0.7,1.1-2
		c0.2-1.4,0.3-2.8,0.3-4.5c0-1.4-0.1-2.8-0.4-4.2c-0.3-1.4-0.6-2-1-2c-0.6,0-1,0.7-1.3,2C81,20.4,80.8,21.8,80.8,23.3z M88.9,19
		c0.1,0.4,0.2,1.1,0.3,2.2s0.1,2.5,0.1,4.1v0.6H90V19H88.9z M96.8,4.1h6.2v34.7h-6.2V4.1z"/>
</g>
</svg>
