<?xml version="1.0" encoding="utf-8"?>
<!-- Generator: Adobe Illustrator 19.1.0, SVG Export Plug-In . SVG Version: 6.00 Build 0)  -->
<svg version="1.1" id="Layer_1" xmlns="http://www.w3.org/2000/svg" xmlns:xlink="http://www.w3.org/1999/xlink" x="0px" y="0px"
	 viewBox="0 0 86 100" style="enable-background:new 0 0 86 100;" xml:space="preserve">
<style type="text/css">
	.st0{fill:#4885B7;}
	.st1{fill:#5A9DDC;}
</style>
<g>
	<g>
		<path class="st0" d="M71.7,71.1L28,92.5c-4.9,2.4-10.8,0.4-13.2-4.5l0,0c-2.4-4.9-0.4-10.8,4.5-13.2L63,53.3
			c4.9-2.4,10.8-0.4,13.2,4.5l0,0C78.7,62.7,76.6,68.7,71.7,71.1z"/>
		
			<rect x="33.9" y="65.9" transform="matrix(0.8978 -0.4404 0.4404 0.8978 -27.4269 27.4657)" class="st0" width="23.1" height="14"/>
		<circle class="st0" cx="72.2" cy="62.6" r="1.1"/>
		<circle class="st0" cx="65.8" cy="65.7" r="1.1"/>
		<circle class="st0" cx="67.5" cy="59.3" r="1.1"/>
		<circle class="st0" cx="61.2" cy="62.3" r="1.1"/>
		<circle class="st0" cx="59.9" cy="68.6" r="1.1"/>
		<circle class="st0" cx="18.2" cy="83.4" r="1.1"/>
		<circle class="st0" cx="24.5" cy="80.3" r="1.1"/>
		<circle class="st0" cx="22.9" cy="86.8" r="1.1"/>
		<circle class="st0" cx="29.2" cy="83.7" r="1.1"/>
		<circle class="st0" cx="30.4" cy="77.4" r="1.1"/>
	</g>
	<rect x="4" y="10.6" class="st1" width="77.3" height="89.4"/>
	<g>
		<path class="st0" d="M68.6,69.3L23,91.7c-5.1,2.5-11.3,0.4-13.8-4.7l0,0c-2.5-5.1-0.4-11.3,4.7-13.8l45.7-22.4
			c5.1-2.5,11.3-0.4,13.8,4.7l0,0C75.8,60.6,73.7,66.8,68.6,69.3z"/>
		
			<rect x="29.1" y="63.9" transform="matrix(0.8978 -0.4404 0.4404 0.8978 -27.1315 25.4241)" class="st1" width="24.1" height="14.6"/>
		<circle class="st1" cx="69.1" cy="60.5" r="1.1"/>
		<circle class="st1" cx="62.5" cy="63.8" r="1.1"/>
		<circle class="st1" cx="64.2" cy="57" r="1.1"/>
		<circle class="st1" cx="57.6" cy="60.2" r="1.1"/>
		<circle class="st1" cx="56.3" cy="66.8" r="1.1"/>
		<circle class="st1" cx="12.8" cy="82.2" r="1.1"/>
		<circle class="st1" cx="19.4" cy="79" r="1.1"/>
		<circle class="st1" cx="17.6" cy="85.8" r="1.1"/>
		<circle class="st1" cx="24.2" cy="82.5" r="1.1"/>
		<circle class="st1" cx="25.5" cy="76" r="1.1"/>
	</g>
	<polygon class="st1" points="81.3,10.7 4,10.7 10.4,0 74.9,0 	"/>
	<path class="st0" d="M4,15.7h77.3v20.9H21.9c-8,0-15.1-5.7-17.1-13.9C4.3,20.6,4,18.3,4,15.7z"/>
	<g>
		<path class="st1" d="M8.4,24.3h2v3.9h1.9v-3.9h2v9.8h-2V30h-1.9v4.1h-2V24.3z"/>
		<path class="st1" d="M15.9,24.3h5v1.6h-3v2.4h2.2v1.6h-2.2v2.5H21v1.6h-5.1V24.3z"/>
		<path class="st1" d="M24.1,24.3h2.3l2.3,9.8h-2.1l-0.4-2.3h-2.2l-0.5,2.3h-1.9L24.1,24.3z M25.9,30.3l-0.3-1.7
			c0-0.1-0.1-0.3-0.1-0.5s-0.1-0.4-0.1-0.6c0-0.2-0.1-0.4-0.1-0.6s-0.1-0.4-0.1-0.5h-0.1c0,0.1-0.1,0.3-0.1,0.5s-0.1,0.4-0.1,0.6
			c0,0.2-0.1,0.4-0.1,0.6c0,0.2-0.1,0.4-0.1,0.5l-0.4,1.7H25.9z"/>
		<path class="st1" d="M29.6,24.3h2v8.1h2.7v1.6h-4.7V24.3z"/>
		<path class="st1" d="M36.3,26h-2v-1.7h6V26h-2v8.1h-2V26z"/>
		<path class="st1" d="M41.4,24.3h2v3.9h1.9v-3.9h2v9.8h-2V30h-1.9v4.1h-2V24.3z"/>
		<path class="st1" d="M54.6,31.7c-0.1,0.9-0.4,1.5-0.9,1.9c-0.5,0.4-1.2,0.7-2,0.7c-0.6,0-1.1-0.1-1.5-0.3c-0.4-0.2-0.7-0.5-1-0.9
			c-0.2-0.4-0.4-0.9-0.5-1.6s-0.2-1.4-0.2-2.3c0-1.7,0.3-3,0.8-3.8c0.6-0.8,1.4-1.2,2.4-1.2c0.8,0,1.5,0.2,2,0.7
			c0.5,0.4,0.7,1.1,0.8,1.9h-1.8c0-0.3-0.1-0.5-0.3-0.7c-0.1-0.2-0.3-0.2-0.6-0.2c-0.4,0-0.7,0.3-0.9,0.8s-0.2,1.4-0.2,2.6
			c0,0.6,0,1.2,0.1,1.6c0,0.4,0.1,0.8,0.2,1c0.1,0.3,0.2,0.5,0.3,0.6c0.1,0.1,0.3,0.2,0.5,0.2c0.2,0,0.4-0.1,0.6-0.2
			c0.2-0.1,0.3-0.4,0.3-0.7H54.6z"/>
		<path class="st1" d="M57.6,24.3h2.3l2.3,9.8h-2.1l-0.4-2.3h-2.2L57,34.1h-1.9L57.6,24.3z M59.4,30.3l-0.3-1.7
			c0-0.1-0.1-0.3-0.1-0.5c0-0.2-0.1-0.4-0.1-0.6c0-0.2-0.1-0.4-0.1-0.6s-0.1-0.4-0.1-0.5h-0.1c0,0.1-0.1,0.3-0.1,0.5
			c0,0.2-0.1,0.4-0.1,0.6c0,0.2-0.1,0.4-0.1,0.6s-0.1,0.4-0.1,0.5l-0.4,1.7H59.4z"/>
		<path class="st1" d="M63.1,24.3h2.4c0.5,0,0.9,0,1.3,0.1c0.4,0.1,0.7,0.3,1,0.5c0.3,0.2,0.5,0.5,0.7,0.9c0.2,0.4,0.2,0.8,0.2,1.3
			c0,0.6-0.1,1.1-0.3,1.6s-0.6,0.9-1.1,1.1l1.7,4.2h-2.1l-1.4-3.8H65v3.8h-1.9V24.3z M65.5,28.8c0.4,0,0.8-0.1,1-0.4
			s0.3-0.7,0.3-1.2c0-0.9-0.5-1.4-1.4-1.4H65v3H65.5z"/>
		<path class="st1" d="M70.1,24.3h5v1.6h-3v2.4h2.2v1.6h-2.2v2.5h3.1v1.6h-5.1V24.3z"/>
	</g>
	<rect x="4" y="10.6" class="st0" width="77.3" height="5.3"/>
</g>
</svg>
