<?xml version="1.0" encoding="utf-8"?>
<!-- Generator: Adobe Illustrator 19.1.0, SVG Export Plug-In . SVG Version: 6.00 Build 0)  -->
<svg version="1.1" id="Layer_1" xmlns="http://www.w3.org/2000/svg" xmlns:xlink="http://www.w3.org/1999/xlink" x="0px" y="0px"
	 width="48px" height="48px" viewBox="0 0 48 48" enable-background="new 0 0 48 48" xml:space="preserve">
<pattern  x="-125.8" y="-188.7" width="78" height="68" patternUnits="userSpaceOnUse" id="New_Pattern_Swatch_1" viewBox="0 -68 78 68" overflow="visible">
	<g>
		<polygon fill="none" points="0,0 78,0 78,-68 0,-68 		"/>
		<polygon fill="#0C2B57" points="78,0 0,0 0,-68 78,-68 		"/>
	</g>
</pattern>
<pattern  id="SVGID_1_" xlink:href="#New_Pattern_Swatch_1" patternTransform="matrix(1 0 0 1 1272.9463 -380.0354)">
</pattern>
<circle opacity="0.5" fill="none" stroke="url(#SVGID_1_)" stroke-width="1.001" stroke-miterlimit="10" cx="23.8" cy="24" r="22.2"/>
<g>
	<pattern  id="SVGID_2_" xlink:href="#New_Pattern_Swatch_1" patternTransform="matrix(1 0 0 1 2086.3855 -950.0273)">
	</pattern>
	<path fill="url(#SVGID_2_)" d="M24.2,16l1.8,1.3l-5.7,6.3l5.4,6.1L24,31.2l-6.5-7.6L24.2,16z"/>
</g>
</svg>
