<?xml version="1.0" encoding="utf-8"?>
<!-- Generator: Adobe Illustrator 19.1.0, SVG Export Plug-In . SVG Version: 6.00 Build 0)  -->
<svg version="1.1" id="Layer_1" xmlns="http://www.w3.org/2000/svg" xmlns:xlink="http://www.w3.org/1999/xlink" x="0px" y="0px"
	 width="39px" height="34.6px" viewBox="0 0 39 34.6" enable-background="new 0 0 39 34.6" xml:space="preserve">
<pattern  x="-133.8" y="-189.7" width="78" height="68" patternUnits="userSpaceOnUse" id="New_Pattern_Swatch_1" viewBox="0 -68 78 68" overflow="visible">
	<g>
		<polygon fill="none" points="0,0 78,0 78,-68 0,-68 		"/>
		<polygon fill="#0C2B57" points="78,0 0,0 0,-68 78,-68 		"/>
	</g>
</pattern>
<g>
	<pattern  id="SVGID_1_" xlink:href="#New_Pattern_Swatch_1" patternTransform="matrix(1 0 0 1 1829.5132 -2098.3982)">
	</pattern>
	<path fill="url(#SVGID_1_)" d="M36.5,7.8H15.7v1.8l-0.1,3.2h0.2c1.6-3.6,4.5-4.6,6.5-4.6h0.9v20c0,2.9-1.7,3.8-2.7,3.9v0h11.1v0
		C30.5,32,29,31.1,29,28.3v-20h0.9c2.1,0,4.9,1,6.5,4.6h0.2l-0.1-3.2L36.5,7.8L36.5,7.8z"/>
	<pattern  id="SVGID_2_" xlink:href="#New_Pattern_Swatch_1" patternTransform="matrix(1 0 0 1 1829.5132 -2098.3982)">
	</pattern>
	<path fill="url(#SVGID_2_)" d="M19.3,19.8c0-3.5-1.9-6-6.5-7.7c-3.1-1.2-5-2.6-5-5.4c0-2.7,2.2-4.3,4.6-4.3c3.1,0,4.8,2.3,5.8,5.1
		h0.2L18.3,5V2.6C16.8,2.4,14.9,2,12.4,2C7,2,3.8,4.4,3.2,8.1v2.3c0.5,3.5,3.1,5,6,6.2c3.4,1.4,5.2,2.9,5.2,5.8
		c0,3.1-1.9,4.6-4.8,4.6c-3.5,0-5.3-3-6.3-5.2H3.2v4.9c1.6,0.3,3.9,0.7,6.5,0.7C14.6,27.3,19.3,25,19.3,19.8z"/>
</g>
</svg>
