<?xml version="1.0" encoding="utf-8"?>
<!-- Generator: Adobe Illustrator 21.1.0, SVG Export Plug-In . SVG Version: 6.00 Build 0)  -->
<svg version="1.1" id="Layer_1" xmlns="http://www.w3.org/2000/svg" xmlns:xlink="http://www.w3.org/1999/xlink" x="0px" y="0px"
	 width="268px" height="270px" viewBox="0 0 268 270" enable-background="new 0 0 268 270" xml:space="preserve">
<circle fill="#EFF3F4" stroke="#FFFFFF" stroke-miterlimit="10" cx="134.3" cy="134" r="130.5"/>
<g>
	<g>
		<path fill="#333333" d="M48.2,106.1c0.3,0.7,0.6,1,1.2,1v0.2H46v-0.2c0.6,0,0.9-0.3,0.9-0.7c0-0.4-0.2-1-0.5-1.7l-1.1-2.9h-6.5
			l-1.3,3.3c-0.2,0.5-0.3,0.9-0.3,1.2c0,0.5,0.4,0.7,0.9,0.7v0.2h-3v-0.2c0.7-0.1,1-0.3,1.7-2l5.5-13.2h0.6L48.2,106.1z M42.2,93.6
			L42.2,93.6l-3.1,7.7h6.1L42.2,93.6z"/>
		<path fill="#333333" d="M49.9,107.2c0.6-0.1,1.1-0.2,1.1-1.3v-6.8c0-1.2-0.4-1.4-1.1-1.4v-0.2l2.2-0.2l0,0.1
			c0,0.7-0.1,1.8-0.1,2.3h0c0.6-1.7,1.6-2.5,2.8-2.5c0.6,0,1.3,0.2,1.3,0.8c0,0.1,0,0.2-0.1,0.4l-0.1,0c-0.3-0.1-0.7-0.2-1.3-0.2
			c-1.2,0-2.3,0.6-2.7,1.9v5.8c0,1,0.4,1.2,1.3,1.3v0.2h-3.5V107.2z"/>
		<path fill="#333333" d="M61.1,97.1c2.2,0,3.8,1.4,3.8,4.5l-0.1,0.1h-7c0,0.2,0,0.5,0,0.7c0,2.5,1.3,4.4,3.6,4.4
			c1.1,0,2.2-0.2,3.1-1.2l0.2,0.1c-0.9,1.4-2.4,1.9-3.7,1.9c-2.9,0-4.5-2.1-4.5-5C56.6,99.1,58.7,97.1,61.1,97.1z M60.1,101.2
			c2.5,0,3.3,0,3.7-0.1v-0.4c0-1.7-0.8-3.1-2.6-3.1c-1,0-1.9,0.5-2.5,1.5c-0.4,0.6-0.6,1.3-0.7,2.2H60.1z"/>
		<path fill="#333333" d="M73.5,97.5v0.2c-0.4,0-0.8,0.2-0.8,0.6c0,0.3,0.1,0.6,0.4,1.3l2.7,6.5h0l2.4-5.6c0.4-0.9,0.7-1.7,0.7-2.1
			c0-0.5-0.3-0.7-0.9-0.7v-0.2h2.9v0.2c-0.4,0-0.9,0.2-1.2,0.9l-4.1,9.1c-0.4,0.8-1.2,2.6-1.7,3.4c-0.5,0.8-1,1.2-1.6,1.2
			c-0.5,0-0.9-0.2-0.9-0.7c0-0.1,0-0.3,0.1-0.4c0.3,0.1,0.5,0.1,0.7,0.1c0.7,0,1-0.3,1.3-0.6c0.4-0.5,0.7-1.1,1.5-2.7l0.1-0.3
			l-1.1-2.8l-2.5-6.2c-0.2-0.6-0.5-0.9-1.1-0.9v-0.2H73.5z"/>
		<path fill="#333333" d="M90,102.2c0,3-1.9,5.3-4.8,5.3c-2.9,0-4.6-1.8-4.6-5.1c0-3,1.9-5.3,4.8-5.3C88.3,97.1,90,99,90,102.2z
			 M81.9,102.4c0,2.7,1.1,4.7,3.4,4.7c2,0,3.4-2,3.4-4.8c0-2.7-1-4.7-3.5-4.7C83.3,97.6,81.9,99.5,81.9,102.4z"/>
		<path fill="#333333" d="M99.2,99.1c0-1.2-0.4-1.4-1.1-1.4v-0.2l2.2-0.1l0,0c0,0.7,0,1.5,0,1.8v6.5c0,1.1,0.4,1.3,1.1,1.3v0.2
			l-2.2,0.2l0-0.1c0-0.7,0-2.1,0-2.2h0c-0.5,1.5-1.7,2.4-3.4,2.4c-2,0-3.3-1-3.3-3.5v-5c0-1.2-0.4-1.4-1.1-1.4v-0.2l2.2-0.1l0,0
			c0,0.7-0.1,1.5-0.1,1.8v4.7c0,1.9,0.9,2.8,2.6,2.8c1.6,0,2.7-1.1,3-2.1V99.1z"/>
		<path fill="#333333" d="M107,98.2V98c0.4,0,1.1-0.4,1.4-0.8l0-0.4c0.2-3,1.5-5.1,4.6-5.1c2,0,3.5,0.8,3.5,2c0,1-0.7,1.5-1.8,1.5
			c-0.1,0-0.5,0-0.6-0.1v-0.7c0-1.5-0.4-2.2-1.2-2.2c-0.9,0-1.6,0.8-1.6,3.3v1.7h2.1l-0.2,1.1h-2v7.4c0,1.2,0.7,1.5,1.4,1.5v0.2
			h-5.5v-0.2c0.6-0.1,1.2-0.4,1.2-1.5v-7.4H107z"/>
		<path fill="#333333" d="M121.6,98.8c0-1-0.5-1.3-0.9-1.4v-0.2l3.9-0.2l0,0.1c-0.1,0.7-0.1,1.7-0.1,2.2v6.2c0,1.2,0.6,1.5,1,1.5
			v0.2l-3.9,0.2l0-0.1c0.1-0.7,0.1-2,0.1-2.1h0c-0.7,1.7-1.8,2.4-3.3,2.4c-2,0-3.3-1.2-3.3-3.5v-5.1c0-1.1-0.6-1.5-1-1.6v-0.2l4-0.2
			l0,0.1c0,0.7-0.1,1.7-0.1,2.2v4.2c0,1.7,0.7,2.5,1.8,2.5c0.9,0,1.6-0.6,1.8-1.2V98.8z"/>
		<path fill="#333333" d="M130.3,93.9v3.2h3.3l-0.1,1.1h-3.1v6.1c0,1.4,0.6,1.9,1.7,1.9c0.6,0,1.1-0.2,1.5-0.4l0.1,0.1
			c-0.7,1.1-1.9,1.7-3.3,1.7c-2,0-3-1.2-3-2.8v-6.5h-1.3V98c1.2-0.4,3-2,3.9-4H130.3z"/>
		<path fill="#333333" d="M141.8,98.8c0-1-0.5-1.3-0.9-1.4v-0.2l3.9-0.2l0,0.1c-0.1,0.7-0.1,1.7-0.1,2.2v6.2c0,1.2,0.6,1.5,1,1.5
			v0.2l-3.9,0.2l0-0.1c0.1-0.7,0.1-2,0.1-2.1h0c-0.7,1.7-1.8,2.4-3.3,2.4c-2,0-3.3-1.2-3.3-3.5v-5.1c0-1.1-0.6-1.5-1-1.6v-0.2l4-0.2
			l0,0.1c0,0.7-0.1,1.7-0.1,2.2v4.2c0,1.7,0.7,2.5,1.8,2.5c0.9,0,1.6-0.6,1.8-1.2V98.8z"/>
		<path fill="#333333" d="M146.6,107.1c0.5-0.1,1.1-0.4,1.1-1.5v-6.7c0-1.2-0.6-1.5-1.1-1.5v-0.2l4-0.2l0,0.1
			c-0.1,0.7-0.1,2.1-0.1,2.6h0c0.6-1.8,1.3-2.8,2.7-2.8c0.7,0,1.5,0.3,1.5,1.4c0,0.4-0.1,0.7-0.1,0.9h-0.2c-0.4-0.1-0.9-0.2-1.5-0.2
			c-1,0-2,0.3-2.3,1.1v5.6c0,1.2,0.7,1.5,1.4,1.5v0.2h-5.4V107.1z"/>
		<path fill="#333333" d="M160.1,96.7c2.9,0,4.4,1.7,4.4,5.1l-0.1,0.2H158v0.3c0.1,2.3,1.4,3.7,3.5,3.7c0.9,0,1.9-0.2,2.7-0.8
			l0.2,0.1c-0.9,1.4-2.4,2.3-4.4,2.3c-3.1,0-5-2.2-5-5.2C155,98.5,157.8,96.7,160.1,96.7z M159.5,101.2c1.5,0,2-0.1,2.2-0.2
			c0-0.1,0-0.4,0-0.6c0-2-0.5-2.9-1.7-2.9c-0.8,0-1.4,0.7-1.7,1.7c-0.2,0.7-0.3,1.5-0.3,2.1H159.5z"/>
		<path fill="#333333" d="M169.9,107.1c0.5-0.1,1.1-0.4,1.1-1.5v-6.7c0-1.2-0.6-1.5-1.1-1.5v-0.2l4-0.2l0,0.1
			c-0.1,0.7-0.1,2.1-0.1,2.6h0c0.6-1.8,1.3-2.8,2.7-2.8c0.7,0,1.5,0.3,1.5,1.4c0,0.4-0.1,0.7-0.1,0.9h-0.2c-0.4-0.1-0.9-0.2-1.5-0.2
			c-1,0-2,0.3-2.3,1.1v5.6c0,1.2,0.7,1.5,1.4,1.5v0.2h-5.4V107.1z"/>
		<path fill="#333333" d="M183.4,96.7c2.9,0,4.4,1.7,4.4,5.1l-0.1,0.2h-6.5v0.3c0.1,2.3,1.4,3.7,3.5,3.7c0.9,0,1.9-0.2,2.7-0.8
			l0.2,0.1c-0.9,1.4-2.4,2.3-4.4,2.3c-3.1,0-5-2.2-5-5.2C178.3,98.5,181.1,96.7,183.4,96.7z M182.8,101.2c1.5,0,2-0.1,2.2-0.2
			c0-0.1,0-0.4,0-0.6c0-2-0.5-2.9-1.7-2.9c-0.8,0-1.4,0.7-1.7,1.7c-0.2,0.7-0.3,1.5-0.3,2.1H182.8z"/>
		<path fill="#333333" d="M190.8,102.2c1-0.4,2.2-0.6,4-0.8v-0.6c0-1.6-0.8-2.5-2.4-2.5c-1.3,0-2.2,0.7-2.5,1.6h-0.4
			c0.2-2.1,1.9-3.1,4-3.1c2.3,0,4.1,1,4.1,3.6v5c0,0.8,0.3,1.1,0.8,1.1c0.2,0,0.3,0,0.5-0.1l0.1,0.2c-0.5,0.6-1.3,1-2.1,1
			c-1.1,0-1.8-0.6-2-1.7h0c-0.7,1.3-1.6,1.8-3,1.8c-1.7,0-3-1-3-2.7C189,103.5,189.7,102.7,190.8,102.2z M193.4,106.3
			c0.6,0,1.2-0.3,1.5-0.8c0-0.2,0-0.9,0-1v-2.4c-1,0-1.7,0.2-2.2,0.5c-0.7,0.4-0.9,1-0.9,1.8C191.7,105.5,192.2,106.3,193.4,106.3z"
			/>
		<path fill="#333333" d="M205.2,96.9c0.7,0,1.6,0.2,2.1,0.4v-3.6c0-1.2-0.6-1.5-1.2-1.5V92l4.1-0.2l0,0.1c0,0.6-0.1,1.2-0.1,1.9
			v11.7c0,1.2,0.6,1.5,1,1.5v0.2l-4,0.2l0-0.1c0.1-0.7,0.1-1.8,0.1-2h0c-0.6,1.5-1.7,2.2-3.3,2.2c-2.7,0-4.2-2.1-4.2-5
			C199.8,99.1,201.9,96.9,205.2,96.9z M205.6,106c0.8,0,1.6-0.5,1.7-1.1v-6.1c-0.2-0.8-1.1-1.1-1.8-1.1c-1.5,0-2.6,1.7-2.6,4.4
			C203,104.3,203.8,106,205.6,106z"/>
		<path fill="#333333" d="M216.7,97.1v0.2c-0.4,0-0.8,0.3-0.8,0.9c0,0.4,0.2,0.9,0.4,1.6l1.9,4.9h0l1.8-4.5c0.4-0.9,0.5-1.5,0.5-1.9
			c0-0.6-0.3-0.9-0.9-1v-0.2h3.4v0.2c-0.4,0.1-0.8,0.4-1.1,1l-4,8.7c-0.6,1.3-1.3,2.8-1.8,3.7c-0.7,1.1-1.3,1.6-2.1,1.6
			c-0.7,0-1.3-0.3-1.3-1.3c0-0.2,0.1-0.5,0.2-0.8c0.4,0.1,0.8,0.1,1.1,0.1c0.7,0,1.2-0.3,1.5-0.6c0.3-0.3,0.5-0.7,0.9-1.5l0.1-0.2
			c-0.2-0.3-1.2-2.8-1.4-3.2l-2.8-6.5c-0.2-0.6-0.6-0.9-1.1-1v-0.2H216.7z"/>
		<path fill="#333333" d="M233.6,96.2c0,3.1-2.4,5-5.4,5.6c-0.1,0.5-0.2,1.6-0.2,2h-0.2c-0.1-0.8-0.1-2.1-0.1-2.9
			c0,0,0.1-0.1,0.1-0.1c2.7-0.4,4.7-2,4.7-5c0-1.9-1.1-3.6-3.7-3.6c-2.1,0-3.6,1.4-3.6,3.4c0,0.1,0,0.2,0,0.4h-0.2
			c-0.5,0-0.8-0.4-0.8-1c0-1.9,2-3.3,4.6-3.3C231.3,91.8,233.6,93.1,233.6,96.2z M227.7,105.8c0.5,0,0.9,0.4,0.9,0.9
			c0,0.5-0.4,0.8-0.9,0.8c-0.5,0-0.9-0.4-0.9-0.8C226.9,106.2,227.2,105.8,227.7,105.8z"/>
		<path fill="#333333" d="M27.1,135.2c0.6-0.1,1.1-0.2,1.1-1.2v-12.5c0-1-0.5-1.2-1.1-1.2V120h10.3l0.1,2.3h-0.2
			c-0.4-1.7-0.9-1.8-3.5-1.8h-4.4v6.5h3.7c1.3,0,1.5-0.4,1.6-1.5h0.2v3.4h-0.2c-0.2-1-0.4-1.4-1.6-1.4h-3.7v6.3c0,1,0.5,1.2,1.3,1.2
			v0.2h-3.6V135.2z"/>
		<path fill="#333333" d="M40.8,133.9c0,1.1,0.5,1.2,1.1,1.3v0.2h-3.3v-0.2c0.6-0.1,1.1-0.2,1.1-1.3v-12.5c0-1.1-0.5-1.2-1.1-1.3
			V120l2.2-0.1l0,0.1c0,0.7,0,1.7,0,2V133.9z"/>
		<path fill="#333333" d="M45.3,125.5v0.2c-0.4,0-0.8,0.2-0.8,0.6c0,0.3,0.1,0.6,0.4,1.3l2.7,6.5h0l2.4-5.6c0.4-0.9,0.7-1.7,0.7-2.1
			c0-0.5-0.3-0.7-0.9-0.7v-0.2h2.9v0.2c-0.4,0-0.9,0.2-1.2,0.9l-4.1,9.1c-0.4,0.8-1.2,2.6-1.7,3.4c-0.5,0.8-1,1.2-1.6,1.2
			c-0.5,0-0.9-0.2-0.9-0.7c0-0.1,0-0.3,0.1-0.4c0.3,0.1,0.5,0.1,0.7,0.1c0.7,0,1-0.3,1.3-0.6c0.4-0.5,0.7-1.1,1.5-2.7l0.1-0.3
			l-1.1-2.8l-2.5-6.2c-0.2-0.6-0.5-0.9-1.1-0.9v-0.2H45.3z"/>
		<path fill="#333333" d="M58.2,134l0-1.5h0.2c0.4,1.8,1.7,2.6,4,2.6c2.2,0,4-1.1,4-3.5c0-1.9-1.3-2.9-3.6-3.6
			c-2.3-0.7-4.4-1.4-4.4-4.2c0-2.6,2.1-4.1,4.8-4.1c1.7,0,2.9,0.4,3.7,0.8v0.8l0,1.3h-0.2c-0.2-1.6-1.6-2.4-3.6-2.4
			c-1.9,0-3.7,1-3.7,3.2c0,2.1,1.7,2.7,4,3.5c2.4,0.7,4.1,1.7,4.1,4.3c0,2.6-2.2,4.4-5.1,4.4c-1.8,0-3-0.2-4.2-0.7L58.2,134z"/>
		<path fill="#333333" d="M74.1,120.5h-1.9c-2.5,0-2.9,0-3.3,1.8h-0.2l0.1-2.3h11.9l0.1,2.3h-0.2c-0.3-1.7-0.8-1.8-3.3-1.8h-1.9
			v13.4c0,1,0.5,1.2,1.3,1.3v0.2h-3.8v-0.2c0.8,0,1.3-0.2,1.3-1.3V120.5z"/>
		<path fill="#333333" d="M85,121.1c0,1.3-0.8,2.5-2,3.3l-0.1-0.2c1.1-0.9,1.4-1.8,1.4-2.4c0-0.7-0.4-1-1-1
			c-0.1-0.1-0.1-0.2-0.1-0.3c0-0.5,0.4-0.8,0.8-0.8C84.5,119.7,85,120.2,85,121.1z"/>
		<path fill="#333333" d="M91.1,127.5h-0.2c-0.2-1.1-1-2-2.6-2c-1.4,0-2.4,0.8-2.4,2c0,1.2,0.9,1.7,2.5,2.1c2.3,0.5,3.2,1.4,3.2,2.8
			c0,1.9-1.7,3.1-3.7,3.1c-1.2,0-2.2-0.1-3.1-0.6v-0.7l0-1.3H85c0.3,1.4,1.3,2.2,2.9,2.2c1.5,0,2.6-0.8,2.6-2.2
			c0-1.1-0.6-1.8-2.6-2.2c-1.8-0.4-3-1-3-2.7c0-1.8,1.6-2.8,3.5-2.8c0.8,0,1.9,0.2,2.8,0.6v0.7L91.1,127.5z"/>
		<path fill="#333333" d="M103.1,125.1c0.9,0,2,0.2,2.7,0.7v-4.5c0-1.1-0.4-1.2-1.2-1.3V120l2.4-0.1l0,0.1c0,0.7,0,1.7,0,2v11.8
			c0,1.1,0.4,1.3,1.1,1.3v0.2l-2.2,0.2l0-0.1c0-0.7,0-2.1,0-2.2h0c-0.6,1.6-1.9,2.4-3.4,2.4c-2.7,0-4.2-2-4.2-4.9
			C98.1,127.5,99.8,125.1,103.1,125.1z M102.8,134.7c1.6,0,2.7-1.1,3-2.1v-5.4c-0.4-1.1-1.5-1.7-2.8-1.7c-2,0-3.7,1.7-3.7,4.8
			C99.4,132.6,100.3,134.7,102.8,134.7z"/>
		<path fill="#333333" d="M109.2,135.2c0.6-0.1,1.1-0.2,1.1-1.3v-6.8c0-1.2-0.4-1.4-1.1-1.4v-0.2l2.2-0.2l0,0.1
			c0,0.7-0.1,1.8-0.1,2.3h0c0.6-1.7,1.6-2.5,2.8-2.5c0.6,0,1.3,0.2,1.3,0.8c0,0.1,0,0.2-0.1,0.4l-0.1,0c-0.3-0.1-0.7-0.2-1.3-0.2
			c-1.2,0-2.3,0.6-2.7,1.9v5.8c0,1,0.4,1.2,1.3,1.3v0.2h-3.5V135.2z"/>
		<path fill="#333333" d="M125.3,130.2c0,3-1.9,5.3-4.8,5.3c-2.9,0-4.6-1.8-4.6-5.1c0-3,1.9-5.3,4.8-5.3
			C123.5,125.1,125.3,127,125.3,130.2z M117.1,130.4c0,2.7,1.1,4.7,3.4,4.7c2,0,3.4-2,3.4-4.8c0-2.7-1-4.7-3.5-4.7
			C118.6,125.6,117.1,127.5,117.1,130.4z"/>
		<path fill="#333333" d="M134.6,128.7c0-1.9-1-2.8-2.7-2.8c-1.6,0-2.7,1.1-3,2.1v5.8c0,1.1,0.5,1.2,1.1,1.3v0.2h-3.3v-0.2
			c0.6-0.1,1.1-0.2,1.1-1.3v-6.8c0-1.2-0.4-1.4-1.1-1.4v-0.2l2.2-0.2l0,0.1c0,0.7-0.1,1.8-0.1,2.2h0c0.6-1.5,1.7-2.4,3.4-2.4
			c2,0,3.4,0.9,3.4,3.4v5.3c0,1,0.5,1.2,1.1,1.3v0.2h-3.3v-0.2c0.6-0.1,1.1-0.2,1.1-1.3V128.7z"/>
		<path fill="#333333" d="M142.4,125.1c2.2,0,3.8,1.4,3.8,4.5l-0.1,0.1h-7c0,0.2,0,0.5,0,0.7c0,2.5,1.3,4.4,3.6,4.4
			c1.1,0,2.2-0.2,3.1-1.2l0.2,0.1c-0.9,1.4-2.4,1.9-3.7,1.9c-2.9,0-4.5-2.1-4.5-5C138,127.1,140,125.1,142.4,125.1z M141.4,129.2
			c2.5,0,3.3,0,3.7-0.1v-0.4c0-1.7-0.8-3.1-2.6-3.1c-1,0-1.9,0.5-2.5,1.5c-0.4,0.6-0.6,1.3-0.7,2.2H141.4z"/>
		<path fill="#333333" d="M154.8,123.1v2.3h3.7l-0.1,0.6h-3.6v6.7c0,1.5,0.6,2.1,1.8,2.1c0.8,0,1.4-0.2,1.8-0.7l0.1,0.1
			c-0.4,0.6-1.3,1.3-2.5,1.3c-1.5,0-2.5-0.8-2.5-2.5v-7h-1.3v-0.2c1.4-0.2,1.9-0.9,2.3-2.8H154.8z"/>
		<path fill="#333333" d="M168.5,130.2c0,3-1.9,5.3-4.8,5.3c-2.9,0-4.6-1.8-4.6-5.1c0-3,1.9-5.3,4.8-5.3
			C166.8,125.1,168.5,127,168.5,130.2z M160.4,130.4c0,2.7,1.1,4.7,3.4,4.7c2,0,3.4-2,3.4-4.8c0-2.7-1-4.7-3.5-4.7
			C161.9,125.6,160.4,127.5,160.4,130.4z"/>
		<path fill="#333333" d="M174.7,126v-0.2c0.5,0,1.1-0.2,1.3-0.5l0-0.9c0-2.9,1.1-4.8,3.5-4.8c0.9,0,2.5,0.5,2.5,1.6
			c0,0.5-0.3,0.9-0.9,0.9c0,0-0.1,0-0.2,0v-0.3c0-1.2-0.6-1.8-1.6-1.8c-1.3,0-2.3,1-2.3,3.8v1.6h2.4l-0.1,0.6h-2.2v7.8
			c0,1,0.4,1.2,1.3,1.3v0.2h-3.5v-0.2c0.6-0.1,1.1-0.2,1.1-1.3V126H174.7z M182.1,133.9c0,1.1,0.5,1.2,1.1,1.3v0.2h-3.3v-0.2
			c0.6-0.1,1.1-0.2,1.1-1.3v-6.8c0-1.2-0.3-1.4-1-1.4v-0.2l2.1-0.1l0,0.1c0,0.6-0.1,1.3-0.1,1.9V133.9z"/>
		<path fill="#333333" d="M192.3,128.7c0-1.9-1-2.8-2.7-2.8c-1.6,0-2.7,1.1-3,2.1v5.8c0,1.1,0.5,1.2,1.1,1.3v0.2h-3.3v-0.2
			c0.6-0.1,1.1-0.2,1.1-1.3v-6.8c0-1.2-0.4-1.4-1.1-1.4v-0.2l2.2-0.2l0,0.1c0,0.7-0.1,1.8-0.1,2.2h0c0.6-1.5,1.7-2.4,3.4-2.4
			c2,0,3.4,0.9,3.4,3.4v5.3c0,1,0.5,1.2,1.1,1.3v0.2h-3.3v-0.2c0.6-0.1,1.1-0.2,1.1-1.3V128.7z"/>
		<path fill="#333333" d="M200.7,125.1c0.9,0,2,0.2,2.7,0.7v-4.5c0-1.1-0.4-1.2-1.2-1.3V120l2.4-0.1l0,0.1c0,0.7,0,1.7,0,2v11.8
			c0,1.1,0.4,1.3,1.1,1.3v0.2l-2.2,0.2l0-0.1c0-0.7,0-2.1,0-2.2h0c-0.6,1.6-1.9,2.4-3.4,2.4c-2.7,0-4.2-2-4.2-4.9
			C195.7,127.5,197.4,125.1,200.7,125.1z M200.4,134.7c1.6,0,2.7-1.1,3-2.1v-5.4c-0.4-1.1-1.5-1.7-2.8-1.7c-2,0-3.7,1.7-3.7,4.8
			C196.9,132.6,197.9,134.7,200.4,134.7z"/>
		<path fill="#333333" d="M221.1,130.2c0,3-1.9,5.3-4.8,5.3c-2.9,0-4.6-1.8-4.6-5.1c0-3,1.9-5.3,4.8-5.3
			C219.4,125.1,221.1,127,221.1,130.2z M213,130.4c0,2.7,1.1,4.7,3.4,4.7c2,0,3.4-2,3.4-4.8c0-2.7-1-4.7-3.5-4.7
			C214.5,125.6,213,127.5,213,130.4z"/>
		<path fill="#333333" d="M230.3,127.1c0-1.2-0.4-1.4-1.1-1.4v-0.2l2.2-0.1l0,0c0,0.7,0,1.5,0,1.8v6.5c0,1.1,0.4,1.3,1.1,1.3v0.2
			l-2.2,0.2l0-0.1c0-0.7,0-2.1,0-2.2h0c-0.5,1.5-1.7,2.4-3.4,2.4c-2,0-3.3-1-3.3-3.5v-5c0-1.2-0.4-1.4-1.1-1.4v-0.2l2.2-0.1l0,0
			c0,0.7-0.1,1.5-0.1,1.8v4.7c0,1.9,0.9,2.8,2.6,2.8c1.6,0,2.7-1.1,3-2.1V127.1z"/>
		<path fill="#333333" d="M235.8,123.1v2.3h3.7l-0.1,0.6h-3.6v6.7c0,1.5,0.6,2.1,1.8,2.1c0.8,0,1.4-0.2,1.8-0.7l0.1,0.1
			c-0.4,0.6-1.3,1.3-2.5,1.3c-1.5,0-2.5-0.8-2.5-2.5v-7h-1.3v-0.2c1.4-0.2,1.9-0.9,2.3-2.8H235.8z"/>
		<path fill="#333333" d="M242.2,133.8c0.5,0,0.9,0.4,0.9,0.9c0,0.5-0.4,0.8-0.9,0.8c-0.5,0-0.9-0.4-0.9-0.8
			C241.4,134.1,241.7,133.8,242.2,133.8z"/>
	</g>
</g>
<g>
	<rect x="76.3" y="160.8" fill="#942170" width="126.7" height="32.9"/>
	<g>
		<g>
			<path fill="#FFFFFF" d="M110.2,172.5h2.3c2,0,3.6,0.6,3.6,2.8c0,1.8-1.1,2.9-3.6,2.9h-1.1v3.7h-1.1V172.5z M112.5,177.2
				c1.5,0,2.4-0.5,2.4-1.9c0-1.4-0.8-1.8-2.4-1.8h-1.3v3.7H112.5z"/>
			<path fill="#FFFFFF" d="M117.5,172.5h1.1v8.4h4.1v1h-5.2V172.5z"/>
			<path fill="#FFFFFF" d="M127,172.5h1.2l3,9.4H130l-0.9-2.9h-3.3l-1,2.9h-1.1L127,172.5z M128.9,178l-0.5-1.8
				c-0.2-0.9-0.6-2.1-0.8-2.7h-0.1c-0.2,0.7-0.6,1.8-0.8,2.7l-0.6,1.8H128.9z"/>
			<path fill="#FFFFFF" d="M133.3,178l-2.8-5.6h1.2l1.4,3c0.2,0.4,0.6,1.3,0.7,1.6h0.1c0.1-0.2,0.6-1.1,0.8-1.5l1.6-3.1h1.2
				l-3.1,5.6v3.8h-1.1V178z"/>
			<path fill="#FFFFFF" d="M141.9,172.5h1.2l3,5.4c0.5,0.9,0.8,1.6,1.1,2h0.1c0-0.3-0.1-1.8-0.1-2.8v-4.6h1v9.4h-1l-3.1-5.7
				c-0.5-0.9-0.8-1.6-1.1-2.1h-0.1c0,0.3,0,1.8,0,2.8v4.9h-1V172.5z"/>
			<path fill="#FFFFFF" d="M149.8,177.2c0-3.1,1.4-4.8,3.6-4.8c2.4,0,3.5,1.6,3.5,4.8c0,3.1-1.4,4.8-3.6,4.8
				C150.9,182,149.8,180.5,149.8,177.2z M155.8,177.2c0-2.8-0.7-3.9-2.4-3.9c-1.6,0-2.4,1.2-2.4,3.9c0,2.8,0.7,3.9,2.4,3.9
				C154.9,181,155.8,179.9,155.8,177.2z"/>
			<path fill="#FFFFFF" d="M158.2,172.5h1.1l0.8,6.5c0,0.3,0.1,1.2,0.1,1.5h0.1c0.1-0.2,0.3-0.9,0.4-1.2l1.6-4.7h1.1l1.4,4.7
				l0.3,1.2h0.1c0-0.2,0.1-1.1,0.2-1.4l1.1-6.6h1.1l-1.7,9.4h-1.2l-1.4-4.7c-0.1-0.3-0.2-0.8-0.3-1.2h-0.1c-0.1,0.3-0.2,0.8-0.4,1.2
				l-1.6,4.7h-1.2L158.2,172.5z"/>
		</g>
	</g>
</g>
</svg>
