minutes,time,total_seconds,type_motor,type_event,type_event_emoji
0:00:00,8:10,1,cycle,Began cycling,Began cycling
0:00:01,8:10,2,publictransport,Began walking to bus stop,Began walking to bus stop
0:00:02,8:10,3,taxi,Began by booking taxi through app,Began by booking taxi through app
0:02:00,8:12,120,cycle,Exited HDB car park,Exited HDB car park
0:04:00,8:14,240,cycle,Joined Ulu Pandan Park Connector,Joined Ulu Pandan Park Connector
0:06:00,8:16,360,video,Construction made path difficult,Construction made path difficult 😖
0:06:10,8:16,370,publictransport,Almost missed the bus,Almost missed the bus 🏃
0:09:00,8:19,540,publictransport,Bus fare was $0.04,Bus fare $0.04 💰
0:09:10,8:19,550,publictransport,Reached MRT station,Reached MRT station 🚉
0:11:00,8:21,660,publictransport,Stopped to recharge card,Stopped to recharge card 💰
0:13:00,8:23,780,cycle,Ulu Pandan connector ends,Ulu Pandan connector ends
0:13:05,8:23,785,taxi,"Got into taxi, some traffic at pickup","Got into taxi, some traffic at pickup"
0:13:10,8:23,790,publictransport,"Missed first train, too full","Missed first train, too full"
0:14:00,8:24,840,taxi,Booking fee $3.30,Booking fee $3.30 💰
0:14:05,8:24,845,publictransport,"Next train, standing room only","Next train, standing room only"
0:15:00,8:25,900,cycle,Starting to get sweaty,Starting to get sweaty 😅
0:16:00,8:26,960,cycle,Almost bumped into person using their phone,Almost bumped into person using their phone ⚠️
0:16:05,8:26,965,taxi,ERP Clementi Ave 4 gantry charge $1.00,ERP Clementi Ave 4 gantry $1.00 💰
0:18:00,8:28,1080,cycle,Waited two minutes at traffic lights,Two-minute wait at traffic lights 🚦
0:18:05,8:28,1085,taxi,Driving below average speed,Driving below average speed
0:19:00,8:29,1140,cycle,Narrow paths and many pedestrians,Narrow paths and many pedestrians ⚠️
0:20:00,8:30,1200,video,Bus stop very hard to get through,Bus stop very hard to get through
0:21:00,8:31,1260,publictransport,Saw cycling team from train,Saw cycling team from train 🚲
0:22:01,8:32,1321,taxi,Moving slightly faster,Moving slightly faster
0:23:00,8:33,1380,taxi,AYE to City ERP gantry charge $1.00,AYE to City ERP gantry charge $1.00 💰
0:27:00,8:37,1620,taxi,Exit from AYE,Exit from AYE
0:28:00,8:38,1680,taxi,Anson Road exit $2.50,Anson Road exit $2.50 💰
0:28:05,8:38,1685,cycle,Uneven paths and construction,Uneven paths and construction ⚠️
0:29:00,8:39,1740,publictransport,Still standing room only on MRT,Still standing room only on MRT
0:32:00,8:42,1920,taxi,Taxi stopped suddenly,Taxi stopped suddenly
0:34:00,8:44,2040,taxi,Reached city area,Reached city area 🏙
0:34:01,8:44,2041,publictransport,Reached Tanjong Pagar MRT,Reached Tanjong Pagar MRT 🚉
0:34:10,8:44,2050,publictransport,MRT fare $1.37,MRT fare $1.37 💰
0:35:00,8:45,2100,video,Re-joined park connector,Re-joined park connector 😂
0:39:00,8:49,2340,taxi,Reached destination,Reached destination 🏁
0:39:05,8:49,2345,taxi,Ride and time/area surcharge is $17.25,Ride and time/area surcharge is $17.25 💰
0:41:00,8:51,2460,cycle,"Went on the wrong side, had to switch back","Went on the wrong side, had to switch back"
0:41:10,8:51,2470,publictransport,"Lots of construction, confusing to exit","Lots of construction, confusing to exit 😖"
0:42:00,8:52,2520,video,Ample space and nice views on the PCN,Ample space and nice views on the PCN 🌳
0:45:00,8:55,2700,publictransport,Sweating slightly during walk,Sweating slightly during walk 😅
0:48:00,8:58,2880,publictransport,Waiting to cross the road,Waiting to cross road 🛣
0:50:00,9:00,3000,publictransport,Reached destination,Reached destination 🏁
0:50:10,9:00,3010,cycle,Reached Clarke Quay,Reached Clarke Quay ⚠️
0:55:00,9:05,3300,video,Narrow CBD pathways,Narrow CBD pathways ⚠️
1:01:00,9:11,3660,video,Reaching destination,Reaching destination
1:02:00,9:12,3720,cycle,End of journey,End of journey 🏁