minutes,time,total_seconds,type_motor,type_event,type_event_emoji
0:00:00,8:10,1,cycle,Began cycling,Began cycling
0:00:01,8:10,2,publictransport,Began walking to bus stop,Began walking to bus stop
0:00:02,8:10,3,taxi,Began by booking taxi through app,Began by booking taxi through app
0:06:25,8:16,385,video,Construction made path difficult,Construction made path difficult 😖
0:09:00,8:19,540,publictransport,Bus fare was $0.04,Bus fare was $0.04 💰
0:09:10,8:19,550,publictransport,Reached MRT station,Reached MRT station 🚉
0:13:00,8:23,780,cycle,Ulu Pandan connector ends,Ulu Pandan connector ends
0:13:05,8:23,785,taxi,Got into taxi (Booking $3.30),Got into taxi (Booking $3.30)
0:13:10,8:23,790,publictransport,"Missed first train, too full","Missed first train, too full"
0:15:00,8:25,900,cycle,Starting to get sweaty,Starting to get sweaty 😅
0:16:05,8:26,965,taxi,ERP Clementi Ave 4 gantry charge $1.00,ERP Clementi Ave 4 gantry $1.00 💰
0:23:00,8:33,1380,taxi,AYE to City ERP gantry charge $1.00,AYE to City ERP gantry charge $1.00 💰
0:23:20,8:33,1400,video,Bus stop very hard to get through,Bus stop very hard to get through
0:33:00,8:43,1980,taxi,Anson Road exit $2.50,Anson Road exit $2.50 💰
0:34:00,8:44,2040,taxi,Reached city area,Reached city area 🏙
0:37:18,8:45,2238,video,Re-joined park connector,Re-joined park connector 😂
0:44:01,8:44,2641,publictransport,"Reached Tanjong Pagar, MRT fare $1.37","Reached Tanjong Pagar, MRT fare $1.37 💰"
0:39:00,8:49,2340,taxi,Reached destination (Charge $17.25),Reached destination  (Charge $17.25) 🏁
0:42:00,8:52,2520,video,Ample space and nice views on the PCN,Ample space and nice views on the PCN 🌳
0:45:00,8:55,2700,publictransport,Sweating slightly during walk,Sweating slightly during walk 😅
0:50:00,9:00,3000,publictransport,Reached destination,Reached destination 🏁
1:01:00,9:11,3660,video,Narrow CBD pathways,Narrow CBD pathways ⚠️
1:02:00,9:12,3720,cycle,End of journey,End of journey 🏁