<svg version="1.1"  xmlns="http://www.w3.org/2000/svg" xmlns:xlink="http://www.w3.org/1999/xlink" x="0px" y="0px"
	 width="75px" height="55px" viewBox="0 0 75 55" enable-background="new 0 0 75 55" xml:space="preserve">
<circle opacity="0.1" fill="#942170" cx="17.8" cy="40" r="1.9"/>
<circle opacity="0.1" fill="#942170" cx="62.6" cy="47.2" r="1.4"/>
<path opacity="0.1" fill="#942170" d="M11.8,9.1H40c0,0,5.7,0,5.7,5.7c0,5.6,0,8.5,0,8.5H40v-5.6c0,0,0-2.8-2.8-2.8s-25.4,0-25.4,0
	V9.1z"/>
<rect x="39.3" y="23.2" fill="#C990B7" width="7.3" height="2.8"/>
<rect x="26" y="6.3" opacity="0.1" fill="#942170" width="5.6" height="2.8"/>
<rect x="27.7" y="0.7" opacity="0.1" fill="#942170" width="2" height="5.6"/>
<rect x="23.1" y="2.5" fill="#C990B7" width="11.3" height="2"/>
<line fill="none" stroke="#FFFFFF" stroke-width="0.7062" stroke-miterlimit="10" x1="25.9" y1="2.5" x2="25.9" y2="4.5"/>
<line fill="none" stroke="#FFFFFF" stroke-width="0.7062" stroke-miterlimit="10" x1="28.7" y1="2.5" x2="28.7" y2="4.5"/>
<line fill="none" stroke="#FFFFFF" stroke-width="0.7062" stroke-miterlimit="10" x1="31.5" y1="2.5" x2="31.5" y2="4.5"/>
<circle fill="none" stroke="#C990B7" stroke-width="0.7062" stroke-linecap="round" stroke-miterlimit="10" stroke-dasharray="0.1765,3.1777" cx="42.9" cy="26.2" r="19.1"/>
<path opacity="0.1" fill="#942170" d="M51.3,44.6c0-4.7-8.5-16.3-8.5-16.3s-8.5,11.7-8.5,16.3c0,4.7,3.8,8.5,8.5,8.5
	C47.5,53.1,51.3,49.3,51.3,44.6z"/>
<path fill="#C990B7" d="M48.4,43.2c0,1.4-1.4,1.4-1.4,1.4c-1.4,0-1.4-1.4-1.4-1.4c0,1.4-1.4,1.4-1.4,1.4c-1.4,0-1.4-1.4-1.4-1.4
	c0,1.4-1.4,1.4-1.4,1.4c-1.4,0-1.4-1.4-1.4-1.4c0,1.4-1.4,1.4-1.4,1.4c-1.4,0-1.4-1.4-1.4-1.4c0,1.1-0.9,1.3-1.2,1.4c0,0,0,0,0,0.1
	c0,3.7,3,6.7,6.7,6.7c3.7,0,6.7-3,6.7-6.7c0,0,0,0,0-0.1C48.4,44.5,48.4,43.2,48.4,43.2z"/>
<line fill="none" stroke="#FFFFFF" stroke-width="0.7062" stroke-miterlimit="10" x1="40.2" y1="26.2" x2="45.7" y2="26.2"/>
</svg>
