
<svg version="1.1"  xmlns="http://www.w3.org/2000/svg" xmlns:xlink="http://www.w3.org/1999/xlink" x="0px" y="0px"
	 width="40px" height="40px" viewBox="0 0 40 40" enable-background="new 0 0 40 40" xml:space="preserve">
<g>
	<path opacity="0.6" fill="#9EAABC" d="M33,7c3.6,3.6,5.4,7.9,5.4,13s-1.8,9.4-5.4,13s-8,5.4-13.1,5.4c-5,0-9.4-1.8-13-5.4
		C3.4,29.4,1.6,25,1.6,20S3.4,10.6,7,7s7.9-5.4,13-5.4C25.1,1.6,29.4,3.4,33,7z M8.7,8.8C5.6,11.9,4,15.7,4,20s1.6,8.1,4.7,11.2
		C11.9,34.4,15.6,36,20,36c4.4,0,8.2-1.6,11.3-4.7C34.4,28.1,36,24.3,36,20s-1.6-8.1-4.7-11.2S24.4,4,20,4C15.6,4,11.9,5.6,8.7,8.8z
		"/>
</g>
<polygon fill="#0C2B57" points="14.9,19.3 21.4,12.2 22.8,13.7 17.8,19.3 22.8,24.9 21.4,26.3 "/>
</svg>
