<svg version="1.1" xmlns="http://www.w3.org/2000/svg" xmlns:xlink="http://www.w3.org/1999/xlink" x="0px" y="0px" width="92.7px" height="63.7px" viewBox="0 0 92.7 63.7" enable-background="new 0 0 92.7 63.7" xml:space="preserve">
	<g>
		<path fill="none" stroke="#333333" stroke-miterlimit="10" d="M26,61.7H6c-1.6,0-3-1.4-3-3V37.3c0-1.6,1.4-3,3-3h20
		c1.6,0,3,1.4,3,3v21.3C29,60.3,27.7,61.7,26,61.7z"/>
		<g>

			<path fill="#6F8194" d="M25.3,54.2h-8.6l2.3,2l-1.2,1.2l-4.2-4.2l4.2-4.3L19,50l-2.3,2.4h8.5"/>

		</g>
		<path fill="none" stroke="#333333" stroke-miterlimit="10" d="M56,61.7H36c-1.6,0-3-1.4-3-3V37.3c0-1.6,1.4-3,3-3h20
		c1.7,0,3,1.4,3,3v21.3C59,60.3,57.7,61.7,56,61.7z"/>
		<g>

			<path fill="#6F8194" d="M47.6,46.3v8.6l2-2.3l1.2,1.2L46.5,58l-4.3-4.2l1.2-1.2l2.4,2.3v-8.5"/>

		</g>
		<path fill="none" stroke="#333333" stroke-miterlimit="10" d="M56,30.3H36c-1.6,0-3-1.4-3-3V6c0-1.7,1.4-3,3-3h20c1.7,0,3,1.3,3,3
		v21.3C59,29,57.7,30.3,56,30.3z"/>
		<g>

			<path fill="#6F8194" d="M45.4,26.6V18l-2,2.3l-1.2-1.2l4.2-4.2l4.3,4.2l-1.2,1.2L47.1,18v8.5"/>

		</g>
		<path fill="none" stroke="#333333" stroke-miterlimit="10" d="M86,61.7H66c-1.7,0-3-1.4-3-3V37.3c0-1.6,1.4-3,3-3h20
		c1.7,0,3,1.4,3,3v21.3C89,60.3,87.7,61.7,86,61.7z"/>
		<g>
			<path fill="#6F8194" d="M73.6,52h8.6l-2.3-2l1.2-1.2l4.2,4.2l-4.2,4.3l-1.2-1.2l2.3-2.4h-8.5"/>

		</g>
		<rect x="426.4" y="-82.6" fill="#0C2B57" width="32.9" height="32.9"/>
		<g>
			<path fill="#FFFFFF" d="M444-73l1.6,1.2l-5.2,5.8l5,5.6l-1.6,1.4l-6-7L444-73z"/>
		</g>
	</g>
</svg>
