<?xml version="1.0" encoding="utf-8"?>
<!-- Generator: Adobe Illustrator 19.1.0, SVG Export Plug-In . SVG Version: 6.00 Build 0)  -->
<svg version="1.1" id="Layer_1" xmlns="http://www.w3.org/2000/svg" xmlns:xlink="http://www.w3.org/1999/xlink" x="0px" y="0px"
	 width="50.8px" height="52.3px" viewBox="0 0 50.8 52.3" enable-background="new 0 0 50.8 52.3" xml:space="preserve">
<g>
	<path fill="none" stroke="#C0C8D0" stroke-width="2" stroke-miterlimit="10" d="M14.1,44.6c-5.1,0-9.2-4.1-9.2-9.2s4.1-9.2,9.2-9.2
		V44.6z"/>
	<path fill="none" stroke="#C0C8D0" stroke-width="2" stroke-miterlimit="10" d="M36.8,44.6c5.1,0,9.2-4.1,9.2-9.2s-4.1-9.2-9.2-9.2
		V44.6z"/>
	<path fill="none" stroke="#C0C8D0" stroke-width="2" stroke-miterlimit="10" d="M45.9,35.4v-9.1c0,0-1.8-20.4-20.5-20.4
		S4.9,26.3,4.9,26.3v9.1"/>
</g>
</svg>
