<?xml version="1.0" encoding="utf-8"?>
<!-- Generator: Adobe Illustrator 19.1.0, SVG Export Plug-In . SVG Version: 6.00 Build 0)  -->
<svg version="1.1" id="Layer_1" xmlns="http://www.w3.org/2000/svg" xmlns:xlink="http://www.w3.org/1999/xlink" x="0px" y="0px" width="199.8px" height="19.3px" viewBox="0 0 199.8 19.3" enable-background="new 0 0 199.8 19.3" xml:space="preserve">
	<pattern x="-122.8" y="-186.9" width="78" height="68" patternUnits="userSpaceOnUse" id="New_Pattern_Swatch_1" viewBox="0 -68 78 68" overflow="visible">
		<g>
			<polygon fill="none" points="0,0 78,0 78,-68 0,-68 		"/>
			<polygon fill="#0C2B57" points="78,0 0,0 0,-68 78,-68 		"/>
		</g>
	</pattern>
	<g>
		<pattern id="SVGID_1_" xlink:href="#New_Pattern_Swatch_1" patternTransform="matrix(1 0 0 1 636 -1066)"></pattern>
		<path
			fill="#0C2B57"
			d="M168.6,2l-3.1,9.2L162.8,2h-5.3v0.3c0.7,0.1,1.2,0.5,1.2,1.8v9.2c0,1.5-0.5,2.7-1.8,2.8v0.3h4.5
		v-0.2c-1.3-0.2-1.8-1.2-1.8-2.7V3.4h0.1l4.3,13.1h0.6l4.6-13.4l0,0C169,4.6,169,7.1,169,8.2v5.8c0,1.7-0.9,2-1.5,2.1v0.3h6.3v-0.2
		c-0.5-0.1-1.4-0.4-1.4-2.1V4.3c0-1.6,0.9-1.9,1.4-1.9V2H168.6z M154.6,4.3c0-1.7,0.9-1.9,1.6-1.9V2h-6.6v0.3
		c0.6,0.1,1.5,0.3,1.5,1.9v9.8c0,1.7-0.9,2-1.5,2.1v0.3h6.3v-0.2c-0.5-0.1-1.3-0.4-1.3-2.1V4.3z M179.7,16V9.3h1.2
		c1.7,0,2.4,0.6,2.8,1.8h0.4V7h-0.4c-0.5,1.2-1.2,1.8-2.8,1.8h-1.2V2.5h1.4c1.7,0,3.7,0.3,4.5,2.7h0.4V2h-11v0.3
		c0.5,0.1,1.2,0.2,1.2,1.8v10c0,1.7-0.8,1.9-1.2,2v0.3h11.1v-3.3h-0.4c-0.8,2-1.6,2.9-4.2,2.9H179.7z M136.3,2v3.2h0.4
		c0.9-2.2,2.3-2.7,3.6-2.7h0.5v11.6c0,1.7-1,2-1.6,2.1v0.3h6.7v-0.3c-0.7-0.1-1.6-0.4-1.6-2.1V2.5h0.5c1.4,0,2.7,0.7,3.6,2.7h0.4V2
		H136.3z M191.5,16.2c-2.1,0-3-1.7-3.6-3.1h-0.4v3.1c0.9,0.2,2.3,0.4,3.9,0.4c2.9,0,5.7-1.2,5.7-4.5c0-2.1-1.1-3.6-3.8-4.6
		c-1.9-0.7-3-1.4-3-3.1c0-1.6,1.2-2.4,2.5-2.4c1.8,0,2.7,1.3,3.3,3h0.4V2.2c-0.8-0.2-2.1-0.4-3.5-0.4c-3.6,0-5.5,1.7-5.5,4.2
		c0,2.6,1.7,3.6,3.7,4.3c2,0.8,3.1,1.6,3.1,3.3C194.1,15.4,193.1,16.2,191.5,16.2 M28.6,4.3c0-1.7,0.9-1.9,1.5-1.9V2h-6.5v0.3
		c0.6,0.1,1.5,0.3,1.5,2v4.4h-4.9V4.3c0-1.7,0.9-1.9,1.5-1.9V2h-6.5v0.3c0.6,0.1,1.5,0.3,1.5,1.9v9.8c0,1.7-0.9,2-1.5,2.1v0.3h6.5
		v-0.2c-0.6-0.1-1.5-0.4-1.5-2.1V9.4h4.9v4.7c0,1.7-0.9,2-1.5,2.1v0.3h6.5v-0.3c-0.6-0.1-1.5-0.4-1.5-2.1V4.3z M36,16V9.3h1.2
		c1.7,0,2.3,0.6,2.8,1.8h0.4V7H40c-0.5,1.2-1.2,1.8-2.8,1.8H36V2.5h1.4c1.7,0,3.7,0.2,4.5,2.7h0.4V2H31.2v0.3
		c0.5,0.1,1.2,0.2,1.2,1.8v10c0,1.7-0.8,1.9-1.2,2v0.3h11.3v-3.3h-0.4c-1,2.5-2.2,2.9-4.2,2.9H36z M1.8,2v3.2h0.4
		c0.9-2.2,2.2-2.7,3.6-2.7h0.5v11.6c0,1.7-1,2-1.6,2.1v0.3h6.7v-0.3c-0.7-0.1-1.6-0.4-1.6-2.1V2.5h0.5c1.4,0,2.7,0.7,3.6,2.7h0.4V2
		H1.8z M52.9,16.2c-2.1,0-3-1.7-3.6-3.1h-0.4v3.1c0.9,0.2,2.3,0.4,3.8,0.4c2.9,0,5.7-1.2,5.7-4.5c0-2.1-1.1-3.6-3.8-4.6
		c-1.9-0.6-3.1-1.3-3.1-3c0-1.6,1.2-2.4,2.5-2.4c1.8,0,2.7,1.3,3.3,3h0.4V2.1c-0.8-0.2-2.1-0.3-3.5-0.3c-3.6,0-5.5,1.7-5.5,4.2
		c0,2.6,1.7,3.6,3.7,4.3c2,0.8,3.1,1.6,3.1,3.3C55.5,15.4,54.4,16.2,52.9,16.2 M125.9,16.2c-2.1,0-3-1.7-3.6-3.1h-0.4v3.1
		c0.9,0.2,2.3,0.4,3.9,0.4c2.9,0,5.7-1.2,5.7-4.5c0-2.1-1.1-3.6-3.8-4.6c-1.9-0.7-3-1.4-3-3.1c0-1.6,1.2-2.4,2.5-2.4
		c1.8,0,2.8,1.3,3.4,3h0.4V2.2c-0.9-0.2-2.1-0.4-3.5-0.4c-3.6,0-5.6,1.7-5.6,4.2c0,2.6,1.7,3.6,3.7,4.3c2,0.8,3.1,1.6,3.1,3.3
		C128.7,15.4,127.5,16.2,125.9,16.2 M59,2v3.2h0.4c0.9-2.2,2.2-2.7,3.6-2.7h0.5v11.6c0,1.7-1,2-1.6,2.1v0.3h6.6v-0.3
		c-0.7-0.1-1.5-0.4-1.5-2.1V2.5h0.5c1.4,0,2.7,0.7,3.6,2.7h0.4V2H59z M108.7,2v3.2h0.4c0.9-2.2,2.3-2.7,3.6-2.7h0.5v11.6
		c0,1.7-1,2-1.6,2.1v0.3h6.7v-0.3c-0.7-0.1-1.6-0.4-1.6-2.1V2.5h0.5c1.4,0,2.7,0.7,3.6,2.7h0.4V2H108.7z M106.3,4.3
		c0-1.7,0.9-1.9,1.5-2V2h-6.5v0.3c0.6,0.1,1.5,0.3,1.5,2v9.7c0,1.7-0.9,2-1.5,2.1v0.3h6.5v-0.2c-0.6-0.1-1.5-0.4-1.5-2.1V4.3z
		 M99.3,14.5L95.5,2h-4.7v0.3c0.7,0.1,0.9,0.5,0.9,0.8c0,0.2-0.1,0.5-0.2,0.8l-3.1,8.7c-1,2.7-1.7,3.5-2.4,3.6v0.3h4.1v-0.3
		c-0.7-0.1-1.3-0.7-1.3-1.6c0-0.7,0.2-1.2,0.4-2.1l0.3-0.9h5.1c0.2,1.2,0.8,2.7,0.8,3.6c0,0.5-0.3,1-1,1.1v0.3h6.3v-0.4
		C100.2,16.1,99.7,15.7,99.3,14.5 M89.9,11l2.5-7.3h0.1l2.1,7.3H89.9z M85.7,16.5v-0.3c-0.5-0.1-0.7-0.3-1.3-2.5
		c-0.8-2.7-1.8-4.5-4.3-4.6L80.1,9c2.3-0.1,4.2-1.2,4.2-3.5c0-2.8-3-3.4-6.2-3.4h-5.7v0.3c0.6,0.1,1.5,0.2,1.5,1.9v9.8
		c0,1.7-0.9,2-1.5,2.1v0.3h6.2v-0.3c-0.6-0.1-1.2-0.5-1.2-2.2V9.5h0.2c1.7,0,2.6,1.8,3.4,4.7c0.5,1.7,0.6,2.1,0.6,2.2v0.1H85.7z
		 M77.8,8.9c-0.2,0-0.3,0-0.5,0V2.5c0.2-0.1,0.6-0.1,0.7-0.1c1.9,0,3,0.7,3,2.9C81.1,7.8,79.9,8.9,77.8,8.9"/>
	</g>
</svg>
