<?xml version="1.0" encoding="utf-8"?>
<!-- Generator: Adobe Illustrator 19.1.0, SVG Export Plug-In . SVG Version: 6.00 Build 0)  -->
<svg version="1.1" id="Layer_1" xmlns="http://www.w3.org/2000/svg" xmlns:xlink="http://www.w3.org/1999/xlink" x="0px" y="0px"
	 width="52.2px" height="29.3px" viewBox="0 0 52.2 29.3" enable-background="new 0 0 52.2 29.3" xml:space="preserve">
<path fill="none" stroke="#C0C8D0" stroke-width="2" stroke-miterlimit="10" d="M2,1.6h47.8v25.1H31.9l-3-5.4
	c-0.7-1.1-1.8-1.7-3-1.7c-1.3,0-2.4,0.7-3,1.8l-3,5.4H2V1.6z"/>
<path fill="none" stroke="#C0C8D0" stroke-width="2" stroke-miterlimit="10" d="M9.4,14.1c0-2.8,2.3-5.1,5.1-5.1s5.1,2.3,5.1,5.1
	s-2.3,5.1-5.1,5.1C11.7,19.2,9.4,16.9,9.4,14.1z"/>
<path fill="none" stroke="#C0C8D0" stroke-width="2" stroke-miterlimit="10" d="M36.6,9.1c2.8,0,5.1,2.3,5.1,5.1s-2.3,5.1-5.1,5.1
	c-2.8,0-5.1-2.3-5.1-5.1S33.8,9.1,36.6,9.1z"/>
</svg>
