<?xml version="1.0" encoding="utf-8"?>
<!-- Generator: Adobe Illustrator 19.1.0, SVG Export Plug-In . SVG Version: 6.00 Build 0)  -->
<svg version="1.1" id="Layer_1" xmlns="http://www.w3.org/2000/svg" xmlns:xlink="http://www.w3.org/1999/xlink" x="0px" y="0px" viewBox="474 -484 980 1000" enable-background="new 474 -484 980 1000" xml:space="preserve">
	<circle fill="none" stroke="#FFFFFF" stroke-width="5" cx="981" cy="15.8" r="350.5"/>
	<path
		fill="#FFFFFF"
		d="M980.5-334C786.9-334,630-177.1,630,16.5S786.9,367,980.5,367S1331,210.1,1331,16.5S1174.1-334,980.5-334z
	 M1123.3-61.3c0,2.2,0,6.7,0,9c0,90.4-67.8,192.2-192.2,192.2c-38.4,0-74.6-9-104-29.4c6.8,0,9,0,15.8,0c31.7,0,58.8-9,83.7-27.1
	c-27.2,0-52.1-20.3-61.1-45.2c2.3,2.3,6.8,2.3,11.3,2.3c6.8,0,11.3,0,18.1-2.3c-29.4-6.8-54.3-33.9-54.3-65.6c6.8,4.5,18.1,9,29.4,9
	c-18.1-13.5-29.4-31.6-29.4-56.5c0-11.3,2.2-24.9,9-33.9C881.2-68.1,931-41,987.5-38.7c-2.3-6.8-2.3-9-2.3-15.8
	c0-38.4,29.4-67.8,67.8-67.8c20.3,0,38.4,9,49.7,22.6c15.9-2.2,29.4-6.8,43-15.8c-4.5,15.8-15.8,29.4-29.4,38.4
	c13.5,0,27.1-2.2,38.4-9C1148-74.8,1136.6-63.5,1123.3-61.3z"/>
</svg>
