<?xml version="1.0" encoding="utf-8"?>
<!-- Generator: Adobe Illustrator 21.1.0, SVG Export Plug-In . SVG Version: 6.00 Build 0)  -->
<svg version="1.1" id="Layer_1" xmlns="http://www.w3.org/2000/svg" xmlns:xlink="http://www.w3.org/1999/xlink" x="0px" y="0px"
	 viewBox="0 0 51 24.2" enable-background="new 0 0 51 24.2" xml:space="preserve">
<g>
	<rect fill="#0C2B57" width="51" height="24.2"/>
	<circle fill="#0C2B57" cx="12.6" cy="12.2" r="10.7"/>
	<path fill="#FFFFFF" d="M20.5,15.5L17,9.4c0.1,0,0.5-0.1,0.5-0.7c0-0.5-0.5-0.7-0.5-0.7V7.7h0.5V7.3h-0.5V6.7h-0.6v0.6h-3.7V7.2
		h-0.1V7.1h-0.2v0.1h-0.1v0.1H8.8V6.7H8.2v0.6H7.7v0.4h0.5V8c0,0-0.5,0.1-0.5,0.7c0,0.6,0.4,0.7,0.5,0.7l-3.4,6.1H4.7V16
		c0,0,0.3,1.4,1.2,1.4h2.5h2.5c1,0,1.2-1.4,1.2-1.4v-0.5H12l-3.6-6v0C9.1,9.3,9,8.5,9,8.5S8.9,8.9,8.5,8.9c-0.1,0-0.2-0.1-0.2-0.3
		c0,0-0.1-0.4,0.5-0.4V7.7h2.5c0,0-0.2,1.6,1.4,1.6h0c1.5,0,1.4-1.6,1.4-1.6h2.5v0.4c0.6,0,0.5,0.4,0.5,0.4c0,0.2-0.1,0.3-0.2,0.3
		c-0.4,0-0.5-0.4-0.5-0.4s-0.1,0.8,0.6,0.9v0l-3.6,6h-0.1V16c0,0,0.3,1.4,1.2,1.4h2.5h2.5c1,0,1.2-1.4,1.2-1.4L20.5,15.5L20.5,15.5z
		 M8.2,15.5H5l3.2-5.7V15.5z M11.8,15.5H8.4h0V9.7L11.8,15.5z M16.9,15.5L16.9,15.5h-3.4l3.4-5.7V15.5z M17.1,15.5V9.7l3.2,5.7H17.1
		z"/>
	<path fill="#0C2B57" d="M12.7,8.6L13.2,9c0.8-0.4,0.6-1.3,0.6-1.3h-0.5l-0.6,0.6h-0.1L12,7.7h-0.5c0,0-0.2,0.9,0.6,1.3l0.5-0.5
		H12.7z"/>
	<circle fill="#FFFFFF" cx="12.6" cy="6.4" r="0.7"/>
	<circle fill="#0C2B57" cx="12.6" cy="6.4" r="0.4"/>
</g>
<g>
	<g>
		<path fill="#FFFFFF" d="M26.8,6.5h2.7c2.1,0,3.4,0.7,3.4,2.4c0,1-0.5,1.9-1.6,2.2v0.1c1.4,0.3,1.9,1.2,1.9,2.5
			c0,1.8-1.1,2.9-3.5,2.9h-3V6.5z M29.7,10.7c1.5,0,2.2-0.6,2.2-1.7c0-1.2-0.9-1.5-2.4-1.5H28v3.2H29.7z M29.9,15.5
			c1.4,0,2.2-0.5,2.2-1.8c0-1.4-0.8-1.9-2.5-1.9H28v3.7H29.9z"/>
		<path fill="#FFFFFF" d="M35.2,6.5h1.3l3.2,5.8c0.5,0.9,0.9,1.7,1.1,2.2H41c0-0.4-0.1-1.9-0.1-3V6.5H42v10h-1.1l-3.4-6.1
			c-0.5-1-0.9-1.7-1.1-2.2h-0.1c0,0.4,0,2,0,3v5.2h-1.1V6.5z"/>
	</g>
</g>
</svg>
