<?xml version="1.0" encoding="utf-8"?>
<!-- Generator: Adobe Illustrator 21.1.0, SVG Export Plug-In . SVG Version: 6.00 Build 0)  -->
<svg version="1.1" id="Layer_1" xmlns="http://www.w3.org/2000/svg" xmlns:xlink="http://www.w3.org/1999/xlink" x="0px" y="0px"
	 viewBox="0 0 20 20" enable-background="new 0 0 20 20" xml:space="preserve">
<circle fill="#5A9DDC" cx="9.8" cy="10.1" r="8.7"/>
<g>
	<path fill="#FFFFFF" d="M9.2,13.9l-3.1-2.3l0.6-0.8L9,12.5l3.9-5.3l0.8,0.6L9.2,13.9z"/>
</g>
</svg>
