<?xml version="1.0" encoding="utf-8"?>
<!DOCTYPE svg PUBLIC "-//W3C//DTD SVG 1.1//EN" "http://www.w3.org/Graphics/SVG/1.1/DTD/svg11.dtd">
<svg version="1.1" id="Layer_1" xmlns="http://www.w3.org/2000/svg" xmlns:xlink="http://www.w3.org/1999/xlink" x="0px" y="0px"
	 viewBox="0 0 32.4 30.4" enable-background="new 0 0 32.4 30.4" xml:space="preserve">
<path fill="none" stroke="#FFFFFF" stroke-width="1.5" stroke-miterlimit="10" d="M10.2,20.3c0,0,10.9-11.1,11.3-11.5"/>
<path fill="none" stroke="#FFFFFF" stroke-width="1.5" stroke-miterlimit="10" d="M10.2,8.9C9.6,8.4,21.5,20.3,21.5,20.3"/>
<circle fill="none" stroke="#FFFFFF" stroke-miterlimit="10" cx="15.9" cy="14.6" r="13.3"/>
</svg>
