<?xml version="1.0" encoding="utf-8"?>
<!-- Generator: Adobe Illustrator 19.1.0, SVG Export Plug-In . SVG Version: 6.00 Build 0)  -->
<svg version="1.1" id="Layer_1" xmlns="http://www.w3.org/2000/svg" xmlns:xlink="http://www.w3.org/1999/xlink" x="0px" y="0px"
	 width="190px" height="190px" viewBox="53.3 3.8 190 190" enable-background="new 53.3 3.8 190 190" xml:space="preserve">
<linearGradient id="SVGID_1_" gradientUnits="userSpaceOnUse" x1="54.3333" y1="98.5833" x2="242.3333" y2="98.5833">
	<stop  offset="0" style="stop-color:#589EDA"/>
	<stop  offset="1" style="stop-color:#36B4BB"/>
</linearGradient>
<circle fill="url(#SVGID_1_)" cx="148.3" cy="98.6" r="94"/>
<path fill="#FFFFFF" d="M171.2,69.1v30.3L155.6,91v10.2L133.5,91v11l-23.9-11v40.6h72.7V69.1H171.2z M136.4,67.5l-0.5,0.4
	L136.4,67.5L136.4,67.5z M130.5,66.5l-0.5,0.4l0,0L130.5,66.5z"/>
<path fill="#FFFFFF" d="M167.4,62.8c2.3,0,4.3,1,5.7,2c0.7,0.5,1.3,1.1,1.7,1.4c0.2,0.2,0.3,0.3,0.4,0.5c0,0,0.1,0.1,0.1,0.1
	c0,0,0,0,0,0l0,0l0,0l0.4-0.3l2.9-2.2l0,0c-0.1-0.1-1.1-1.5-3-2.9c-1.9-1.4-4.7-2.9-8.2-2.9c-3.5,0-7.5,1.5-11.4,5.5l3,3
	C162.4,63.7,165.1,62.8,167.4,62.8z"/>
<path fill="#FFFFFF" d="M136.1,72.9c1.9,1.4,4.7,2.8,8.2,2.9h0.1c3.5,0,7.5-1.6,11.4-5.5l-3-3c-3.4,3.4-6.2,4.3-8.5,4.3
	c-2.3,0-4.2-1-5.7-2c-0.7-0.5-1.3-1.1-1.7-1.4c-0.2-0.2-0.3-0.4-0.4-0.5c0,0-0.1-0.1-0.1-0.1c0,0,0,0,0,0l-3.3,2.6
	C133.2,70.2,134.3,71.5,136.1,72.9z"/>
<path fill="#FFFFFF" d="M122.2,62.8c2.3,0,4.2,1,5.7,2c0.7,0.5,1.3,1.1,1.7,1.4c0.2,0.2,0.3,0.3,0.4,0.5c0.1,0,0.1,0.1,0.1,0.1
	c0,0,0,0,0,0l3.3-2.5v0c-0.1-0.1-1.1-1.5-3-2.9c-1.9-1.4-4.7-2.9-8.2-2.9c-3.5,0-7.5,1.5-11.4,5.5l3,3
	C117.1,63.7,119.9,62.8,122.2,62.8z"/>
</svg>
