<?xml version="1.0" encoding="utf-8"?>
<!-- Generator: Adobe Illustrator 19.1.0, SVG Export Plug-In . SVG Version: 6.00 Build 0)  -->
<svg version="1.1" id="Layer_1" xmlns="http://www.w3.org/2000/svg" xmlns:xlink="http://www.w3.org/1999/xlink" x="0px" y="0px"
	 width="190px" height="190px" viewBox="53.3 3.8 190 190" enable-background="new 53.3 3.8 190 190" xml:space="preserve">
<linearGradient id="SVGID_1_" gradientUnits="userSpaceOnUse" x1="54.1667" y1="98.75" x2="242.5" y2="98.75">
	<stop  offset="0" style="stop-color:#589EDA"/>
	<stop  offset="1" style="stop-color:#36B4BB"/>
</linearGradient>
<circle fill="url(#SVGID_1_)" cx="148.3" cy="98.8" r="94.2"/>
<g>
	<g>
		<g>
			<g>
				<g>
					<circle fill="#FFFFFF" cx="165" cy="72.1" r="6.2"/>
					<circle fill="#FFFFFF" cx="140" cy="72.9" r="5.4"/>
					<path fill="#FFFFFF" d="M177.5,105.8l-2.5,1.7l-2.5-1.7V81.2c0,0,4.6,1.7,5,6.2V105.8z"/>
					<path fill="#FFFFFF" d="M152.5,87.5c0.4-4.6,5-6.2,5-6.2v24.6l-2.5,1.7l-2.5-1.7V87.5z"/>
					<path fill="#FFFFFF" d="M158.3,81.2v50.8h6.2v-23.3h0.8v23.3h5.8V81.2H158.3z"/>
					<path fill="#FFFFFF" d="M130.4,94.6v-7.1c0,0,0-4.6,3.3-6.2v14.6l-6.2,10.8h-2.1l-0.4-2.5L130.4,94.6z"/>
					<path fill="#FFFFFF" d="M155,103.7l-0.4,2.5h-2.1l-5.8-10.4V81.7c3.3,2.1,3.3,6.2,3.3,6.2V95L155,103.7z"/>
					<path fill="#FFFFFF" d="M135,81.2v14.6l-9.2,15.4v7.1h10v13.7h4.2v-13.7h0.8v13.7h4.2v-13.7h10v-7.1l-9.6-15.4v-15H135V81.2z"
						/>
				</g>
			</g>
		</g>
	</g>
</g>
<g>
	<path fill="#2596B4" d="M115.4,97.5"/>
</g>
<g>
	<g>
		<polygon fill="#FFFFFF" points="105.8,99.6 104.6,100.4 105.8,101.7 105.8,102.9 107.1,102.5 106.2,101.2 		"/>
		<path fill="#FFFFFF" d="M121.7,101.2l-3.3-3.3c-0.4-1.7-2.1-2.9-3.7-2.9c-2.1,0-3.3,1.2-3.8,2.9l-3.3,3.3l3.8-0.8
			c0.4,1.7,2.1,2.5,3.8,2.5c1.7,0,3.3-1.2,3.7-2.5L121.7,101.2z"/>
		<polygon fill="#FFFFFF" points="122.5,99.6 122.1,101.2 121.2,102.5 122.5,102.9 122.5,101.7 123.8,100.4 		"/>
	</g>
	<polyline fill="#FFFFFF" points="118.8,109.2 120,123.8 118.8,123.8 116.2,130.8 114.6,130.8 115.4,123.8 113.8,123.8 	"/>
	<path fill="#FFFFFF" d="M114.6,123.8h-1.7l0.8,7.1h-1.7l-2.9-7.1h-1.2l1.7-14.6l-4.2,6.7l-1.7-0.8l4.6-9.6c0,0,0.8-1.7,3.3-1.7
		l2.5,1.2h2.5h3.3"/>
	<polyline fill="#FFFFFF" points="117.9,110 127.5,106.2 127.1,104.2 120,105 	"/>
	<polyline fill="#FFFFFF" points="118.8,123.8 116.2,130.8 114.6,130.8 115.4,123.8 	"/>
	<polyline fill="#FFFFFF" points="112.9,123.8 113.8,130.8 111.7,130.8 109.2,123.8 	"/>
</g>
</svg>
