id,station,description,video,video_i,f_image,lat,long
kl,Kuala Lumpur,"The Malaysian capital, filled with skyscrapers, is known for its night markets, authentic hawker fare such as Hokkien mee, as well as trendy cafes and bars.",http://www.straitstimes.com/embed/5061604842001,<iframe src='//players.brightcove.net/4800266888001/default_default/index.html?videoId=5061604842001' allowfullscreen frameborder=0></iframe>,0,3.066521,101.697316
pu,Putrajaya,"Roughly a 40-minute drive south of Kuala Lumpur, Putrajaya was built as the government's administration centre, with Islamic architecture outlining the town's landscape.",http://www.straitstimes.com/embed/5061428426001,<iframe src='//players.brightcove.net/4800266888001/default_default/index.html?videoId=5061428426001' allowfullscreen frameborder=0></iframe>,0,2.850981,101.716381
se,Seremban,"The capital of Negeri Sembilan is just a 70km drive from Kuala Lumpur.  The town has become busier in recent years, but many of the famous old spots are still alive and vibrant. ",http://www.straitstimes.com/embed/5061493655001,<iframe src='//players.brightcove.net/4800266888001/default_default/index.html?videoId=5061493655001' allowfullscreen frameborder=0></iframe>,0,2.719581,101.821958
ak,Ayer Keroh,"The sleepy backwater on the outskirts of Malacca has a rustic charm. There are also attractions such as a zoo, planetarium and several theme parks to occupy visitors for a few days.",http://www.straitstimes.com/embed/5061521027001,<iframe src='//players.brightcove.net/4800266888001/default_default/index.html?videoId=5061521027001' allowfullscreen frameborder=0></iframe>,0,2.29249,102.302378
mu,Muar,"This food heaven in the state of Johor is famous for its otah, oyster omelette, mee bandung Muar (noodles in gravy made with prawn and chillies) and Elephant bean coffee. ",http://www.straitstimes.com/embed/5061620612001,<iframe src='//players.brightcove.net/4800266888001/default_default/index.html?videoId=5061620612001' allowfullscreen frameborder=0></iframe>,0,2.156174,102.706841
bp,Batu Pahat,"Located in the state of Johor, its name means ""chiselled rock"" in Malay. It is a bustling place with wet and night markets, a waterfront temple and several malls and hypermarkets.",http://www.straitstimes.com/embed/5061604840001,<iframe src='//players.brightcove.net/4800266888001/default_default/index.html?videoId=5061604840001' allowfullscreen frameborder=0></iframe>,0,1.855603,103.012405
ip,Iskandar Puteri,"Formerly called Nusajaya, it is the administrative centre of the state of Johor. Tourists can have fun at the theme parks here, as well as take in beautiful views at its harbour. ",http://www.straitstimes.com/embed/5061623295001,<iframe src='//players.brightcove.net/4800266888001/default_default/index.html?videoId=5061623295001' allowfullscreen frameborder=0></iframe>,0,1.414521,103.560693
sg,Singapore,Singapore's only station on the high-speed rail line is planned to be built where Jurong Country Club is.,images/KL-SG/pixjcc.jpg,images/KL-SG/pixjcc.jpg,1,1.33108,103.71346