<svg version="1.1" xmlns="http://www.w3.org/2000/svg" xmlns:xlink="http://www.w3.org/1999/xlink" x="0px" y="0px"
	 width="600px" height="600px" viewBox="0 0 600 600" enable-background="new 0 0 600 600" xml:space="preserve">
<circle opacity="0.85" fill="none" stroke="#FFFFFF" stroke-width="1.5" stroke-miterlimit="10" enable-background="new    " cx="299.9" cy="302.6" r="279.2"/>
<circle fill="#6D9AC6" stroke="#FFFFFF" stroke-miterlimit="10" cx="579" cy="297.4" r="3.9"/>
<circle fill="#6D9AC6" stroke="#FFFFFF" stroke-miterlimit="10" cx="20.8" cy="297.4" r="3.9"/>
<circle fill="#6D9AC6" stroke="#FFFFFF" stroke-miterlimit="10" cx="299.9" cy="581.8" r="3.9"/>
<path opacity="0.15" fill="none" stroke="#FFFFFF" stroke-miterlimit="10" enable-background="new    " d="M301.9,581.8
	c0,0,22.7-28.3,93.9-30.7S497.3,544,519.4,510c22.2-34,14.6-86.8,37.3-115.6s42-44.4,39.2-79.8s-11.8-100.5-30.2-115.1
	s-68-79.3-74.1-112.3S462.8,34.3,416.1,23S295.2,46.2,261.3,49.5c-34,3.3-112.8-9-147.7,12.3s-34.9,79.8-54.3,96.7
	s-42.9,89.7-42.5,145.8s10.9,136.9,34.9,169.4s67,84,131.7,105.7C248.1,601.2,283,601.2,301.9,581.8z"/>
<path opacity="0.25" fill="none" stroke="#FFFFFF" stroke-miterlimit="10" enable-background="new    " d="M301.9,583.2
	c0,0,81.6,7.6,137.8-52.9c56.2-60.4,93.4-56.2,110-71.7c16.5-15.6,31.1-78.8,19.3-123.2s0-131.2-6.1-165.2s-13.7-67-68-76.9
	S386.8,56.1,354.7,29.2S280.1-1,232,16s-65.6,33-90.6,65.1s-71.3,33-100.5,72.2S3.1,274.6,20.6,314.2s37.8,85.9,42.9,119.4
	S118.8,603.5,301.9,583.2z"/>
<circle fill="#6D9AC6" stroke="#FFFFFF" stroke-miterlimit="10" cx="299.9" cy="23.4" r="3.9"/>
</svg>
