<svg version="1.1" xmlns="http://www.w3.org/2000/svg" xmlns:xlink="http://www.w3.org/1999/xlink" x="0px" y="0px" width="320px" height="238.6px" viewBox="10 -19.6 320 238.6" enable-background="new 10 -19.6 320 238.6" xml:space="preserve">
	<g class="base-temperatures bt-320">
		<image overflow="visible" enable-background="new    " width="2400" height="1189" xlink:href="images/underwater/temperatures-map-2400px.jpg" transform="matrix(0.1337 0 0 0.1337 9.6172 -20.473)"></image>
	</g>
	<g class="key">
		<rect x="34.7" y="134.4" fill="#FFFFFF" width="271.3" height="74.3"/>
		<linearGradient id="SVGID_1_320" gradientUnits="userSpaceOnUse" x1="56.6" y1="210.3333" x2="288.4" y2="210.3333" gradientTransform="matrix(1 0 0 1 0 -37.3333)">
			<stop offset="1.841518e-02" style="stop-color:#083874"/>
			<stop offset="0.1993" style="stop-color:#2B5B9D"/>
			<stop offset="0.3907" style="stop-color:#8BABDC"/>
			<stop offset="0.4885" style="stop-color:#F2F2F2"/>
			<stop offset="0.5573" style="stop-color:#FCF3C3"/>
			<stop offset="0.6477" style="stop-color:#FFF065"/>
			<stop offset="0.8096" style="stop-color:#F2A930"/>
			<stop offset="1" style="stop-color:#BA0800"/>
		</linearGradient>
		<rect x="56.6" y="167.6" fill="url(#SVGID_1_320)" width="231.8" height="10.8"/>
		<text transform="matrix(1 0 0 1 57.3331 158.4187)" fill="#333333" font-family="'Curator Regular'" font-size="15px">22-year Sea Surface Height change</text>
		<text transform="matrix(1 0 0 1 44.8333 198.3357)" fill="#333333" font-family="'Curator Regular'" font-size="15px">-7.0</text>
		<text transform="matrix(1 0 0 1 154.5834 198.3357)" fill="#333333" font-family="'Curator Regular'" font-size="15px">0 cm
		</text>
		<text transform="matrix(1 0 0 1 263.8334 198.3357)" fill="#333333" font-family="'Curator Regular'" font-size="15px">+7.0</text>
	</g>
	<g class="zoom-asia" opacity="0">
		<image display="inline" overflow="visible" enable-background="new    " width="1494" height="740" xlink:href="images/underwater/temperatures-map-asia.jpg" transform="matrix(0.3798 0 0 0.3798 -165.6965 -51.9829)"></image>
	</g>

	<g class="satellite" opacity="0">
		<image display="inline" overflow="visible" enable-background="new    " width="1200" height="593" xlink:href="images/underwater/temperatures-map-asia-satellite.jpg" transform="matrix(0.4729 0 0 0.4729 -165.6965 -51.9829)"></image>
		<g display="inline" opacity="0.6">
			<text transform="matrix(1 0 0 1 157.3833 202.618)" fill="#FFFFFF" font-family="'Curator Regular'" font-size="10px">AUSTRALIA</text>
		</g>
		<g display="inline" opacity="0.6">
			<text transform="matrix(1 0 0 1 69.7802 157.1219)" fill="#FFFFFF" font-family="'Curator Regular'" font-size="10px">INDONESIA</text>
		</g>
		
		<g display="inline" opacity="0.6">
			<text transform="matrix(1 0 0 1 111.0327 73.991)" fill="#FFFFFF" font-family="'Curator Regular'" font-size="10px">PHILIPPINES</text>
		</g>
		<g display="inline" opacity="0.6">
			<text transform="matrix(1 0 0 1 17.8149 129.4774)" fill="#FFFFFF" font-family="'Curator Regular'" font-size="10px">MALAYSIA</text>
		</g>
		<g display="inline" opacity="0.6">
			<text transform="matrix(1 0 0 1 -77.1289 42.1492)" fill="#FFFFFF" font-family="'Curator Regular'" font-size="7.0934px">INDIA</text>
		</g>
		<g display="inline" opacity="0.6">
			<text transform="matrix(1 0 0 1 85.8921 -4.1945)" fill="#FFFFFF" font-family="'Curator Regular'" font-size="7.0934px">CHINA</text>
		</g>
	</g>
	<g class="salomon" opacity="0">
		<circle display="inline" fill="none" stroke="#FFFFFF" stroke-width="0.9458" cx="311.4" cy="162.6" r="7.7"/>
		<text transform="matrix(1 0 0 1 199.4739 166.3924)" display="inline" fill="#FFFFFF" font-family="'Curator Regular'" font-size="12px">SOLOMON ISLANDS</text>
	</g>
	<g class="thailand" opacity="0">
		<circle display="inline" fill="none" stroke="#FFFFFF" stroke-width="0.9458" cx="37.2" cy="64.3" r="7.7"/>
		<text transform="matrix(1 0 0 1 13.0488 83.1873)" fill="#FFFFFF" font-family="'Curator Regular'" font-size="12px">THAILAND</text>
	</g>
	<g class="vietnam" opacity="0">
		<circle display="inline" fill="none" stroke="#FFFFFF" stroke-width="0.9458" cx="73.7" cy="55.1" r="7.7"/>
		<text transform="matrix(1 0 0 1 53.2739 42.7801)" fill="#FFFFFF" font-family="'Curator Regular'" font-size="12px">VIETNAM</text>
	</g>
</svg>
