<svg version="1.1" xmlns="http://www.w3.org/2000/svg" xmlns:xlink="http://www.w3.org/1999/xlink" x="0px" y="0px" width="700px" height="400px" viewBox="0 0 700 400" enable-background="new 0 0 700 400" xml:space="preserve"><circle fill="none" stroke="#FCD9D3" stroke-width="6" stroke-miterlimit="10" cx="78.2" cy="85.9" r="71.3"/><circle fill="none" stroke="#EF4123" stroke-miterlimit="10" cx="78.2" cy="85.9" r="71.3"/><path fill="#5A9DDC" d="M608.9,400.8c-48.3-82.7-138.1-138.2-240.7-138.2c-102.9,0-192.8,55.8-241.1,138.8"/>

    <g class="animate-screen-1">
        <text opacity="0"  class="animate-fade-in-screen-1" transform="matrix(1 0 0 1 162.8545 30.2)">
            <tspan x="0" y="0" fill="#333333" font-family="'Curator Regular'" font-size="17px">Sunlight passes through
            </tspan>
            <tspan x="0" y="27" fill="#333333" font-family="'Curator Regular'" font-size="17px">the atmosphere and warms
            </tspan>
            <tspan x="0" y="54" fill="#333333" font-family="'Curator Regular'" font-size="17px">the Earth’s surface. This heat
            </tspan>
            <tspan x="0" y="81" fill="#333333" font-family="'Curator Regular'" font-size="17px">is radiated back towards space</tspan>
        </text><path opacity="0"  class="animate-path-screen-1" fill="none" stroke="#BFBFBF" stroke-width="2" stroke-miterlimit="10" d="M85.5,172.5l110.7,144l-117-52.9			c0,0-0.9-0.1-1.1,0.2"/>
        <polygon opacity="0"  class="animate-fade-in-screen-1" fill="#BFBFBF" points="90.5,257.9 91.3,260.2 80.1,264 84.6,274.9 82.4,275.8 76.9,262.5 			"/><path opacity="0"  class="animate-path-screen-1" fill="none" stroke="#BFBFBF" stroke-width="2" stroke-miterlimit="10" d="M107.9,165.4l106,137.5L95.7,241.1			c0,0-0.9-0.5-1.2-0.2"/>
        <polygon opacity="0"  class="animate-fade-in-screen-1" fill="#BFBFBF" points="107.3,236.1 107.9,238.4 96.5,241.5 100.4,252.7 98.2,253.5 93.4,239.9 			"/><path opacity="0"  class="animate-path-screen-1" fill="none" stroke="#BFBFBF" stroke-width="2" stroke-miterlimit="10" d="M129.4,148.4l106,142l10.1-71.4			c0,0,0.1-0.9,0.3-0.9"/>
        <polygon opacity="0"  class="animate-fade-in-screen-1" fill="#BFBFBF" points="254.1,228.2 252.1,229.6 245.4,219.9 236.2,227.3 234.7,225.4 245.9,216.4 			"/><path opacity="0"  class="animate-path-screen-1" fill="none" stroke="#BFBFBF" stroke-width="2" stroke-miterlimit="10" d="M150.9,133.9l109.5,146l9.6-65.4			c0,0,0.1-0.9,0.4-1.1"/>
        <polygon opacity="0"  class="animate-fade-in-screen-1" fill="#BFBFBF" points="278.5,223.7 276.6,225.1 269.8,215.4 260.6,222.8 259.1,220.9 270.4,211.9 			"/></g>
        <g class="animate-screen-2">
            <text opacity="0"  class="animate-fade-in-screen-2" transform="matrix(1 0 0 1 484.3538 51.8666)">
                <tspan x="0" y="0" fill="#333333" font-family="'Curator Regular'" font-size="17px">Most of the outgoing heat is
                </tspan>
                <tspan x="0" y="27" fill="#333333" font-family="'Curator Regular'" font-size="17px">absorbed by greenhouse gas
                </tspan>
                <tspan x="0" y="54" fill="#333333" font-family="'Curator Regular'" font-size="17px">molecules and re-emitted</tspan>
                <tspan x="0" y="81" fill="#333333" font-family="'Curator Regular'" font-size="17px">in all directions, warming the
                </tspan>
                <tspan x="0" y="108" fill="#333333" font-family="'Curator Regular'" font-size="17px">surface of the Earth and the
                </tspan>
                <tspan x="0" y="135" fill="#333333" font-family="'Curator Regular'" font-size="17px">lower atmosphere</tspan>
            </text><path opacity="0"  class="animate-path-screen-2" fill="none" stroke="#BFBFBF" stroke-width="2" stroke-miterlimit="10" d="M482.6,200.9l-11.9,67.8c0,0-0.1,0.8-0.1,1.1"/>
            <polygon opacity="0"  class="animate-fade-in-screen-2" fill="#BFBFBF" points="479.9,263.6 478.7,262 470.9,268 465.5,259.7 463.8,260.8 470.4,270.9 			"/><path opacity="0"  class="animate-path-screen-2" fill="none" stroke="#BFBFBF" stroke-width="2" stroke-miterlimit="10" d="M525,214.8l-27.6,64.6c0,0-0.5,1.3-0.5,1.7"/>
            <polygon opacity="0"  class="animate-fade-in-screen-2" fill="#BFBFBF" points="507.6,276.6 506.8,274.7 497.8,278.7 494.4,269.5 492.5,270.1 496.6,281.4 			"/><path opacity="0"  class="animate-path-screen-2" fill="none" stroke="#BFBFBF" stroke-width="2" stroke-miterlimit="10" d="M563.2,238.8l-44.2,55.3c0,0-0.6,0.5-0.6,1.2"/>
            <polygon opacity="0"  class="animate-fade-in-screen-2" fill="#BFBFBF" points="529.6,294.1 529.3,292.1 519.5,293.5 518.8,283.7 516.8,283.9 517.7,295.8 			"/></g>
</svg>
