<?xml version="1.0" encoding="utf-8"?>
<!-- Generator: Adobe Illustrator 19.1.0, SVG Export Plug-In . SVG Version: 6.00 Build 0)  -->
<svg version="1.1" id="Layer_1" xmlns="http://www.w3.org/2000/svg" xmlns:xlink="http://www.w3.org/1999/xlink" x="0px" y="0px"
	 width="598px" height="50.4px" viewBox="4 -13.4 598 50.4" enable-background="new 4 -13.4 598 50.4" xml:space="preserve">
<g>
	<path fill="#FFFFFF" d="M48,9.5l-0.2-0.2L41,9.8v0.5c2,0.2,3.5,0.8,3.5,4.4v18.6h3.5V15.4C47.7,13.6,47.9,11.6,48,9.5z"/>
	<path fill="#FFFFFF" d="M48.2-3.4c0-1.4-0.9-2.4-2.4-2.4s-2.5,1.1-2.5,2.4c0,1.4,0.9,2.5,2.5,2.5C47.3-0.9,48.2-2,48.2-3.4z"/>
	<path fill="#FFFFFF" d="M72.1,8.6c-5.4,0-8.7,2.8-10.4,7.6h-0.2c0-1.1,0-4.4,0.2-6.6l-0.2-0.2l-6.9,0.5v0.5c2,0.2,3.5,0.6,3.5,4.4
		v18.6h3.5V17.7c0.8-3.1,4.3-6.6,9.1-6.6c5.2,0,8.2,2.5,8.2,8.5v13.5h3.5V19C82.5,11.6,78.3,8.6,72.1,8.6z"/>
	<path fill="#FFFFFF" d="M132,8.6c-6,0-9.6,3.3-10.4,8.2h0.8c0.6-2.2,3-5.8,8.8-5.8c4.6,0,7.9,2.2,7.9,8.7v3.5
		c-5.4,0.2-10.5,0.6-13.5,1.9c-3.9,1.4-5.7,4.3-5.7,7.9c0,0.2,0,0.3,0,0.5h3.6c0-0.5-0.2-0.8-0.2-1.3c0-2.8,1.3-5,4.7-6.5
		c2.4-0.9,6.1-1.3,11-1.4v9.1h3.5V18.8C142.7,11.3,138.4,8.6,132,8.6z"/>
	<path fill="#FFFFFF" d="M465.4,16.3c-0.8-2.2-1.1-3.3-1.1-4.1c0-1.6,1.3-1.9,2.5-1.9V9.8h-9.4v0.3c1.6,0.2,2.7,0.9,3.3,2.8l0.9,2.7
		l-7.1,17.5h1.7l6.3-15.1l5.7,15.1h3.8L465.4,16.3z"/>
	<path fill="#FFFFFF" d="M379.6-7.3l-0.2-0.2l-7.2,0.3v0.5c2.4,0,3.8,0.6,3.8,3.9v13.7c-2.2-1.6-5.7-2.2-8.3-2.2
		c-10.1,0-15.4,7.2-15.4,17.2c0,2.8,0.5,5.4,1.4,7.4h4.4c-1.4-2.4-2-5.5-2-8.5c0-9.6,5.2-14.8,11.3-14.8c3.9,0,7.4,1.7,8.7,5.2v16.7
		c-0.2,0.5-0.3,0.9-0.6,1.6h4.1V-1C379.5-2.3,379.5-5.1,379.6-7.3z"/>
	<path fill="#FFFFFF" d="M498.2,8.6c-6,0-9.6,3.3-10.4,8.2h0.8c0.6-2.2,3-5.8,8.8-5.8c4.6,0,7.9,2.2,7.9,8.7v3.5
		c-5.4,0.2-10.5,0.6-13.5,1.9c-3.9,1.4-5.7,4.3-5.7,7.9c0,0.2,0,0.3,0,0.5h3.6c0-0.5-0.2-0.8-0.2-1.3c0-2.8,1.3-5,4.7-6.5
		c2.4-0.9,6.1-1.3,11-1.4v9.1h3.5V18.8C508.7,11.3,504.6,8.6,498.2,8.6z"/>
	<path fill="#FFFFFF" d="M97,28.6c1.6,0.5,3.3,0.6,5.2,0.6c6.8,0,11.8-4.3,11.8-10.7c0-2.4-0.8-4.9-3-6.9c0-0.2,0.2-0.3,0.5-0.5
		c0.8-0.5,1.9-0.5,2.7-0.5c0.8,0,1.9,0.2,2.7,0.5h0.3c0.2-0.3,0.3-0.8,0.3-1.3c0-1.6-1.3-2.2-2.7-2.2c-1.6,0-3.1,0.9-4.3,3.8
		c-1.7-1.6-4.9-2.8-8.5-2.8c-6.3,0-12,3.9-12,10.5c0,4.4,2.4,7.6,6,9.1l0,0c-3,0.6-5.7,2-6.1,4.9h2.8c0-0.2,0-0.3,0-0.6
		C92.9,30.8,94.5,29.2,97,28.6z M94,18.8c0-6.3,3.8-9.1,8.2-9.1c4.4,0,8,2.8,8,9.1s-3.5,9.1-8,9.1C97.8,27.9,94,25.1,94,18.8z"/>
	<path fill="#FFFFFF" d="M310.7,9.5L310.7,9.5l-7.1,0.3v0.5c2,0.2,3.5,0.8,3.5,4.4v17c-0.2,0.5-0.3,1.1-0.6,1.6h4.1V15
		C310.5,14.1,310.7,11.6,310.7,9.5z"/>
	<path fill="#FFFFFF" d="M7.4,31.4H6.6v1.9h1.3C7.7,32.7,7.6,32,7.4,31.4z"/>
	<path fill="#FFFFFF" d="M211.2,33.3c1.4-2.5,2.2-5.5,2.2-8.8c0-9.9-5.4-15.7-14.3-15.7c-8.8,0-14.6,7.1-14.6,16.4
		c0,3.1,0.6,6,1.6,8.3h3.8c-0.9-2.4-1.6-5.2-1.6-8.3c0-9,4.4-15,10.4-15c7.4,0,10.7,6.1,10.7,14.5c0,3.5-0.6,6.3-1.7,8.8h3.6V33.3z"
		/>
	<path fill="#FFFFFF" d="M34.2,33.3c0.9-1.7,1.4-3.8,1.4-6c0-8-5.4-11-12.8-13.4c-7.2-2.2-12.3-4.1-12.3-10.5
		c0-6.8,5.5-9.8,11.3-9.8c6.3,0,10.5,2.4,11.2,7.2h0.6l-0.2-3.9v-2.4C31.2-6.7,27.3-8,22.1-8c-8.3,0-15,4.6-15,12.8
		c0,8.5,6.6,10.7,13.5,12.8c7.2,2.2,11.2,5.2,11.2,11c0,1.7-0.3,3.3-0.9,4.7H34.2z"/>
	<path fill="#FFFFFF" d="M486.4,10.2V9.5h-8.7v0.6c1.7,0.2,2.8,0.8,2.8,2.4c0,1.3-0.8,3.3-1.9,6.3L473,33.3h1.7l8.2-20.3
		C483.7,10.9,485.1,10.3,486.4,10.2z"/>
	<path fill="#FFFFFF" d="M432.1,11.9c1.6,0,3,0.3,3.9,0.5h0.3c0.2-0.3,0.2-0.6,0.2-1.1c0-1.7-1.9-2.4-3.9-2.4
		c-3.8,0-7.1,2.4-8.7,7.7h-0.2c0-1.4,0-4.7,0.2-6.9l-0.2-0.2l-6.9,0.5v0.5c2,0.2,3.5,0.6,3.5,4.4v18.6h3.5V18
		C425,13.8,428.3,11.9,432.1,11.9z"/>
	<path fill="#FFFFFF" d="M446.7,16.3c-0.8-2.2-1.1-3.3-1.1-4.3c0-1.4,1.3-1.7,2.5-1.9V9.7h-9.6v0.5c1.6,0.2,2.5,1.1,3.3,2.8
		l7.4,20.2h3.8L446.7,16.3z"/>
	<path fill="#FFFFFF" d="M522.3,32V11.6h11l0.3-1.9h-11.3V2.4h-0.6c-0.9,5.7-2.7,7.9-6.9,8.5v0.5h4.1v21.4c0,0.2,0,0.2,0,0.3h3.6
		C522.3,32.8,522.3,32.5,522.3,32z"/>
	<path fill="#FFFFFF" d="M539.6,24.6c0-0.5,0-1.4,0-2h21.6l0.2-0.3c0-9.3-4.9-13.7-11.8-13.7c-7.6,0-13.9,6-13.9,16.8
		c0,3,0.5,5.7,1.6,7.9h4.4C540.2,30.9,539.6,28.1,539.6,24.6z M542,14.4c1.7-2.8,4.4-4.6,7.6-4.6c5.5,0,8,4.3,8,9.6v1.3
		c-1.3,0.3-3.5,0.5-11.2,0.5h-6.6C540.1,18.5,540.9,16.3,542,14.4z"/>
	<path fill="#FFFFFF" d="M177.2,33.3c1.4-2.7,2.2-6,2.2-9.6c0-8.7-4.7-15-13.1-15c-4.9,0-8.7,2.5-10.5,7.4h-0.2c0-0.3,0-4.3,0.2-6.5
		l-0.2-0.2l-6.8,0.5v0.5c2,0.2,3.3,0.6,3.3,4.4v18.6h3.5V17.9c0.8-3.1,4.3-6.5,9.1-6.5c7.7,0,10.7,6.8,10.7,13.4
		c0,3.5-0.6,6.5-1.9,8.8h3.6V33.3z"/>
	<path fill="#FFFFFF" d="M581.8,8.7c-3.8,0-7.1,2.4-8.7,7.7H573c0-1.4,0-4.7,0.2-6.9L573,9.4L566,9.8v0.5c2,0.2,3.5,0.6,3.5,4.4
		v18.6h3.5V17.9c1.3-4.1,4.6-6,8.3-6c1.6,0,3,0.3,3.9,0.5h0.3c0.2-0.3,0.2-0.6,0.2-1.1C585.6,9.5,583.7,8.7,581.8,8.7z"/>
	<path fill="#FFFFFF" d="M242.3,24.6c0-0.5,0-1.4,0-2h21.6l0.2-0.3c0-9.3-4.9-13.7-11.8-13.7c-7.6,0-13.9,6-13.9,16.8
		c0,3,0.5,5.7,1.6,7.9h4.4C243,30.9,242.3,28.1,242.3,24.6z M244.7,14.4c1.7-2.8,4.4-4.6,7.6-4.6c5.5,0,8,4.3,8,9.6v1.3
		c-1.3,0.3-3.5,0.5-11.2,0.5h-6.6C242.8,18.5,243.6,16.3,244.7,14.4z"/>
	<path fill="#FFFFFF" d="M233,11.9c1.6,0,3,0.3,3.9,0.5h0.3c0.2-0.3,0.2-0.6,0.2-1.1c0-1.7-1.9-2.4-3.9-2.4c-3.8,0-7.1,2.4-8.7,7.7
		h-0.2c0-1.4,0-4.7,0.2-6.9l-0.2-0.2l-6.9,0.5v0.5c2,0.2,3.5,0.6,3.5,4.4v18.6h3.5V18C226.1,13.8,229.3,11.9,233,11.9z"/>
	<path fill="#FFFFFF" d="M334.9,8.6c-5.4,0-8.7,2.8-10.4,7.6h-0.2c0-1.1,0-4.4,0.2-6.6l-0.2-0.2l-6.9,0.5v0.5c2,0.2,3.5,0.6,3.5,4.4
		v18.6h3.5V17.7c0.8-3.1,4.3-6.6,9.1-6.6c5.2,0,8.2,2.5,8.2,8.5v13.5h3.5V19C345.3,11.6,341.1,8.6,334.9,8.6z"/>
	<path fill="#FFFFFF" d="M289.9,29.4V15c0-0.9,0-3.6,0.2-5.7l-0.2-0.2L283,9.7v0.5c2,0.2,3.3,0.8,3.3,4.4V30c0,1.1,0.2,2.2,0.3,3.1
		h3.8C290,32.2,289.9,30.9,289.9,29.4z"/>
	<path fill="#FFFFFF" d="M390.3,24.6c0-0.5,0-1.4,0-2h21.6l0.2-0.3c0-9.3-4.9-13.7-11.8-13.7c-7.6,0-13.9,6-13.9,16.8
		c0,3,0.5,5.7,1.6,7.9h4.4C391.1,30.9,390.3,28.1,390.3,24.6z M392.9,14.4c1.7-2.8,4.4-4.6,7.6-4.6c5.5,0,8,4.3,8,9.6v1.3
		c-1.3,0.3-3.5,0.5-11.2,0.5h-6.6C391,18.5,391.6,16.3,392.9,14.4z"/>
</g>
<line fill="none" stroke="#36B4BB" stroke-width="1.5745" stroke-miterlimit="10" x1="5.9" y1="33.6" x2="590.8" y2="33.6"/>
</svg>
