<svg version="1.1" xmlns="http://www.w3.org/2000/svg" xmlns:xlink="http://www.w3.org/1999/xlink" x="0px" y="0px" width="200px" height="381px" viewBox="0 0 200 381" enable-background="new 0 0 200 381" xml:space="preserve">
  <rect y="0.4" fill="#EFF3F4" width="199.5" height="380.6"/>
    <rect x="10.7" y="17" fill="none" width="197.7" height="80.3"/>
    <text transform="matrix(1 0 0 1 10.6667 29.2585)">
        <tspan x="0" y="0" fill="#333333" font-family="'Curator Bold'" font-size="17px">RCP6.0</tspan>
        <tspan x="0" y="27" fill="#333333" font-family="'Curator Regular'" font-size="17px">If levels peak in 2080,
        </tspan>
        <tspan x="0" y="54" fill="#333333" font-family="'Curator Regular'" font-size="17px">and then decline.</tspan>
    </text>
    <text transform="matrix(1 0 0 1 10.7881 353.4993)" fill="#8F8F8F" font-family="'Curator Regular'" font-size="15px">0.0</text>
    <text transform="matrix(1 0 0 1 10.7881 306.967)" fill="#8F8F8F" font-family="'Curator Regular'" font-size="15px">0.2</text>
    <text transform="matrix(1 0 0 1 10.7881 260.4338)" fill="#8F8F8F" font-family="'Curator Regular'" font-size="15px">0.4</text>
    <text transform="matrix(1 0 0 1 10.7881 213.9006)" fill="#8F8F8F" font-family="'Curator Regular'" font-size="15px">0.6</text>
    <text transform="matrix(1 0 0 1 10.7881 167.3684)" fill="#8F8F8F" font-family="'Curator Regular'" font-size="15px">0.8</text>
    <text transform="matrix(1 0 0 1 10.7881 120.8352)" fill="#8F8F8F" font-family="'Curator Regular'" font-size="15px">1.0 m</text>
    <line fill="none" stroke="#C7C7C7" stroke-miterlimit="10" x1="38" y1="353.5" x2="183" y2="353.5"/>
    <line fill="none" stroke="#C7C7C7" stroke-miterlimit="10" x1="38" y1="306.5" x2="38" y2="306.5"/>
    <line fill="none" stroke="#C7C7C7" stroke-miterlimit="10" stroke-dasharray="1,2" x1="40" y1="306.5" x2="181" y2="306.5"/>
    <line fill="none" stroke="#C7C7C7" stroke-miterlimit="10" x1="182" y1="306.5" x2="183" y2="306.5"/>
    <line fill="none" stroke="#C7C7C7" stroke-miterlimit="10" x1="38" y1="260.5" x2="38" y2="260.5"/>
    <line fill="none" stroke="#C7C7C7" stroke-miterlimit="10" stroke-dasharray="1,2" x1="40" y1="260.5" x2="181" y2="260.5"/>
    <line fill="none" stroke="#C7C7C7" stroke-miterlimit="10" x1="182" y1="260.5" x2="183" y2="260.5"/>
    <line fill="none" stroke="#C7C7C7" stroke-miterlimit="10" x1="38" y1="213.5" x2="38" y2="213.5"/>
    <line fill="none" stroke="#C7C7C7" stroke-miterlimit="10" stroke-dasharray="1,2" x1="40" y1="213.5" x2="181" y2="213.5"/>
    <line fill="none" stroke="#C7C7C7" stroke-miterlimit="10" x1="182" y1="213.5" x2="183" y2="213.5"/>
    <line fill="none" stroke="#C7C7C7" stroke-miterlimit="10" x1="38" y1="167.5" x2="38" y2="167.5"/>
    <line fill="none" stroke="#C7C7C7" stroke-miterlimit="10" stroke-dasharray="1,2" x1="40" y1="167.5" x2="181" y2="167.5"/>
    <line fill="none" stroke="#C7C7C7" stroke-miterlimit="10" x1="182" y1="167.5" x2="183" y2="167.5"/>
    <line fill="none" stroke="#C7C7C7" stroke-miterlimit="10" x1="49" y1="120.5" x2="49" y2="120.5"/>
    <line fill="none" stroke="#C7C7C7" stroke-miterlimit="10" stroke-dasharray="1,2" x1="51" y1="120.5" x2="182" y2="120.5"/>
    <line fill="none" stroke="#C7C7C7" stroke-miterlimit="10" x1="182" y1="120.5" x2="183" y2="120.5"/>
    <g class="to-move" opacity="0">
      <line fill="none" stroke="#000000" stroke-miterlimit="10" x1="107.5" y1="276" x2="107.5" y2="207"/>
    <circle fill="#EF4123" cx="107.3" cy="241.7" r="6"/>
    <line fill="none" stroke="#000000" stroke-width="1.3368" stroke-miterlimit="10" x1="101.3" y1="206.6" x2="113.5" y2="206.6"/>
    <line fill="none" stroke="#000000" stroke-width="1.3368" stroke-miterlimit="10" x1="101.3" y1="276.8" x2="113.1" y2="276.8"/>
  </g></svg>
