<?xml version="1.0" encoding="utf-8"?>
<!-- Generator: Adobe Illustrator 19.1.0, SVG Export Plug-In . SVG Version: 6.00 Build 0)  -->
<svg version="1.1" id="Layer_1" xmlns="http://www.w3.org/2000/svg" xmlns:xlink="http://www.w3.org/1999/xlink" x="0px" y="0px"
	 viewBox="20 3.6 140.4 89.4" style="enable-background:new 20 3.6 140.4 89.4;" xml:space="preserve">
<style type="text/css">
	.st0{fill:#515252;}
	.st1{fill:#FFFFFF;stroke:#231F20;stroke-miterlimit:10;}
	.st2{fill:#1FBDC9;}
	.st3{fill:none;stroke:#231F20;stroke-miterlimit:10;}
	.st4{fill:none;stroke:#EC1C24;stroke-width:3;stroke-miterlimit:10;}
	.st5{fill:#038AA3;}
	.st6{fill:#231F20;}
	.st7{fill:#F3D3B7;stroke:#F3BE8E;stroke-miterlimit:10;}
	.st8{fill:none;stroke:#F3BE8E;stroke-miterlimit:10;}
	.st9{fill:#F3D3B3;stroke:#A95826;stroke-miterlimit:10;}
	.st10{fill:#A95826;}
	.st11{fill:#AA805B;}
	.st12{fill:#60422C;}
</style>
<path class="st0" d="M114.9,8.5c-13.5,0-33.5,0-35.6,0s-4.8,1.6-4.8,5.3s6.5,72.4,6.5,74c0,1.6,0.1,5.3,5.3,5.3s56.8,0,58.6,0
	c1.8,0,3.7-1.6,4.2-5.6s6.1-66.2,6.4-71.2c0.2-3.1,0.1-7.8-5.2-7.8C144.8,8.5,114.9,8.5,114.9,8.5z"/>
<circle class="st1" cx="115.2" cy="30.4" r="15.9"/>
<path class="st2" d="M96.3,14.1c0,0-12.2,0-13.4,0s-3.1,1.5-3.1,4.2s5.5,63.6,5.8,65.8s1.3,4.6,3.4,4.6s24.9,0,24.9,0V49.4
	c0,0-6.1,0.1-10.9-4.1s-7.2-10-7.2-16.1S96.3,14.1,96.3,14.1z"/>
<path class="st2" d="M133.8,14.1c0,0,12.2,0,13.4,0c1.2,0,3.1,1.5,3.1,4.2s-5.5,63.6-5.8,65.8s-1.3,4.6-3.4,4.6
	c-2.1,0-24.9,0-24.9,0V49.4c0,0,6.1,0.1,10.9-4.1c4.8-4.2,7.2-10,7.2-16.1S133.8,14.1,133.8,14.1z"/>
<circle class="st3" cx="115.2" cy="30.4" r="5.8"/>
<line class="st4" x1="115.6" y1="30.1" x2="126.4" y2="36.6"/>
<circle class="st5" cx="115.2" cy="30.4" r="3"/>
<rect x="114.7" y="15.9" class="st6" width="1" height="1.8"/>
<rect x="114.7" y="43.2" class="st6" width="1" height="1.8"/>
<rect x="127.9" y="29.9" class="st6" width="1.8" height="1"/>
<rect x="100.6" y="29.9" class="st6" width="1.8" height="1"/>
<rect x="124.4" y="39.2" transform="matrix(0.7071 -0.7071 0.7071 0.7071 8.251 100.0548)" class="st6" width="1" height="1.8"/>
<rect x="105.1" y="19.9" transform="matrix(0.7071 -0.7071 0.7071 0.7071 16.2453 80.7464)" class="st6" width="1" height="1.8"/>
<rect x="124.4" y="20" transform="matrix(-0.7071 -0.7071 0.7071 -0.7071 198.4513 124.0428)" class="st6" width="1" height="1.8"/>
<rect x="105.1" y="39.3" transform="matrix(-0.7071 -0.7071 0.7071 -0.7071 151.8573 143.3514)" class="st6" width="1" height="1.8"/>
<g>
	<path class="st7" d="M27.2,64.2c0,0,4.8,17,6.7,21.9c1.9,4.9,6.1,6.2,13.8,6.2s5.3-0.6,5.3-0.6s10.7,0.8,13.7-2.4
		c2-2.2,7.5-26.5,7.5-26.5L27.2,64.2z"/>
	<line class="st8" x1="34" y1="67.8" x2="40.4" y2="91.7"/>
	<line class="st8" x1="42" y1="69.3" x2="45" y2="92.3"/>
	<line class="st8" x1="47.8" y1="69.7" x2="49.7" y2="92.3"/>
	<line class="st8" x1="55" y1="69.3" x2="54.5" y2="91.9"/>
	<line class="st8" x1="61.7" y1="69.3" x2="59.7" y2="91.9"/>
	<line class="st8" x1="69.9" y1="67.8" x2="64.7" y2="90.9"/>
	<path class="st9" d="M68.2,55.8c0.1-0.3,0.1-0.6,0.1-1c0-4.2-5.4-7.5-12-7.5c-1.9,0-3.7,0.3-5.3,0.8c-2.1-1.1-4.8-1.8-7.8-1.8
		c-6.4,0-11.6,3.1-12,7c-4,0.8-6.9,3.3-6.9,6.2c0,1.8,1.1,3.5,3,4.7c2.1,3.2,11.7,5.6,23.1,5.6c5,0,9.6-0.5,13.5-1.2
		c0.5,0,0.9,0.1,1.4,0.1c5.5,0,10-2.9,10-6.5C75.2,59.1,72.3,56.6,68.2,55.8z"/>
	<g>
		<g>
			<path class="st10" d="M32.4,57.5c-1.8,0.5-4,2.1-2.6,4.2c1.3,1.9,3.9,1.7,5.8,1.5c0.5-0.1,1.6-0.2,1.9-0.7
				c0.3-0.5-0.3-0.6-0.7-0.5c-1.3,0.1-2.7,0.3-3.7-0.6c-0.4-0.4-0.7-0.8-0.8-1.4c0-0.3,0-0.6,0.1-0.9c0.1-0.2,0.6-0.7,0.3-0.6
				c0.3-0.1,1.4-0.4,1.3-0.9S32.6,57.4,32.4,57.5L32.4,57.5z"/>
		</g>
	</g>
	<g>
		<g>
			<path class="st10" d="M66.3,60.1c0.9,0.2,1.2,1.3,0.9,2.1c-0.5,1.2-1.8,0.9-2.8,0.8c-0.7-0.1-1.5,0.1-2,0.5
				c-0.4,0.4-0.4,0.7,0.2,0.8c2.3,0.3,4.9,0.2,6.7-1.5c1.3-1.2,1.3-3.5-0.6-4c-0.7-0.2-1.5,0-2,0.3C66.3,59.3,65.6,59.9,66.3,60.1
				L66.3,60.1z"/>
		</g>
	</g>
	<path class="st11" d="M53.2,54.8l12.9-24.5c0,0,3.1,0.4,3.8,2c0.7,1.6-11.5,22.7-12.2,23.9C56.9,57.4,53,56.6,53.2,54.8z"/>
	<polygon class="st12" points="64.5,33.4 66.6,40.1 65.6,42 63.1,36 	"/>
	<polygon class="st12" points="62.1,37.7 64.2,44.4 63.3,46.3 60.7,40.3 	"/>
	<polygon class="st12" points="59.9,42 62.1,48.2 61,50.3 58.6,44.6 	"/>
	<polygon class="st12" points="57.8,46.3 59.8,52.5 58.8,54.3 56.5,48.9 	"/>
	<g>
		<g>
			<path class="st10" d="M57.9,55.2c-1.9,0.8-4.2,0.3-6.1-0.3c-1-0.3-3.4,1.1-1.8,1.6c2.9,0.9,6.1,1.1,9,0c0.5-0.2,1.1-0.7,0.8-1.2
				C59.5,54.7,58.3,55,57.9,55.2L57.9,55.2z"/>
		</g>
	</g>
</g>
</svg>
