<?xml version="1.0" encoding="utf-8"?>
<!-- Generator: Adobe Illustrator 19.1.0, SVG Export Plug-In . SVG Version: 6.00 Build 0)  -->
<svg version="1.1" id="Layer_1" xmlns="http://www.w3.org/2000/svg" xmlns:xlink="http://www.w3.org/1999/xlink" x="0px" y="0px"
	 width="300px" height="192.5px" viewBox="-34 -130 300 192.5" enable-background="new -34 -130 300 192.5" xml:space="preserve">
<g>
	<text transform="matrix(1 0 0 1 72.2566 -25.8333)" enable-background="new    "><tspan x="0" y="0" fill="#333333" font-family="'CuratorHeadSTRegular'" font-size="16px">ENTIRE SITE  </tspan><tspan x="-16.3" y="19.2" fill="#333333" font-family="'CuratorHeadSTRegular'" font-size="16px">TO BE ACQUIRED  </tspan><tspan x="-1.5" y="38.4" fill="#333333" font-family="'CuratorHeadSTRegular'" font-size="16px">BY THIS TIME</tspan></text>
</g>
<g>
	<text transform="matrix(1 0 0 1 24.2736 -46.1667)" fill="#333333" font-family="'CuratorHeadSTBold'" font-size="40px">JULY 2018</text>
</g>
</svg>
