<?xml version="1.0" encoding="utf-8"?>
<!-- Generator: Adobe Illustrator 16.0.4, SVG Export Plug-In . SVG Version: 6.00 Build 0)  -->
<!DOCTYPE svg PUBLIC "-//W3C//DTD SVG 1.1//EN" "http://www.w3.org/Graphics/SVG/1.1/DTD/svg11.dtd">
<svg version="1.1" id="Layer_1" xmlns="http://www.w3.org/2000/svg" xmlns:xlink="http://www.w3.org/1999/xlink" x="0px" y="0px" width="144px" height="80px" viewBox="0 0 144 80" enable-background="new 0 0 144 80" xml:space="preserve">
	<g id="fix">
		<path fill="#333333" stroke="#FFFFFF" stroke-miterlimit="10" d="M54.9,33.9c0,0,1.5,10.2-2.2,17.8c-3.7,7.6-9.3,10-12.6,10.3
		c0,0-5,1-9.6-1.8c0,0-6.4-4.601-8.1-11.5c-1.9-7.4-1.6-12-1.4-13.9c0,0-0.5-19,17.4-19.6C53.1,14.7,54.9,33.9,54.9,33.9z"/>
		<path fill="none" stroke="#FFFFFF" stroke-miterlimit="10" d="M14.9,76.4c0,0,14.5-0.801,17.6-3.601c0,0,1.1-7.6,0.7-11.5"/>
		<path fill="none" stroke="#FFFFFF" stroke-miterlimit="10" d="M61.3,76.4c0,0-14.5-0.801-17.6-3.601c0,0-1.1-7.6-0.7-11.5"/>
		<path
			fill="#333333"
			stroke="#FFFFFF"
			stroke-miterlimit="10"
			d="M127.3,33.9c0,0,1.5,10.2-2.2,17.8c-3.699,7.5-9.3,10-12.6,10.3
		c0,0-5,1-9.6-1.8c0,0-6.4-4.601-8.101-11.5c-1.899-7.4-1.6-12-1.399-13.9c0,0-0.5-19,17.399-19.6C125.6,14.7,127.3,33.9,127.3,33.9
		z"/>
		<path fill="none" stroke="#FFFFFF" stroke-miterlimit="10" d="M87.3,76.4c0,0,14.5-0.801,17.601-3.601c0,0,1.1-7.6,0.699-11.5"/>
		<path fill="none" stroke="#FFFFFF" stroke-miterlimit="10" d="M133.7,76.4c0,0-14.5-0.801-17.601-3.601c0,0-1.1-7.6-0.699-11.5"/>
	</g>
	<g id="animate-hair-boy" display="none">
		<path
			fill="#333333"
			stroke="#FFFFFF"
			stroke-miterlimit="10"
			d="M94.8,45.5c0,0-2.2-9.1,0.4-15.4c0.1-0.2,0.2-0.5,0.3-0.7
		c0,0.1,0,0.2,0,0.2S96,29,97,28.4c0.9-0.4,2-0.6,3.1-0.7c1.4-0.1,2.801,0,4.4,0.2c1.5,0.2,3.1,0.5,4.8,0.7c1.7,0.2,3.3,0.4,5,0.5
		s3.4,0.2,5.101,0.1c1.699-0.1,3.399-0.3,5-0.8c0.399-0.1,0.8-0.3,1.199-0.4c0.101-0.1,0.301-0.1,0.4-0.2c0,0.1,0.1,0.2,0.1,0.3
		c2.601,7.6,0.4,17.4,0.4,17.4l0.8,0.5c0,0,2.8-6.3,3.101-13.3c0.1-1.1-0.2-5.1-0.601-7.6c0.7-0.7,1.2-1.5,1.601-2.2
		c0.699-1.1,1.1-2.2,1.399-3.2s0.5-1.8,0.7-2.6c0.2-0.7,0.3-1.3,0.3-1.7c0.101-0.4,0.101-0.6,0.101-0.6s-0.301,0.8-0.9,2.1
		c-0.6,1.3-1.4,3.3-2.8,5.2c-0.3,0.4-0.601,0.7-0.9,1.1c-0.1-0.2-0.1-0.3-0.2-0.4c1.9-2,3.2-5.3,3.2-11.4c0-1.2-0.3-4.8-0.3-4.8
		s-0.4,1.5-1.7,4c-2,3.8-5.8,4.4-5.8,4.4s1-0.6,1.9-2.3c0.199-0.4,0.699-1.8,0.699-1.8s-1.3,1.1-2.6,1.7c-3,1.3-17.9-3.7-26.9-0.3
		c-6.8,2.5-6.699,12.1-6.3,16.3c-0.2,2.4-0.2,5.9-0.1,6.7C91.6,41.2,93.8,45.9,93.8,45.9"/>
	</g>
	<g id="animate-hair-girl" display="none">
		<path
			fill="none"
			stroke="#FFFFFF"
			stroke-miterlimit="10"
			d="M43.2,68.2c0,0,14.9-1.2,20.4-10.101c0,0,2-18.2,0.1-26.899
		c-1.9-8.7-5-21.4-24.4-23.2l-0.8-0.1L36.8,8C17.4,9.8,14.2,22.4,12.4,31.2C10.6,40,12.5,58.1,12.5,58.1
		C18.1,67,32.9,68.2,32.9,68.2"/>
		<path fill="#333333" stroke="#FFFFFF" stroke-miterlimit="10" d="M21.7,34.8c2,0.1,7.4-0.1,10.8-2.6c4.2-3.2,6.9-7.5,7.5-9.8
		c0,0,2.4,8.4,14.9,11.5c0,0-1.7-19.2-16.6-18.7c-17.9,0.6-17.4,19.6-17.4,19.6"/>
	</g>
</svg>
