<svg version="1.1" xmlns="http://www.w3.org/2000/svg" xmlns:xlink="http://www.w3.org/1999/xlink" x="0px" y="0px"
	 viewBox="-199 560 800 488" enable-background="new -199 560 800 488" xml:space="preserve">
<image overflow="visible"  width="1600" height="976" xlink:href="stc-desktop.jpg"  transform="matrix(0.5 0 0 0.5 -199 560)">
</image>
<g id="blue-dot">
	<path fill="#0084C9" stroke="#FFFFFF" d="M26.6,740c0,2.1-1.8,3.7-3.8,3.7c-2.1,0-3.7-1.8-3.7-3.8s1.7-3.7,3.7-3.7
		C24.9,736.2,26.6,737.9,26.6,740L26.6,740"/>
	<path fill="#0084C9" stroke="#FFFFFF" d="M-36.4,682.8c0,2.1-1.8,3.7-3.8,3.7c-2.1,0-3.7-1.8-3.7-3.8s1.7-3.7,3.7-3.7
		C-38.1,679-36.4,680.7-36.4,682.8"/>
	<path fill="#0084C9" stroke="#FFFFFF" d="M563.5,821.3c0,2.1-1.8,3.8-3.9,3.7c-2.1-0.1-3.8-1.8-3.7-3.9c0-2.1,1.7-3.7,3.8-3.7
		C561.8,817.5,563.5,819.2,563.5,821.3L563.5,821.3"/>
	<path fill="#0084C9" stroke="#FFFFFF" d="M531.1,840.7c0,2.1-1.8,3.8-3.9,3.7c-2.1,0-3.8-1.8-3.7-3.9c0-2.1,1.7-3.7,3.8-3.7
		C529.4,836.8,531.1,838.6,531.1,840.7L531.1,840.7"/>
	<path fill="#0084C9" stroke="#FFFFFF" d="M502.9,853.6c0,2.1-1.8,3.8-3.9,3.7c-2.1,0-3.8-1.8-3.7-3.9c0-2.1,1.7-3.7,3.8-3.7
		C501.2,849.7,502.9,851.4,502.9,853.6"/>
	<path fill="#0084C9" stroke="#FFFFFF" d="M499.7,844.1c0,2.1-1.8,3.8-3.9,3.7c-2.1,0-3.8-1.8-3.7-3.9c0-2.1,1.7-3.7,3.8-3.7
		C498.1,840.3,499.8,842,499.7,844.1"/>
	<path fill="#0084C9" stroke="#FFFFFF" d="M488.2,852.3c0,2.1-1.8,3.8-3.9,3.7c-2.1,0-3.8-1.8-3.7-3.9c0-2.1,1.7-3.7,3.8-3.7
		C486.6,848.4,488.2,850.2,488.2,852.3"/>
	<path fill="#0084C9" stroke="#FFFFFF" d="M419.5,859.5c0,2.1-1.8,3.8-3.9,3.7c-2.1,0-3.8-1.8-3.7-3.9c0-2.1,1.7-3.7,3.8-3.7
		C417.8,855.7,419.5,857.4,419.5,859.5"/>
	<path fill="#0084C9" stroke="#FFFFFF" d="M388.2,843.5c0,2.1-1.8,3.8-3.9,3.7c-2.1,0-3.8-1.8-3.7-3.9c0-2.1,1.7-3.7,3.8-3.7
		C386.5,839.7,388.2,841.4,388.2,843.5"/>
	<path fill="#0084C9" stroke="#FFFFFF" d="M509.3,869.5c0,2.1-1.8,3.8-3.9,3.7c-2.1,0-3.8-1.8-3.7-3.9c0-2.1,1.7-3.7,3.8-3.7
		C507.6,865.6,509.3,867.4,509.3,869.5L509.3,869.5"/>
	<path fill="#0084C9" stroke="#FFFFFF" d="M406.5,846.5c0,2.1-1.8,3.8-3.9,3.7c-2.1,0-3.8-1.8-3.7-3.9c0-2.1,1.7-3.7,3.8-3.7
		C404.8,842.6,406.5,844.4,406.5,846.5"/>
	<path fill="#0084C9" stroke="#FFFFFF" d="M122.8,988.3c0,2.1-1.8,3.8-3.9,3.7s-3.8-1.8-3.7-3.9c0-2.1,1.7-3.7,3.8-3.7
		C121.1,984.4,122.8,986.1,122.8,988.3L122.8,988.3"/>
	<path fill="#0084C9" stroke="#FFFFFF" d="M135.1,907.4c0,2.1-1.8,3.8-3.9,3.7s-3.8-1.8-3.7-3.9c0-2.1,1.7-3.7,3.8-3.7
		C133.4,903.5,135.1,905.2,135.1,907.4L135.1,907.4"/>
	<path fill="#0084C9" stroke="#FFFFFF" d="M257.1,830.1c0,2.1-1.8,3.8-3.9,3.7s-3.8-1.8-3.7-3.9c0-2.1,1.7-3.7,3.8-3.7
		C255.4,826.2,257.1,827.9,257.1,830.1L257.1,830.1"/>
	<path fill="#0084C9" stroke="#FFFFFF" d="M341.5,930.6c0,2.1-1.8,3.8-3.9,3.7c-2.1-0.1-3.8-1.8-3.7-3.9c0-2.1,1.7-3.7,3.8-3.7
		S341.5,928.4,341.5,930.6L341.5,930.6"/>
	<path fill="#0084C9" stroke="#FFFFFF" d="M351.5,936.6c0,2.1-1.8,3.8-3.9,3.7c-2.1-0.1-3.8-1.8-3.7-3.9c0-2.1,1.7-3.7,3.8-3.7
		S351.5,934.4,351.5,936.6L351.5,936.6"/>
	<path fill="#0084C9" stroke="#FFFFFF" d="M478.8,967.9c0,2.1-1.8,3.8-3.9,3.7s-3.8-1.8-3.7-3.9c0-2.1,1.7-3.7,3.8-3.7
		S478.8,965.7,478.8,967.9L478.8,967.9"/>
	<path fill="#0084C9" stroke="#FFFFFF" d="M458.8,951.2c0,2.1-1.8,3.8-3.9,3.7s-3.8-1.8-3.7-3.9c0-2.1,1.7-3.7,3.8-3.7
		S458.8,949,458.8,951.2L458.8,951.2"/>
	<path fill="#0084C9" stroke="#FFFFFF" d="M74.1,796.9c0,2.1-1.8,3.8-3.9,3.7c-2.1,0-3.8-1.8-3.7-3.9c0-2.1,1.7-3.7,3.8-3.7
		C72.4,793,74.1,794.7,74.1,796.9L74.1,796.9"/>
	<path fill="#0084C9" stroke="#FFFFFF" d="M488.8,1009.7c0,2.1-1.8,3.8-3.9,3.7c-2.1,0-3.8-1.8-3.7-3.9c0-2.1,1.7-3.7,3.8-3.7
		C487.1,1005.9,488.8,1007.6,488.8,1009.7L488.8,1009.7"/>
</g>
<g class="animate-line">
	<path fill="none" stroke="#E38B7B" stroke-width="2" stroke-dasharray="2.006,1.003" d="M497,766.5c0,0,2,19,22.5,33"/>
</g>
<g class="animate-line">
	<path fill="none" stroke="#E38B7B" stroke-width="2" stroke-dasharray="2.006,1.003" d="M540.5,774c1.5,5.5,0,9,5.5,16.5
		s2.5,5,2.5,5"/>
	</g>
	<g class="animate-line">
	<path fill="none" stroke="#E38B7B" stroke-width="2" stroke-dasharray="2.006,1.003" d="M371,698c-4.5,1.5-14.5,1.5-18.5,9
		s-5.5,28.5-21,27.5s-46-15.5-73.5-16s-69-0.5-94.5,5s-71,4.5-88-0.5s-17-5-17-5"/>
	</g>
	<g class="animate-line">
	<path fill="none" stroke="#E38B7B" stroke-width="2" stroke-dasharray="2.006,1.003" d="M560.7,768.3c0,0-34.2,8.7-72.7-7.3
		s-102-56-111.5-62s-21-10-45.5-6s-62.5,4.5-92.5-13.5s-77.5-63-102-82s-50-13.5-65-6.5s-62,33.5-82.5,36.5s-46.5,9.5-60.5-1
		s-16-1-7.5,9s25.5,10.5,53,8s47.5-7.5,78-8.5s30.5-1,30.5-1s16-1,38.5-9s30.5-12.5,30.5-12.5"/>
</g>
<g class="animate-line">
	<path fill="none" stroke="#5587C6" stroke-width="2" stroke-dasharray="2.004,1.002" d="M176,897.3c0,0-28,4.7-36.5,6.7
		s-8.5,2-8.5,2s-5.5-6.5-16-30s-20.5-37.5-33-58.5S46,769,37,757s-14.5-17.5-14.5-17.5s-2,15.5-10,16s-22.5-1-19-16s4-20.5-10.5-35
		S-40.5,683-40.5,683"/>
	</g>
	<g class="animate-line">
	<path fill="none" stroke="#5587C6" stroke-width="2" stroke-dasharray="2.004,1.002" d="M120,988.5c0,0,38.5-1,54-26.5
		s14.5-46.5,13-51s-8.5-12-13-13s22.5-1.5,33.5-12.5s25-22.5,22-36s-6-17-6-17"/>
	</g>
	<g class="animate-line">
	<path fill="none" stroke="#5587C6" stroke-width="2" stroke-dasharray="2.004,1.002" d="M337,934.5c0,0-7.5-13.5,11-35.5
		s26-28.5,28.5-35.5s7-22,7-22s3,8,4.5,10.5s3,2,7.5-1s6-5,6-5s-6,13.5,0,15s13.5-0.5,13.5-0.5s-8,18,3.5,40s19.5,35,19.5,35"/>
	</g>
<g class="animate-line">
	<path fill="none" stroke="#5587C6" stroke-width="2" stroke-dasharray="2.004,1.002" d="M485.5,1009c0,0,9.5-14,4-24
		s-17-21.5-28-24.5s-14-20.5-20-23.5s-25.5-6-51.5-3s-84.5,7.5-99-21s-23.5-64-30.5-75s-9-11-15-9s-26,8-35-2s-7.5-13-7.5-13
		s-4,8-10,7.5s-15.5-2-20.5-9.5s-9-14.5-9-14.5"/>
	</g>
<g class="animate-line">
	<path fill="none" stroke="#5587C6" stroke-width="2" stroke-dasharray="2.004,1.002" d="M559,821.7c0,0-1.7,17-10.7,19
		s-21.3,0.7-21.3,0.7s3.3,15.3,0,20.7s-10.3,9.3-15.7,7s-7.3,4.7-7.3,4.7s-11-1.3-10.7-10.7c0.3-9.3,6.7-12.3,6.7-12.3
		s-3-11.7-13.7-1c-10.7,10.7,10.3,27,14.7,33.3s12,17.7,5.3,29.7c-6.7,12-13.7,14-19,16.3c-5.3,2.3-13.3,4.7-21.3-6
		s-9.7-12.7-9.7-12.7s-7.7,4.3-1.7,14.3s17.7,11.7,20.3,24c2.7,12.3,1.7,19.3,1.7,19.3"/>
</g>
<g id="red-dot">
	<path fill="#EF4938" stroke="#FFFFFF" d="M58,717c0,2.1-1.8,3.7-3.8,3.7c-2.1,0-3.7-1.8-3.7-3.8s1.7-3.7,3.7-3.7
		C56.3,713.2,58,714.9,58,717L58,717"/>
	<path fill="#EF4938" stroke="#FFFFFF" d="M35.2,574.4c0-2.1-1.8-3.8-3.9-3.7c-2.1,0-3.8,1.8-3.7,3.9c0,2.1,1.7,3.7,3.8,3.7
		C33.5,578.3,35.2,576.6,35.2,574.4L35.2,574.4"/>
	<path fill="#EF4938" stroke="#FFFFFF" d="M-77.9,627.9c0,2.1-1.8,3.7-3.8,3.7c-2.1,0-3.7-1.8-3.7-3.8s1.7-3.7,3.7-3.7
		C-79.5,624.1-77.9,625.9-77.9,627.9"/>
	<path fill="#EF4938" stroke="#FFFFFF" d="M502,764.5c0-2.1-1.8-3.8-3.9-3.7c-2.1,0-3.8,1.8-3.7,3.9c0,2.1,1.7,3.7,3.8,3.7
		C500.3,768.4,502,766.6,502,764.5"/>
	<path fill="#EF4938" stroke="#FFFFFF" d="M550.9,790.2c0-2.1-1.8-3.8-3.9-3.7c-2.1,0-3.8,1.8-3.7,3.9c0,2.1,1.7,3.7,3.8,3.7
		C549.2,794,550.9,792.3,550.9,790.2"/>
	<path fill="#EF4938" stroke="#FFFFFF" d="M545.3,770.9c0-2.1-1.8-3.8-3.9-3.7c-2.1,0-3.8,1.8-3.7,3.9c0,2.1,1.7,3.7,3.8,3.7
		S545.3,773.1,545.3,770.9"/>
	<path fill="#EF4938" stroke="#FFFFFF" d="M564.6,769.3c0-2.1-1.8-3.8-3.9-3.7c-2.1,0-3.8,1.8-3.7,3.9c0,2.1,1.7,3.7,3.8,3.7
		C562.9,773.2,564.6,771.4,564.6,769.3"/>
	<path fill="#EF4938" stroke="#FFFFFF" d="M508.2,785.6c0-2.1-1.8-3.8-3.9-3.7c-2.1,0-3.8,1.8-3.7,3.9c0,2.1,1.7,3.7,3.8,3.7
		C506.5,789.5,508.2,787.7,508.2,785.6"/>
	<path fill="#EF4938" stroke="#FFFFFF" d="M525.3,800.6c0-2.1-1.8-3.8-3.9-3.7c-2.1,0-3.8,1.8-3.7,3.9c0,2.1,1.7,3.7,3.8,3.7
		S525.3,802.7,525.3,800.6"/>
	<path fill="#EF4938" stroke="#FFFFFF" d="M298.1,696.3c0,2.1-1.8,3.8-3.9,3.7c-2.1,0-3.8-1.8-3.7-3.9c0-2.1,1.7-3.7,3.8-3.7
		C296.4,692.5,298.1,694.2,298.1,696.3L298.1,696.3"/>
	<path fill="#EF4938" stroke="#FFFFFF" d="M333.3,692.9c0,2.1-1.8,3.8-3.9,3.7c-2.1,0-3.8-1.8-3.7-3.9c0-2.1,1.7-3.7,3.8-3.7
		C331.6,689.1,333.3,690.8,333.3,692.9L333.3,692.9"/>
	<path fill="#EF4938" stroke="#FFFFFF" d="M375.9,697.5c0,2.1-1.8,3.8-3.9,3.7c-2.1,0-3.8-1.8-3.7-3.9c0-2.1,1.7-3.7,3.8-3.7
		C374.2,693.7,375.9,695.4,375.9,697.5L375.9,697.5"/>
	<path fill="#EF4938" stroke="#FFFFFF" d="M329.9,733.5c0,2.1-1.8,3.8-3.9,3.7c-2.1,0-3.8-1.8-3.7-3.9c0-2.1,1.7-3.7,3.8-3.7
		C328.2,729.7,329.9,731.4,329.9,733.5L329.9,733.5"/>
	<path fill="#EF4938" stroke="#FFFFFF" d="M102.8,585.1c0-2.1-1.8-3.8-3.9-3.7c-2.1,0-3.8,1.8-3.7,3.9c0,2.1,1.7,3.7,3.8,3.7
		C101.1,589,102.8,587.2,102.8,585.1L102.8,585.1"/>
	<path fill="#EF4938" stroke="#FFFFFF" d="M62.8,637.7c0,2.1-1.8,3.8-3.9,3.8s-3.8-1.8-3.8-3.9c0-2.1,1.7-3.8,3.8-3.8
		C61.1,633.8,62.8,635.5,62.8,637.7"/>
	<path fill="#EF4938" stroke="#FFFFFF" d="M-68,629.6c0,2.1-1.8,3.7-3.8,3.7s-3.7-1.8-3.7-3.8s1.7-3.7,3.7-3.7
		C-69.7,625.8-68,627.5-68,629.6"/>
	<path fill="#EF4938" stroke="#FFFFFF" d="M524.5,774.9c0-2.1-1.8-3.8-3.9-3.7c-2.1,0-3.8,1.8-3.7,3.9c0,2.1,1.7,3.7,3.8,3.7
		C522.8,778.8,524.5,777.1,524.5,774.9"/>
</g>
<g id="region">
	<g>
		<text transform="matrix(1 0 0 1 37.612 579.793)" fill="#333333" font-family="'CuratorRegular'" font-size="13px">Riga</text>
		<text transform="matrix(1 0 0 1 316.43 748.947)" fill="#333333" font-family="'CuratorRegular'" font-size="13px">Kashgar</text>
		<text transform="matrix(1 0 0 1 385.794 702.541)" fill="#333333" font-family="'CuratorRegular'" font-size="13px">Urumqi</text>
		<text transform="matrix(1 0 0 1 444.11 783.549)" fill="#333333" font-family="'CuratorRegular'" font-size="13px">Chengdu</text>
		<text transform="matrix(1 0 0 1 450.151 866.245)" fill="#333333" font-family="'CuratorRegular'" font-size="13px">Hanoi</text>
		<text transform="matrix(1 0 0 1 69.9998 915.6664)" fill="#333333" font-family="'CuratorRegular'" font-size="13px">Djibouti</text>
		<text transform="matrix(1 0 0 1 93.5 578.5)" fill="#333333" font-family="'CuratorRegular'" font-size="13px">Moscow</text>
		<text transform="matrix(1 0 0 1 -41 675)" fill="#333333" font-family="'CuratorRegular'" font-size="13px">Venice</text>
		<text transform="matrix(1 0 0 1 -67.5 644)" fill="#333333" font-family="'CuratorRegular'" font-size="13px">Duisburg</text>
		<text transform="matrix(1 0 0 1 -122 665)" fill="#333333" font-family="'CuratorRegular'" font-size="13px">Rotterdam</text>
		<text transform="matrix(1 0 0 1 65 650)" fill="#333333" font-family="'CuratorRegular'" font-size="13px">Kiev</text>
		<text transform="matrix(1 0 0 1 5 734.5)" fill="#333333" font-family="'CuratorRegular'" font-size="13px">Athens</text>
		<text transform="matrix(1 0 0 1 49.5 735.5)" fill="#333333" font-family="'CuratorRegular'" font-size="13px">Istanbul</text>
		<text transform="matrix(1 0 0 1 9 803.5)" fill="#333333" font-family="'CuratorRegular'" font-size="13px">Sue Canal</text>
		<text transform="matrix(1 0 0 1 241 818)" fill="#333333" font-family="'CuratorRegular'" font-size="13px">Gwadar</text>
		<text transform="matrix(1 0 0 1 265.5 687.5)" fill="#333333" font-family="'CuratorRegular'" font-size="13px">Almaty</text>
		<text transform="matrix(1 0 0 1 308.5 685)" fill="#333333" font-family="'CuratorRegular'" font-size="13px">Horgos</text>
		<text transform="matrix(1 0 0 1 476 720)" fill="#333333" font-family="'CuratorRegular'" font-size="13px">Lianyungang</text>
		<text transform="matrix(1 0 0 1 275 941)" fill="#333333" font-family="'CuratorRegular'" font-size="13px">Colombo</text>
		<text transform="matrix(1 0 0 1 534 855.5)" fill="#333333" font-family="'CuratorRegular'" font-size="13px">Guangzhou</text>
		<text transform="matrix(1 0 0 1 536 815)" fill="#333333" font-family="'CuratorRegular'" font-size="13px">Quanzhou</text>
		<text transform="matrix(1 0 0 1 517 869)" fill="#333333" font-family="'CuratorRegular'" font-size="13px">Qinzhou port</text>
		<text transform="matrix(1 0 0 1 473 741.5)" fill="#333333" font-family="'CuratorRegular'" font-size="13px">Zhengzhou</text>
		<text transform="matrix(1 0 0 1 439 770.5)" fill="#333333" font-family="'CuratorRegular'" font-size="13px">Lanzhou</text>
		<text transform="matrix(1 0 0 1 380.5 875)" fill="#333333" font-family="'CuratorRegular'" font-size="13px">Kyaukpyu</text>
		<text transform="matrix(1 0 0 1 509 883.5)" fill="#333333" font-family="'CuratorRegular'" font-size="13px">Haikou</text>
		<text transform="matrix(1 0 0 1 552 796.5)" fill="#333333" font-family="'CuratorRegular'" font-size="13px">Wuhan</text>
		<text transform="matrix(1 0 0 1 510 765.25)" fill="#333333" font-family="'CuratorRegular'" font-size="13px">Xi</text>
		<text transform="matrix(1 0 0 1 519.9 765.25)" fill="#333333" font-family="'CuratorRegular'" font-size="13px">’an</text>
		<text transform="matrix(1 0 0 1 279.333 957.6664)" fill="#333333" font-family="'CuratorRegular'" font-size="13px">Hambantota</text>
		<text transform="matrix(1 0 0 1 416.0003 830.9997)" fill="#333333" font-family="'CuratorRegular'" font-size="13px">Chittagong</text>
		<text transform="matrix(1 0 0 1 331.333 849.6664)" fill="#333333" font-family="'CuratorRegular'" font-size="13px">Kolkata</text>
		<text transform="matrix(1 0 0 1 435.3336 1018.333)" fill="#333333" font-family="'CuratorRegular'" font-size="13px">Jakarta</text>
		<text transform="matrix(1 0 0 1 412 984.333)" fill="#333333" font-family="'CuratorRegular'" font-size="13px">Kuala</text>
		<text transform="matrix(1 0 0 1 412 997.933)" fill="#333333" font-family="'CuratorRegular'" font-size="13px">Lumpur</text>
		<text transform="matrix(1 0 0 1 126 1004.3337)" fill="#333333" font-family="'CuratorRegular'" font-size="13px">Lamu</text>
	</g>
</g>
<g id="country">
	<text transform="matrix(1 0 0 1 322.593 830.408)" fill="#333333" font-family="'CuratorBold'" font-size="16px">India</text>
	<text transform="matrix(1 0 0 1 355.492 594.905)" fill="#333333" font-family="'CuratorBold'" font-size="16px">Russia</text>
	<text transform="matrix(1 0 0 1 386.564 759.081)" fill="#333333" font-family="'CuratorBold'" font-size="17.345px">China</text>
	<text transform="matrix(1 0 0 1 242.333 794)" fill="#333333" font-family="'CuratorBold'" font-size="16px">Pakistan</text>
	<text transform="matrix(1 0 0 1 258.0003 648.3333)" fill="#333333" font-family="'CuratorBold'" font-size="16px">Kazakhstan</text>
	<text transform="matrix(1 0 0 1 338.667 800.3335)" fill="#333333" font-family="'CuratorBold'" font-size="16px">Bangladesh</text>
	<text transform="matrix(1 0 0 1 413 846.3336)" fill="#333333" font-family="'CuratorBold'" font-size="16px">Myanmar</text>
	<text transform="matrix(1 0 0 1 515.6667 909.0003)" fill="#333333" font-family="'CuratorBold'" font-size="16px">Vietnam</text>
	<text transform="matrix(1 0 0 1 433.3336 1033.3333)" fill="#333333" font-family="'CuratorBold'" font-size="16px">Indonesia</text>
	<text transform="matrix(1 0 0 1 368.3333 964.9997)" fill="#333333" font-family="'CuratorBold'" font-size="16px">Malaysia</text>
	<text transform="matrix(1 0 0 1 306.6664 918.9997)" fill="#333333" font-family="'CuratorBold'" font-size="16px">Sri Lanka</text>
	<text transform="matrix(1 0 0 1 27 838.3336)" fill="#333333" font-family="'CuratorBold'" font-size="16px">Egypt</text>
	<text transform="matrix(1 0 0 1 105.5 743.5)" font-family="'CuratorBold'" font-size="16px">Turkey</text>
	<text transform="matrix(1 0 0 1 48.5 666.5)" fill="#333333" font-family="'CuratorBold'" font-size="16px">Ukraine</text>
	<text transform="matrix(1 0 0 1 -4.5 718.5)" fill="#333333" font-family="'CuratorBold'" font-size="16px">Greece</text>
	<text transform="matrix(1 0 0 1 -133.5 606.5)" fill="#333333" font-family="'CuratorBold'" font-size="16px">Netherlands</text>
	<text transform="matrix(1 0 0 1 -72 623)" fill="#333333" font-family="'CuratorBold'" font-size="16px">Germany</text>
	<text transform="matrix(1 0 0 1 -70 699.5)" fill="#333333" font-family="'CuratorBold'" font-size="16px">Italy</text>
	<text transform="matrix(1 0 0 1 -52 578.5)" fill="#333333" font-family="'CuratorBold'" font-size="16px">Latvia</text>
	<text transform="matrix(1 0 0 1 69 975.5)" fill="#333333" font-family="'CuratorBold'" font-size="16px">Kenya</text>
</g>
<g id="legend">
	<line fill="none" stroke="#E38B7B" stroke-width="2" stroke-dasharray="2,1" x1="-120" y1="1008.7" x2="-173.5" y2="1008.7"/>

		<line fill="none" stroke="#5587C6" stroke-width="2" stroke-dasharray="2.004,1.002" x1="-120" y1="1029.9" x2="-173.5" y2="1029.9"/>
	<text transform="matrix(1 0 0 1 -111.5 1031)" fill="#333333" font-family="'CuratorRegular'" font-size="13px">Maritime Silk Road initiative</text>
	<text transform="matrix(1 0 0 1 -112.5 1012.5)" fill="#333333" font-family="'CuratorRegular'" font-size="13px">Silk Road Economic Belt</text>
</g>
</svg>
