<svg version="1.1" id="Layer_1" xmlns="http://www.w3.org/2000/svg" xmlns:xlink="http://www.w3.org/1999/xlink" x="0px" y="0px"
	 viewBox="-424 176 350 280" enable-background="new -424 176 350 280" xml:space="preserve">
<image overflow="visible" width="1528" height="933" xlink:href="stc-tablet.jpg"  transform="matrix(0.2437 0 0 0.2437 -434 175.6667)">
</image>
<g class="animate-line">
	<path fill="none" stroke="#5A9DDC" stroke-dasharray="2,1" d="M-80.7,298c0,0-0.7,10.3-6,11c-5.3,0.7-10-1.3-10-1.3s0.3,8.7-1,11
		c-1.3,2.3-5,3-6.7,2.3c-1.7-0.7-1.7,3.7-4,1.7c-2.3-2-6.3-6-1.3-9.3c5-3.3-4-4.3-4.7-2.7c-0.7,1.7-3.7,3.7-1.7,7
		c2,3.3,10.7,12,10.7,16s0.7,9.3-5,12.7c-5.7,3.3-13.7,4.3-17-4c-3.3-8.3-4,1.7-3,3.3c1,1.7,9.3,6.3,10,10.7c0.7,4.3,1,9,1,10.3
		c0,1.3,0-1.3,0-1.3"/>
	</g>
	<g class="animate-line">
	<path fill="none" stroke="#5A9DDC" stroke-dasharray="2,1" d="M-116,385.7c0,0,4.7-8.7,2-12.7s-8-9.7-12.3-10.7s-4-6.7-7-9
		c-3-2.3-7.7-3.7-18-3.7c-10.3,0-14.7,3.7-22,3.7c-7.3,0-23.7-2.3-28.3-8c-4.7-5.7-14-25.7-15.7-34.3c-1.7-8.7-7.7-10.3-7.7-10.3
		s-4.3,4.7-8.7,3.3c-4.3-1.3-9.3-3.3-10.7-7.7c0,0-3,2.3-7,2c-4-0.3-9.3-4-11.3-9.7"/>
	</g>
	<g class="animate-line">
	<path fill="none" stroke="#5A9DDC" stroke-dasharray="2,1" d="M-285,376c0,0,14.7-0.7,22-8.7c7.3-8,14.7-23,11-27.7
		c-3.7-4.7-7-5.3-7-5.3s16.3-2,20.7-9.3c4.3-7.3,6-11,5-14.7c-1-3.7-2-6.7-2-6.7"/>
	</g>
	<g class="animate-line">
	<path fill="none" stroke="#5A9DDC" stroke-dasharray="2,1" d="M-258,334.3c0,0-10,0-14.3,2c-4.3,2-4.3,2-4.3,2s-1.7-3.7-11.3-20.7
		s-15.3-25.7-21.7-35c-6.3-9.3-19-21.3-19-21.3s-3,13-8.3,8.7s-3.3-8.3-3-13.7c0.3-5.3-12-17.3-14.7-19c-2.7-1.7-2.7-1.7-2.7-1.7"/>
	</g>
	<g class="animate-line">
	<path fill="none" stroke="#5A9DDC" stroke-dasharray="2,1" d="M-184.2,351.5c0,0-2.8-5.8,6.8-18s12.8-15.8,12.8-15.8l1.5-7.8
		l1.2-0.2c0,0,0.2,5,2.2,4.8s5.5-5,5.5-5s-2.8,6,1,7.5s6.2-0.5,6.2-0.5s-3.2,6.2-0.5,16s10.5,19,10.5,19"/>
</g>
<g id="blue-dot">
	<path fill="#0084C9" stroke="#FFFFFF" stroke-width="0.5" d="M-326.3,261.8c0,0.9-0.8,1.7-1.8,1.7s-1.7-0.8-1.7-1.8
		c0-0.9,0.8-1.7,1.7-1.7C-327,260-326.3,260.8-326.3,261.8L-326.3,261.8"/>
	<path fill="#0084C9" stroke="#FFFFFF" stroke-width="0.5" d="M-355.2,235.4c0,1-0.8,1.7-1.8,1.7s-1.7-0.8-1.7-1.8
		c0-0.9,0.8-1.7,1.7-1.7C-356,233.7-355.2,234.5-355.2,235.4"/>
	<path fill="#0084C9" stroke="#FFFFFF" stroke-width="0.5" d="M-79.4,299.1c0,1-0.8,1.7-1.8,1.7s-1.7-0.8-1.7-1.8
		c0-0.9,0.8-1.7,1.7-1.7C-80.2,297.4-79.4,298.2-79.4,299.1L-79.4,299.1"/>
	<path fill="#0084C9" stroke="#FFFFFF" stroke-width="0.5" d="M-94.3,308c0,1-0.8,1.7-1.8,1.7s-1.7-0.8-1.7-1.8
		c0-0.9,0.8-1.7,1.7-1.7C-95,306.3-94.2,307.1-94.3,308L-94.3,308"/>
	<path fill="#0084C9" stroke="#FFFFFF" stroke-width="0.5" d="M-107.2,314c0,1-0.8,1.7-1.8,1.7s-1.7-0.8-1.7-1.8
		c0-0.9,0.8-1.7,1.7-1.7C-108,312.2-107.2,313-107.2,314"/>
	<path fill="#0084C9" stroke="#FFFFFF" stroke-width="0.5" d="M-108.7,309.6c0,1-0.8,1.7-1.8,1.7s-1.7-0.8-1.7-1.8
		c0-0.9,0.8-1.7,1.7-1.7C-109.4,307.8-108.7,308.6-108.7,309.6"/>
	<path fill="#0084C9" stroke="#FFFFFF" stroke-width="0.5" d="M-114,313.4c0,1-0.8,1.7-1.8,1.7s-1.7-0.8-1.7-1.8
		c0-0.9,0.8-1.7,1.7-1.7C-114.7,311.6-114,312.4-114,313.4"/>
	<path fill="#0084C9" stroke="#FFFFFF" stroke-width="0.5" d="M-145.6,316.7c0,1-0.8,1.7-1.8,1.7s-1.7-0.8-1.7-1.8
		c0-0.9,0.8-1.7,1.7-1.7C-146.3,314.9-145.6,315.7-145.6,316.7"/>
	<path fill="#0084C9" stroke="#FFFFFF" stroke-width="0.5" d="M-160,309.3c0,1-0.8,1.7-1.8,1.7s-1.7-0.8-1.7-1.8
		c0-0.9,0.8-1.7,1.7-1.7C-160.8,307.6-160,308.4-160,309.3"/>
	<path fill="#0084C9" stroke="#FFFFFF" stroke-width="0.5" d="M-104.3,321.3c0,1-0.8,1.7-1.8,1.7s-1.7-0.8-1.7-1.8
		c0-0.9,0.8-1.7,1.7-1.7C-105.1,319.5-104.3,320.3-104.3,321.3L-104.3,321.3"/>
	<path fill="#0084C9" stroke="#FFFFFF" stroke-width="0.5" d="M-151.6,310.7c0,1-0.8,1.7-1.8,1.7s-1.7-0.8-1.7-1.8
		c0-0.9,0.8-1.7,1.7-1.7C-152.3,308.9-151.6,309.7-151.6,310.7"/>
	<path fill="#0084C9" stroke="#FFFFFF" stroke-width="0.5" d="M-282,375.9c0,1-0.8,1.7-1.8,1.7s-1.7-0.8-1.7-1.8s0.8-1.7,1.8-1.7
		C-282.8,374.1-282,374.9-282,375.9"/>
	<path fill="#0084C9" stroke="#FFFFFF" stroke-width="0.5" d="M-276.4,338.7c0,1-0.8,1.7-1.8,1.7s-1.7-0.8-1.7-1.8s0.8-1.7,1.8-1.7
		C-277.2,336.9-276.4,337.7-276.4,338.7"/>
	<path fill="#0084C9" stroke="#FFFFFF" stroke-width="0.5" d="M-304.4,287.9c0,1-0.8,1.7-1.8,1.7s-1.7-0.8-1.7-1.8s0.8-1.7,1.8-1.7
		C-305.2,286.1-304.4,286.9-304.4,287.9"/>
	<path fill="#0084C9" stroke="#FFFFFF" stroke-width="0.5" d="M-113.7,385.8c0,1-0.8,1.7-1.8,1.7s-1.7-0.8-1.7-1.8s0.8-1.7,1.7-1.7
		C-114.5,384-113.7,384.8-113.7,385.8L-113.7,385.8"/>
	<path fill="#0084C9" stroke="#FFFFFF" stroke-width="0.5" d="M-224,301c0,1-0.8,1.7-1.8,1.7s-1.7-0.8-1.7-1.8s0.8-1.7,1.7-1.7
		C-224.8,299.2-224,300-224,301L-224,301"/>
	<path fill="#0084C9" stroke="#FFFFFF" stroke-width="0.5" d="M-180.3,353c0,1-0.8,1.7-1.8,1.7s-1.7-0.8-1.7-1.8s0.8-1.7,1.7-1.7
		C-181.1,351.2-180.3,352-180.3,353L-180.3,353"/>
	<path fill="#0084C9" stroke="#FFFFFF" stroke-width="0.5" d="M-172.3,352.7c0,1-0.8,1.7-1.8,1.7s-1.7-0.8-1.7-1.8s0.8-1.7,1.7-1.7
		C-173.1,350.9-172.3,351.7-172.3,352.7L-172.3,352.7"/>
	<path fill="#0084C9" stroke="#FFFFFF" stroke-width="0.5" d="M-126.3,359c0,1-0.8,1.7-1.8,1.7s-1.7-0.8-1.7-1.8s0.8-1.7,1.7-1.7
		C-127.1,357.2-126.3,358-126.3,359L-126.3,359"/>
	<path fill="#0084C9" stroke="#FFFFFF" stroke-width="0.5" d="M-118.3,366.3c0,1-0.8,1.7-1.8,1.7s-1.7-0.8-1.7-1.8s0.8-1.7,1.7-1.7
		C-119.1,364.5-118.3,365.3-118.3,366.3L-118.3,366.3"/>
	</g>
	<g class="animate-line">
	<path fill="none" stroke="#E38B7B" stroke-dasharray="2,1" d="M-79.3,275c0,0-21,4-37.3-5s-40-21.7-46.3-26.3
		c-6.3-4.7-14.3-7.3-28.3-4.3s-43.7-6-52.7-13.7c-9-7.7-25.7-24.3-31-29c-5.3-4.7-21.7-14.7-44.7-2.7s-24.3,12-31.7,13.7
		c-7.3,1.7-12,4.3-19,2c-7-2.3-13-7.7-13-3.7s0.7,7.7,10.3,8.7s52.7,1.3,67.7-3c15-4.3,33.7-10,33.7-10"/>
	</g>
	<g class="animate-line">
	<path fill="none" stroke="#E38B7B" stroke-dasharray="2,1" d="M-168.7,240.7c0,0-7,1-10.3,7.7c-3.3,6.7,2,13.7-14.7,9.3
		c-16.7-4.3-26.7-9-50.3-6.3c-23.7,2.7-39.7,4.7-50.3,3.7c-10.7-1-21.7-5-21.7-5"/>
	</g>
	<g class="animate-line">
	<path fill="none" stroke="#E38B7B" stroke-dasharray="2,1" d="M-109,274c0,0,2.3,10,8.7,15"/>
</g>
<g class="animate-line">
	<path fill="none" stroke="#E38B7B" stroke-dasharray="2,1" d="M-89,276.7c0,0,1.3,4.7,2.3,8.7"/>
</g>
<g id="red-dot">
	<path fill="#EF4938" stroke="#FFFFFF" stroke-width="0.75" stroke-miterlimit="10" d="M-314,250.2c0,1-0.8,1.7-1.8,1.7
		s-1.7-0.8-1.7-1.8c0-0.9,0.8-1.7,1.7-1.7C-314.8,248.4-314,249.2-314,250.2L-314,250.2"/>
	<path fill="#EF4938" stroke="#FFFFFF" stroke-width="0.75" stroke-miterlimit="10" d="M-324.6,184.2c0-1-0.8-1.8-1.8-1.7
		c-1,0-1.8,0.8-1.7,1.8c0,1,0.8,1.7,1.8,1.7C-325.4,186-324.6,185.1-324.6,184.2"/>
	<path fill="#EF4938" stroke="#FFFFFF" stroke-width="0.75" stroke-miterlimit="10" d="M-377,208.9c0,1-0.8,1.7-1.8,1.7
		s-1.7-0.8-1.7-1.8c0-0.9,0.8-1.7,1.7-1.7C-377.8,207.2-377,208-377,208.9"/>
	<path fill="#EF4938" stroke="#FFFFFF" stroke-width="0.75" stroke-miterlimit="10" d="M-108.3,272.2c0-1-0.8-1.7-1.8-1.7
		s-1.7,0.8-1.7,1.8s0.8,1.7,1.8,1.7C-109.1,274-108.3,273.2-108.3,272.2L-108.3,272.2"/>
	<path fill="#EF4938" stroke="#FFFFFF" stroke-width="0.75" stroke-miterlimit="10" d="M-85.6,284.1c0-1-0.8-1.7-1.8-1.7
		s-1.7,0.8-1.7,1.8s0.8,1.7,1.8,1.7C-86.4,285.9-85.6,285.1-85.6,284.1L-85.6,284.1"/>
	<path fill="#EF4938" stroke="#FFFFFF" stroke-width="0.75" stroke-miterlimit="10" d="M-88.2,275.2c0-1-0.8-1.7-1.8-1.7
		s-1.7,0.8-1.7,1.8s0.8,1.7,1.8,1.7C-89,277-88.2,276.2-88.2,275.2L-88.2,275.2"/>
	<path fill="#EF4938" stroke="#FFFFFF" stroke-width="0.75" stroke-miterlimit="10" d="M-79.3,274.5c0-1-0.8-1.7-1.8-1.7
		s-1.7,0.8-1.7,1.8s0.8,1.7,1.8,1.7C-80.1,276.3-79.3,275.4-79.3,274.5L-79.3,274.5"/>
	<path fill="#EF4938" stroke="#FFFFFF" stroke-width="0.75" stroke-miterlimit="10" d="M-105.4,282c0-1-0.8-1.7-1.8-1.7
		s-1.7,0.8-1.7,1.8s0.8,1.7,1.8,1.7C-106.2,283.8-105.4,283-105.4,282L-105.4,282"/>
	<path fill="#EF4938" stroke="#FFFFFF" stroke-width="0.75" stroke-miterlimit="10" d="M-97.5,289c0-1-0.8-1.7-1.8-1.7
		s-1.7,0.8-1.7,1.8s0.8,1.7,1.8,1.7C-98.3,290.7-97.5,289.9-97.5,289L-97.5,289"/>
	<path fill="#EF4938" stroke="#FFFFFF" stroke-width="0.75" stroke-miterlimit="10" d="M-202.8,240.6c0,1-0.8,1.7-1.8,1.7
		s-1.7-0.8-1.7-1.8s0.8-1.7,1.8-1.7C-203.6,238.9-202.8,239.7-202.8,240.6L-202.8,240.6"/>
	<path fill="#EF4938" stroke="#FFFFFF" stroke-width="0.75" stroke-miterlimit="10" d="M-293.3,189.1c0-1-0.8-1.8-1.8-1.7
		s-1.8,0.8-1.7,1.8c0,1,0.8,1.7,1.8,1.7C-294.1,190.9-293.3,190.1-293.3,189.1"/>
	<path fill="#EF4938" stroke="#FFFFFF" stroke-width="0.75" stroke-miterlimit="10" d="M-311.8,213.5c0,1-0.8,1.8-1.8,1.7
		c-1,0-1.8-0.8-1.7-1.8c0-1,0.8-1.7,1.8-1.7C-312.6,211.7-311.8,212.5-311.8,213.5"/>
	<path fill="#EF4938" stroke="#FFFFFF" stroke-width="0.75" stroke-miterlimit="10" d="M-372.4,209.7c0,1-0.8,1.7-1.8,1.7
		s-1.7-0.8-1.7-1.8c0-0.9,0.8-1.7,1.7-1.7C-373.2,208-372.4,208.8-372.4,209.7"/>
	<path fill="#EF4938" stroke="#FFFFFF" stroke-width="0.75" stroke-miterlimit="10" d="M-97.9,277.1c0-1-0.8-1.7-1.8-1.7
		s-1.7,0.8-1.7,1.8s0.8,1.7,1.8,1.7C-98.7,278.9-97.9,278-97.9,277.1L-97.9,277.1"/>
	<path fill="#EF4938" stroke="#FFFFFF" stroke-width="0.75" stroke-miterlimit="10" d="M-181.6,238.1c0,1-0.8,1.7-1.8,1.7
		s-1.7-0.8-1.7-1.8s0.8-1.7,1.8-1.7C-182.4,236.4-181.6,237.2-181.6,238.1L-181.6,238.1"/>
	<path fill="#EF4938" stroke="#FFFFFF" stroke-width="0.75" stroke-miterlimit="10" d="M-164,242.1c0,1-0.8,1.7-1.8,1.7
		s-1.7-0.8-1.7-1.8s0.8-1.7,1.8-1.7C-164.8,240.4-164,241.2-164,242.1L-164,242.1"/>
	<path fill="#EF4938" stroke="#FFFFFF" stroke-width="0.75" stroke-miterlimit="10" d="M-187.6,258.5c0,1-0.8,1.7-1.8,1.7
		s-1.7-0.8-1.7-1.8s0.8-1.7,1.8-1.7C-188.4,256.8-187.6,257.6-187.6,258.5L-187.6,258.5"/>
</g>
<g id="country">
	<text transform="matrix(1 0 0 1 -339 370.5)" fill="#333333" font-family="'CuratorBold'" font-size="17px">Kenya</text>
	<text transform="matrix(1 0 0 1 -245 376.5)" fill="#5B7398" font-family="'CuratorBold'" font-size="14px">Indian Ocean</text>
	<text transform="matrix(1 0 0 1 -241.5 290.5)" fill="#333333" font-family="'CuratorBold'" font-size="17px">Pakistan</text>
	<text transform="matrix(1 0 0 1 -150.5 268.5)" fill="#333333" font-family="'CuratorBold'" font-size="17px">China</text>
	<text transform="matrix(1 0 0 1 -336 229.5)" fill="#333333" font-family="'CuratorBold'" font-size="17px">Ukraine</text>
	<text transform="matrix(1 0 0 1 -416 200)" fill="#333333" font-family="'CuratorBold'" font-size="17px">Netherlands</text>
	<text transform="matrix(1 0 0 1 -213.5 207)" fill="#333333" font-family="'CuratorBold'" font-size="17px">Kazakhstan</text>
	<text transform="matrix(1 0 0 1 -349 441)" fill="#333333" font-family="'CuratorRegular" font-size="13px">Maritime Silk Road initiative</text>
	<text transform="matrix(1 0 0 1 -350 422.5)" fill="#333333" font-family="'CuratorRegular'" font-size="13px">Silk Road Economic Belt</text>
	<line fill="none" stroke="#E38B7B" stroke-width="2" stroke-dasharray="2,1" x1="-357.5" y1="416.7" x2="-411" y2="416.7"/>

		<line fill="none" stroke="#5587C6" stroke-width="2" stroke-dasharray="2.004,1.002" x1="-357.5" y1="437.9" x2="-411" y2="437.9"/>
</g>
</svg>
