fullname,category,lowerlimit,range,upperlimit,likely,timestamp
Liberal Democratic Party,LDP,281,22,303,null,"Mainichi forecasts. By number of seats, survey conducted Oct 13-15, 2017"
Komeito,Komeito,30,3,33,null,null
Nippon Ishin (Japan Innovation Party),JIP,10,3,13,null,null
Social Democratic Party,SDP,1,0,1,null,null
Party of Hope,Party of Hope,42,12,54,null,null
Constitutional Democratic Party of Japan,CDP,45,4,49,null,null
Japanese Communist Party,JCP,11,7,18,null,null
Independents,Independents,18,5,23,null,null
