category,words,cat_words
government,,government
government,,policy
government,,ministry
government,,civil service
government,,public service
education,,education
education,,school
education,,university
education,,ITE
education,,polytechnics
education,,junior colleges
education,,study
jobs,,work
jobs,,job
jobs,,employment
jobs,,wages
jobs,,career
jobs,,skills
housing,,housing
housing,,HDB
housing,,flats
housing,,property
housing,,real estate
social,,social
social,,family
social,,community
social,,low-income
social,,support
social,,welfare
economy,,economy
economy,,income
economy,,spending
economy,,gdp
economy,,growth
healthcare,,health
healthcare,,hospital
healthcare,,medical
healthcare,,ageing
healthcare,,GP
healthcare,,Healthcare
healthcare,,Medishield
transport,,transport
transport,,MRT
transport,,COE
transport,,cars
transport,,bus
retirement,,retirement
retirement,,housing
retirement,,CPF
retirement,,savings
retirement,,silver
,support - 2016,
,help - 2016,
,singapore - 2016,
,million - 2016,
,tax - 2016,
,water- 2016,