<?xml version="1.0" encoding="utf-8"?>
<!-- Generator: Adobe Illustrator 19.1.0, SVG Export Plug-In . SVG Version: 6.00 Build 0)  -->
<svg version="1.1" id="Layer_1" xmlns="http://www.w3.org/2000/svg" xmlns:xlink="http://www.w3.org/1999/xlink" x="0px" y="0px"
	 width="30px" height="16.9px" viewBox="0 0 30 16.9" enable-background="new 0 0 30 16.9" xml:space="preserve">
<g>
	
		<circle fill="none" stroke="#EF4123" stroke-linecap="round" stroke-linejoin="round" stroke-miterlimit="10" cx="7.7" cy="10.9" r="4.2"/>
	
		<circle fill="none" stroke="#EF4123" stroke-linecap="round" stroke-linejoin="round" stroke-miterlimit="10" cx="22.3" cy="10.9" r="4.2"/>
	<polyline fill="none" stroke="#EF4123" stroke-linecap="round" stroke-linejoin="round" stroke-miterlimit="10" points="12.3,10 
		7.9,10 11.7,3.9 20.1,3.9 14.6,9.4 	"/>
	
		<circle fill="none" stroke="#EF4123" stroke-linecap="round" stroke-linejoin="round" stroke-miterlimit="10" cx="14" cy="10.7" r="1.3"/>
	
		<line fill="none" stroke="#EF4123" stroke-linecap="round" stroke-linejoin="round" stroke-miterlimit="10" x1="13.7" y1="9.4" x2="11.1" y2="2.1"/>
	
		<line fill="none" stroke="#EF4123" stroke-linecap="round" stroke-linejoin="round" stroke-miterlimit="10" x1="9.2" y1="1.9" x2="14.4" y2="1.9"/>
	<path fill="none" stroke="#EF4123" stroke-linecap="round" stroke-linejoin="round" stroke-miterlimit="10" d="M22.4,10.4l-3.2-9.1
		h3.4c0,0,1.6,0.4,1.6,1.8s-1.5,1.5-1.5,1.5"/>
	
		<line fill="none" stroke="#EF4123" stroke-linecap="round" stroke-linejoin="round" stroke-miterlimit="10" x1="13.7" y1="12" x2="13.3" y2="13.1"/>
</g>
</svg>
