<?xml version="1.0" encoding="utf-8"?>
<!-- Generator: Adobe Illustrator 19.1.0, SVG Export Plug-In . SVG Version: 6.00 Build 0)  -->
<svg version="1.1" xmlns="http://www.w3.org/2000/svg" xmlns:xlink="http://www.w3.org/1999/xlink" x="0px" y="0px" width="350px"
	 height="539.5px" viewBox="0 0 350 539.5" enable-background="new 0 0 350 539.5" xml:space="preserve">
<g id="Layer_1">
	<image overflow="visible" width="700" height="728" xlink:href="bg-map-1.jpg"  transform="matrix(0.5 0 0 0.5 0 0.1209)">
	</image>
	<text transform="matrix(1 0 0 1 66.252 23.4595)" fill="#333333" font-family="'CuratorHeadSTRegular'" font-size="16px">PUNGGOL</text>
	<text transform="matrix(1 0 0 1 147.5768 294.6423)" fill="#333333" font-family="'CuratorHeadSTRegular'" font-size="16px">TAMPINES</text>
	<text transform="matrix(1 0 0 1 249.4862 153.4651)" fill="#333333" font-family="'CuratorHeadSTRegular'" font-size="16px">PASIR RIS</text>
	<polyline fill="none" stroke="#333333" stroke-miterlimit="10" points="283.5,316 283.5,320.5 329.5,320.5 329.5,317 	"/>
	<text transform="matrix(1 0 0 1 294.6104 337.0181)" fill="#333333" font-family="'CuratorHeadSTRegular'" font-size="16px">1km</text>
	<circle display="none" fill="#EF4123" cx="230.2" cy="131.8" r="14.2"/>
	
		<circle display="none" fill="none" stroke="#FFFFFF" stroke-width="1.0302" stroke-linecap="round" stroke-linejoin="round" stroke-miterlimit="10" cx="223.6" cy="133.3" r="3.5"/>
	
		<circle display="none" fill="none" stroke="#FFFFFF" stroke-width="1.0302" stroke-linecap="round" stroke-linejoin="round" stroke-miterlimit="10" cx="235.9" cy="133.3" r="3.5"/>
	
		<polyline display="none" fill="none" stroke="#FFFFFF" stroke-width="2" stroke-linecap="round" stroke-linejoin="round" stroke-miterlimit="10" points="
		227,133 223.7,133 226.9,128 234.1,128 229.2,132.6 	"/>
	
		<circle display="none" fill="none" stroke="#FFFFFF" stroke-width="1.0302" stroke-linecap="round" stroke-linejoin="round" stroke-miterlimit="10" cx="228.9" cy="133.2" r="1.1"/>
	
		<line display="none" fill="none" stroke="#FFFFFF" stroke-width="1.0302" stroke-linecap="round" stroke-linejoin="round" stroke-miterlimit="10" x1="228.6" y1="132" x2="226.5" y2="125.9"/>
	
		<line display="none" fill="none" stroke="#FFFFFF" stroke-width="0.7329" stroke-linecap="round" stroke-linejoin="round" stroke-miterlimit="10" x1="224.9" y1="125.7" x2="229.3" y2="125.7"/>
	
		<path display="none" fill="none" stroke="#FFFFFF" stroke-width="2" stroke-linecap="round" stroke-linejoin="round" stroke-miterlimit="10" d="
		M236,133.3l-2.7-7.3h2.8c0,0,1.3,0,1.3,1.2s-1.2,1.2-1.2,1.2"/>
	
		<line display="none" fill="none" stroke="#FFFFFF" stroke-width="1.0302" stroke-linecap="round" stroke-linejoin="round" stroke-miterlimit="10" x1="228.6" y1="134.3" x2="228.3" y2="135.2"/>
	<path fill="none" stroke="#FFFFFF" stroke-width="0.5903" stroke-miterlimit="10" d="M146.7,200.3v0.8c0,1.7,2.5,1.7,2.5,0v-0.8"/>
	<path fill="none" stroke="#FFFFFF" stroke-width="0.5903" stroke-miterlimit="10" d="M157,200.3v0.8c0,1.7,2.5,1.7,2.5,0v-0.8"/>
	<polygon fill="none" stroke="#FFFFFF" stroke-width="0.5903" stroke-miterlimit="10" points="146,199.8 146,193.5 146,187.7 
		160.2,187.7 160.2,193.5 160.2,199.7 	"/>
	<polyline fill="none" stroke="#FFFFFF" stroke-width="0.5903" stroke-miterlimit="10" points="146,191.8 146,186 160.2,186 
		160.2,191.8 	"/>
	<line fill="none" stroke="#FFFFFF" stroke-width="0.5903" stroke-miterlimit="10" x1="153.3" y1="193.6" x2="154.7" y2="190.7"/>
	<line fill="none" stroke="#FFFFFF" stroke-width="0.5903" stroke-miterlimit="10" x1="145.9" y1="193.5" x2="160" y2="193.5"/>
	<path fill="none" stroke="#FFFFFF" stroke-width="0.5903" stroke-miterlimit="10" d="M159.9,192.8"/>
	<g id="fadein-1">
		<g>
			<g>
				
					<rect x="118.5" y="380.8" fill="#EFF3F4" stroke="#FFFFFF" stroke-width="0.8851" stroke-miterlimit="10" width="28.2" height="14"/>
			</g>
		</g>
		<text transform="matrix(1 0 0 1 52.5785 392.3447)" fill="#333333" font-family="'CuratorHeadSTRegular'" font-size="16px">CAR</text>
		<text transform="matrix(1 0 0 1 155.9117 393.4299)" fill="#333333" font-family="'CuratorHeadSTBold'" font-size="16px">14min</text>
		<text transform="matrix(1 0 0 1 204.4119 393.2634)" fill="#333333" font-family="'CuratorHeadSTRegular'" font-size="16px">$9.80</text>
		<circle fill="#5A9DDC" cx="22.7" cy="388.4" r="19.4"/>
		<path fill="none" stroke="#FFFFFF" stroke-width="1.4057" stroke-miterlimit="10" d="M15.2,390.6c-0.9,0-1.6-0.7-1.6-1.6
			c0-0.9,0.7-1.6,1.6-1.6c0.9,0,1.6,0.7,1.6,1.6C16.8,389.8,16,390.6,15.2,390.6z M30.9,390.6c-0.9,0-1.6-0.7-1.6-1.6
			c0-0.9,0.7-1.6,1.6-1.6c0.9,0,1.6,0.7,1.6,1.6C32.4,389.8,31.7,390.6,30.9,390.6z"/>
		<path fill="none" stroke="#FFFFFF" stroke-width="1.4057" stroke-miterlimit="10" d="M32.4,384.9l-1.9-4.8
			c-0.4-0.9-1.1-1.7-2.6-1.7h-2.6h-4.5h-2.7c-1.4,0-2.2,0.8-2.6,1.7l-1.9,4.8c-0.7,0.1-2.1,1-2.1,2.6v6.2h1.8v2c0,2.4,3.4,2.4,3.4,0
			v-2H23h6.2v2c0,2.4,3.4,2.4,3.4,0v-2h1.8v-6.2C34.5,385.8,33.1,384.9,32.4,384.9z"/>
		<line fill="none" stroke="#FFFFFF" stroke-width="1.4057" stroke-miterlimit="10" x1="11.6" y1="393.7" x2="34.5" y2="393.7"/>
		<polyline fill="none" stroke="#FFFFFF" stroke-width="1.4057" stroke-miterlimit="10" points="32.1,384.7 26.1,384.7 22.9,384.7 
			13.9,384.7 		"/>
	</g>
	<g id="fadein-2">
		<g>
			<g>
				
					<rect x="118.5" y="440.8" fill="#EFF3F4" stroke="#FFFFFF" stroke-width="0.8851" stroke-miterlimit="10" width="72.1" height="13"/>
			</g>
		</g>
		<g>
			<circle fill="#EF4123" cx="22.3" cy="449" r="19.4"/>
		</g>
		<text transform="matrix(1 0 0 1 52.5785 453.3447)" fill="#333333" font-family="'CuratorHeadSTRegular'" font-size="16px">CYCLE</text>
		<text transform="matrix(1 0 0 1 199.7451 452.0964)" fill="#333333" font-family="'CuratorHeadSTBold'" font-size="16px">35min</text>
		<text transform="matrix(1 0 0 1 251.0785 452.0964)" fill="#333333" font-family="'CuratorHeadSTRegular'" font-size="16px">$0.00</text>
		
			<circle fill="none" stroke="#FFFFFF" stroke-width="1.4057" stroke-linecap="round" stroke-linejoin="round" stroke-miterlimit="10" cx="13.2" cy="451.1" r="4.8"/>
		
			<circle fill="none" stroke="#FFFFFF" stroke-width="1.4057" stroke-linecap="round" stroke-linejoin="round" stroke-miterlimit="10" cx="30.1" cy="451.1" r="4.8"/>
		<polyline fill="none" stroke="#FFFFFF" stroke-linecap="round" stroke-linejoin="round" stroke-miterlimit="10" points="18,450.5 
			13.4,450.5 17.8,443.5 27.6,443.5 21,449.8 		"/>
		
			<circle fill="none" stroke="#FFFFFF" stroke-width="1.4057" stroke-linecap="round" stroke-linejoin="round" stroke-miterlimit="10" cx="20.5" cy="450.9" r="1.5"/>
		
			<line fill="none" stroke="#FFFFFF" stroke-width="1.4057" stroke-linecap="round" stroke-linejoin="round" stroke-miterlimit="10" x1="20.1" y1="449.3" x2="17.2" y2="440.9"/>
		
			<line fill="none" stroke="#FFFFFF" stroke-linecap="round" stroke-linejoin="round" stroke-miterlimit="10" x1="15" y1="440.7" x2="21" y2="440.7"/>
		<path fill="none" stroke="#FFFFFF" stroke-linecap="round" stroke-linejoin="round" stroke-miterlimit="10" d="M30.2,450.7
			l-3.7-10.2h3.9c0,0,1.8,0.3,1.8,1.9c0,1.6-1.7,1.7-1.7,1.7"/>
		
			<line fill="none" stroke="#FFFFFF" stroke-width="1.4057" stroke-linecap="round" stroke-linejoin="round" stroke-miterlimit="10" x1="20.1" y1="452.4" x2="19.7" y2="453.6"/>
	</g>
	<g id="fadein-3">
		<g>
			<g>
				<g>
					
						<rect x="118.5" y="498.8" fill="#EFF3F4" stroke="#FFFFFF" stroke-width="0.8851" stroke-miterlimit="10" width="120.6" height="14"/>
				</g>
			</g>
		</g>
		<g>
			<circle fill="#56C8CE" cx="22.8" cy="507.6" r="19.4"/>
			<g>
				<path fill="#FFFFFF" d="M29.9,508.4c-1,0-1.9,0.9-1.9,1.9s0.9,1.9,1.9,1.9c1,0,1.9-0.9,1.9-1.9S30.9,508.4,29.9,508.4z
					 M29.9,511.3c-0.6,0-1-0.5-1-1s0.5-1,1-1c0.6,0,1,0.5,1,1C30.9,510.8,30.5,511.3,29.9,511.3z"/>
				<path fill="#FFFFFF" d="M15.8,508.4c-1,0-1.9,0.9-1.9,1.9s0.9,1.9,1.9,1.9s1.9-0.9,1.9-1.9S16.8,508.4,15.8,508.4z M15.8,511.3
					c-0.6,0-1-0.5-1-1s0.5-1,1-1s1,0.5,1,1C16.8,510.8,16.3,511.3,15.8,511.3z"/>
			</g>
		</g>
		<g>
			<path fill="none" stroke="#FFFFFF" stroke-width="1.4057" stroke-miterlimit="10" d="M13.9,514.8v1.1c0,2.4,3.4,2.4,3.4,0v-1.1"
				/>
			<path fill="none" stroke="#FFFFFF" stroke-width="1.4057" stroke-miterlimit="10" d="M28.3,514.8v1.1c0,2.4,3.4,2.4,3.4,0v-1.1"
				/>
		</g>
		<text transform="matrix(1 0 0 1 52.5785 511.3447)" fill="#333333" font-family="'CuratorHeadSTRegular'" font-size="16px">LRT/BUS</text>
		<text transform="matrix(1 0 0 1 249.9119 511.0964)" fill="#333333" font-family="'CuratorHeadSTBold'" font-size="16px">59min</text>
		<text transform="matrix(1 0 0 1 301.4119 510.9299)" fill="#333333" font-family="'CuratorHeadSTRegular'" font-size="16px">$3.06</text>
		
			<polygon fill="none" stroke="#FFFFFF" stroke-width="1.4057" stroke-linecap="round" stroke-linejoin="round" stroke-miterlimit="10" points="
			12.9,514.2 12.9,505.5 12.9,497.4 32.6,497.4 32.6,505.5 32.6,514 		"/>
		
			<polyline fill="none" stroke="#FFFFFF" stroke-width="1.4057" stroke-linecap="round" stroke-linejoin="round" stroke-miterlimit="10" points="
			12.9,503 12.9,494.9 32.6,494.9 32.6,503 		"/>
		
			<line fill="none" stroke="#FFFFFF" stroke-width="1.4057" stroke-linecap="round" stroke-linejoin="round" stroke-miterlimit="10" x1="23.1" y1="505.5" x2="25" y2="501.6"/>
		
			<line fill="none" stroke="#FFFFFF" stroke-width="1.4057" stroke-linecap="round" stroke-linejoin="round" stroke-miterlimit="10" x1="12.8" y1="505.5" x2="32.4" y2="505.5"/>
		
			<path fill="none" stroke="#000000" stroke-width="1.4057" stroke-linecap="round" stroke-linejoin="round" stroke-miterlimit="10" d="
			M32.2,504.4"/>
	</g>
</g>
<g id="lines">
	<path fill="none" stroke="#EF4123" stroke-width="2.5" stroke-miterlimit="10" d="M102,51.4l42.5,46.9l56.2,39.9l51.4,33.1
		l29.5,5.5l6.8,19c0,0,3.5,17.6-4.6,28.4c-8.2,10.8-21.6,21.2-21.6,21.2s-16.8,9.5-18.3,14.6c-1.5,5.1-1.8,19.6-0.9,21.8
		c0.9,2.2,5.7,12.3,5.7,12.3l-7.7,3.1l-1.8-5.5l-5.5-5.2"/>
	<path fill="none" stroke="#5A9DDC" stroke-width="2.5" stroke-miterlimit="10" d="M101,50.9L82.8,40L56,82.6l64.5,68.4l59.5,19.2
		l71.6,46.9c0,0-2.4,11.5-8.6,18.6s-13.5,12-12.8,18.3c0,0-1.1,13,12.6,14.5l11.9,0.7l-1.3,22.3c0,0-2.9,7.1-7.3,7.7
		c-4.4,0.7-9.3,1.1-9.3,1.1l0.2-7.1l-3.9-7.2"/>
	<path fill="none" stroke="#56C8CE" stroke-width="2.5" stroke-miterlimit="10" d="M101.9,50.2L72.6,31.8l-41.8,72.4l3.7,3.7
		l8.2-15.7l5.5,2.9l6.5-10.3l64.1,69.8l59,18.5l-5.7,17l1.6,60.3l53.7,0.9c0,0,0,13.6,5.5,16.2s17.5,4.1,17.5,4.1l-0.4,15.4
		l-4.9,5.8l-10.9-7.9"/>
</g>
<g id="Layer_3">
	<circle opacity="0.2" cx="233.6" cy="285.2" r="7.1"/>
	<circle cx="233.6" cy="285.2" r="1.7"/>
	<circle opacity="0.2" cx="101.8" cy="51.1" r="7.1"/>
	<circle cx="101.8" cy="51.1" r="1.7"/>
</g>
</svg>
