<?xml version="1.0" encoding="utf-8"?>
<!-- Generator: Adobe Illustrator 19.1.0, SVG Export Plug-In . SVG Version: 6.00 Build 0)  -->
<svg version="1.1" id="Layer_1" xmlns="http://www.w3.org/2000/svg" xmlns:xlink="http://www.w3.org/1999/xlink" x="0px" y="0px"
	 viewBox="0 0 75 54.3" enable-background="new 0 0 75 54.3" xml:space="preserve">
<g>
	<path fill="#FFFFFF" d="M33.8,20.9c0,13.3-11.7,27.7-29.4,33.5l-1.2-2.3c10.7-5.4,14.9-11.2,14.9-18.4c0-6.1-4.6-10.9-16.3-11
		c-1.1-1.8-1.2-3.9-1.2-5.8C0.5,6.2,9.3,1.2,15.8,1.2C27.3,1.2,33.8,9.3,33.8,20.9z M75,20.9c0,13.3-11.7,27.7-29.4,33.5l-1.2-2.3
		C55,46.6,59.2,40.8,59.2,33.7c0-6.1-4.6-10.9-16.3-11c-1.1-1.8-1.2-3.9-1.2-5.8C41.7,6.2,50.5,1.2,57,1.2C68.7,1.2,75,9.3,75,20.9z
		"/>
</g>
</svg>
