<?xml version="1.0" encoding="utf-8"?>
<!-- Generator: Adobe Illustrator 19.1.0, SVG Export Plug-In . SVG Version: 6.00 Build 0)  -->
<svg version="1.0" xmlns="http://www.w3.org/2000/svg" xmlns:xlink="http://www.w3.org/1999/xlink" x="0px" y="0px"
	 viewBox="0 0 500 500" enable-background="new 0 0 500 500" xml:space="preserve">
<g id="group-of-3-mrb">
	<image overflow="visible" width="500" height="500" xlink:href="group-of-3-mrb.png" >
	</image>
</g>
<g id="selected-black-blouse">
	<image overflow="visible" width="500" height="500" xlink:href="selected-black-blouse.png" >
	</image>
</g>
<g id="selected-mint-kabaya">
	<image overflow="visible" width="500" height="500" xlink:href="selected-mint.png" >
	</image>
</g>
<g id="selected-red-blouse">
	<image overflow="visible" width="500" height="500" xlink:href="selected-red-blouse.png" >
	</image>
</g>
<g id="path-black-blouse" display="none">
	<path display="inline" fill-rule="evenodd" clip-rule="evenodd" fill="#92AFFF" d="M234.9,150.9h5c0,0,1.1-6.7,4-8
		c0,0-1.7-11.5,6-17c0,0-3.4-25.8,10-27c0,0-9.6,1.2-5-13c0,0-1.4-58.9,15-70c0,0,14.7-19.9,35-3c0,0,14.6,9.4,33,62
		c0,0,7.8,8.4,20,7l-1,3c0,0,9.2-0.6,12,18l9,18l18,22c0,0,4.7-2.2,16,15l29,29l13,6c0,0,11.5-1.2,5,9c0,0,0,4.6,14,3
		c0,0,2.3-3.7,16-1l10-3c0,0,0.8,6.6-7,8l-2,2c0,0,15.5,2.4,5,15c0,0-1.6,5.5-4,6c0,0-5,4.9-10,3l-6-5c0,0-14.5-0.3-23-9h-3l-20,4
		c0,0-32-0.4-68-62v103v8l-10,6l-8,17c0,0-4.4,12.2-11,17l-8,34c0,0,4.1,10.6,1,14c0,0,7.2,3.7,6,12c0,0,13.7,43.1,13,55l-3,4
		c0,0,2,19.3,5,21c0,0,10.1,15.7-9,20l-22,10c0,0-1.9,1.4-5,1c0,0-5,1.3-7-1c0,0-2.8,1.4-5-1c0,0-7.7,0.3-7-3c0,0-6.8-4.3,2-8l7-5
		c0,0,2-2.5,6-3c0,0,13.5-13.6,15-17l1-9l-7-4l-7-17l5,21c0,0,6.3,20.9-9,18c0,0-9.9,0.9-11,6c0,0-13.4,12.2-20,11
		c0,0-12.3-6.1-8-11c0,0-2.7-11.4,9-8c0,0,14.4-7.4,17-17c0,0-1.1-14.7-4-23l-4-4c0,0-14.3-56.2-11-64c0,0-13.5-27-17-63l-3-1l4-76
		l2-2L234.9,150.9z"/>
</g>
<g id="path-red-blouse" display="none">
	<path display="inline" fill-rule="evenodd" clip-rule="evenodd" fill="#92AFFF" d="M125.9,66.8c0,0-1.8-6.6,3-7c0,0-3-12.7,7-15
		c0,0,6.3-8.4,14-10c0,0,13.9-12,25,4l11,3c0,0,13.3,9.3,8,14l2,8c0,0,5.3,2,4,17l-10,16c0,0,1,4.7-2,7l2,2c0,0,28,7,33,16
		c5,9,34,80,34,80l-4,66c0,0-2.3,31.6,0,36c0,0,0.9,3.5-4,4c0,0-2.4,5.7-6,2c0,0-1.2,4.4-5,3c0,0,0.4,10.7-6,1l-5,14l-5,34
		c0,0-0.8,25.1-4,28c-2.1,1.9-0.5,28.1-10,37c0,0,5.6,4.5,1,14l16,15c0,0,3.5,5.6-2,6c0,0-1.2,6.9-7,6c0,0-2.6,6.2-19-2
		c0,0-3.5-4.4-1-7l-6-10l1-5h-5c0,0-10.4,3-17,13c0,0-1.5,6.9-16,4l-7,1c0,0-3.7-0.4,0-3c0,0-12.1-12.8,6-14l13-9l1-10
		c0,0-4.5,3.1-2-25c0,0-7.7-14-6-30l-1-17c0,0-5.3-7.9-3-19c0,0-8.3-17.9-6-27l-4-17l-5-5l-2-12l-2-3c0,0-2.5-57.5,4-72l-15-74
		c0,0,18.4-13.3,26-13c0,0,0.8-6.9-4-7c0,0-9.9,7.6-14-9c0,0-7.7-2.2-7-9C124.9,86.8,116,73,125.9,66.8z"/>
</g>
<g id="path-mint-kabaya" display="none">
	<path display="inline" fill-rule="evenodd" clip-rule="evenodd" fill="#92AFFF" d="M5.8,107.9c0,0-8.4,28-5,49
		c3.4,21,13.4,59.8,23,77c0,0-3.2,8.1-3,16l4,2c0,0-0.6,20.5,9,37c0,0,12.2,43.9,8,75c-4.2,31.1-6.3,89.2-7,99c-0.7,9.8-2,14-2,14
		l8,2l10-7c0,0,3.3-0.9,7,5c3.7,5.9-2.3,8.3,19,12c0,0,27.9,0.6,42-11c7.2-5.9,20.5-13.6,20-25c-0.2-4.5,6-12,6-12s-8.9-70.9-10-95
		c-1.1-24.1-2.7-70.5,0-79c0,0-1.4-35-1-41l4-4l-5-24h4c0,0-16.4-98.4-16-107c0,0-7.6-10.9-19-14c-1.2-0.3,20.5-24.6,5-60
		c-1.2-2.8-10.3-18.9-39-4c-1.1,0.6-11.7,7.2-16,27l-31,38l-14,18L5.8,107.9z"/>
</g>
</svg>
