
<svg version="1.1" id="Layer_1" xmlns="http://www.w3.org/2000/svg" xmlns:xlink="http://www.w3.org/1999/xlink" x="0px" y="0px"
	 width="18.02px" height="25.7px" viewBox="0 0 18.02 25.7" enable-background="new 0 0 18.02 25.7" xml:space="preserve">
<rect x="1.11" y="1.41" fill="#999999" width="1.5" height="23.29"/>
<rect x="1.11" y="2.69" fill="#999999" width="16.51" height="11.5"/>
</svg>
