<svg version="1.1" class="Layer_1" xmlns="http://www.w3.org/2000/svg" xmlns:xlink="http://www.w3.org/1999/xlink" x="0px" y="0px"
	 width="320px" height="109.7px" viewbox="0 0 320 109.7" enable-background="new 0 0 320 109.7" xml:space="preserve">
<pattern  x="-251.2" width="78" height="68" patternUnits="userSpaceOnUse" class="New_Pattern_Swatch_2" viewBox="0 -68 78 68" overflow="visible">
	<g>
		<polygon fill="none" points="0,0 78,0 78,-68 0,-68 		"/>
		<g>
			<polygon fill="#5979A6" points="78,0 0,0 0,-68 78,-68 			"/>
		</g>
	</g>
</pattern>
<g>
	<text transform="matrix(1 0 0 1 54.1121 102.8057)" fill="#333333" font-family="'CuratorRegular'" font-size="12px">1910</text>
</g>
<g>
	<text transform="matrix(1 0 0 1 99.3651 102.8057)" fill="#333333" font-family="'CuratorRegular'" font-size="12px">1930</text>
</g>
<g>
	<text transform="matrix(1 0 0 1 144.6185 102.8057)" fill="#333333" font-family="'CuratorRegular'" font-size="12px">1950</text>
</g>
<g>
	<text transform="matrix(1 0 0 1 189.8714 102.8057)" fill="#333333" font-family="'CuratorRegular'" font-size="12px">1970</text>
</g>
<g>
	<text transform="matrix(1 0 0 1 235.1234 102.8057)" fill="#333333" font-family="'CuratorRegular'" font-size="12px">1990</text>
</g>
<g>
	<text transform="matrix(1 0 0 1 278.6195 102.8057)" fill="#333333" font-family="'CuratorRegular'" font-size="12px">2010</text>
</g>
<line fill="none" stroke="#333333" stroke-miterlimit="10" x1="57.8" y1="88.5" x2="307.8" y2="88.5"/>
<g>
	<g>
		<line fill="none" stroke="#A6A6A6" stroke-miterlimit="10" x1="57.8" y1="77.5" x2="57.8" y2="77.5"/>
		<line fill="none" stroke="#A6A6A6" stroke-miterlimit="10" stroke-dasharray="1,2" x1="59.8" y1="77.5" x2="305.8" y2="77.5"/>
		<line fill="none" stroke="#A6A6A6" stroke-miterlimit="10" x1="306.8" y1="77.5" x2="307.8" y2="77.5"/>
	</g>
</g>
<g>
	<g>
		<line fill="none" stroke="#A6A6A6" stroke-miterlimit="10" x1="57.8" y1="67.5" x2="57.8" y2="67.5"/>
		<line fill="none" stroke="#A6A6A6" stroke-miterlimit="10" stroke-dasharray="1,2" x1="59.8" y1="67.5" x2="305.8" y2="67.5"/>
		<line fill="none" stroke="#A6A6A6" stroke-miterlimit="10" x1="306.8" y1="67.5" x2="307.8" y2="67.5"/>
	</g>
</g>
<g>
	<g>
		<line fill="none" stroke="#A6A6A6" stroke-miterlimit="10" x1="57.8" y1="56.5" x2="57.8" y2="56.5"/>
		<line fill="none" stroke="#A6A6A6" stroke-miterlimit="10" stroke-dasharray="1,2" x1="59.8" y1="56.5" x2="305.8" y2="56.5"/>
		<line fill="none" stroke="#A6A6A6" stroke-miterlimit="10" x1="306.8" y1="56.5" x2="307.8" y2="56.5"/>
	</g>
</g>
<g>
	<g>
		<line fill="none" stroke="#A6A6A6" stroke-miterlimit="10" x1="57.8" y1="45.5" x2="57.8" y2="45.5"/>
		<line fill="none" stroke="#A6A6A6" stroke-miterlimit="10" stroke-dasharray="1,2" x1="59.8" y1="45.5" x2="305.8" y2="45.5"/>
		<line fill="none" stroke="#A6A6A6" stroke-miterlimit="10" x1="306.8" y1="45.5" x2="307.8" y2="45.5"/>
	</g>
</g>
<g>
	<g>
		<line fill="none" stroke="#A6A6A6" stroke-miterlimit="10" x1="57.8" y1="34.5" x2="57.8" y2="34.5"/>
		<line fill="none" stroke="#A6A6A6" stroke-miterlimit="10" stroke-dasharray="1,2" x1="59.8" y1="34.5" x2="305.8" y2="34.5"/>
		<line fill="none" stroke="#A6A6A6" stroke-miterlimit="10" x1="306.8" y1="34.5" x2="307.8" y2="34.5"/>
	</g>
</g>
<g>
	<g>
		<line fill="none" stroke="#A6A6A6" stroke-miterlimit="10" x1="57.8" y1="24.5" x2="57.8" y2="24.5"/>
		<line fill="none" stroke="#A6A6A6" stroke-miterlimit="10" stroke-dasharray="1,2" x1="59.8" y1="24.5" x2="305.8" y2="24.5"/>
		<line fill="none" stroke="#A6A6A6" stroke-miterlimit="10" x1="306.8" y1="24.5" x2="307.8" y2="24.5"/>
	</g>
</g>
<g>
	<g>
		<line fill="none" stroke="#A6A6A6" stroke-miterlimit="10" x1="57.8" y1="13.5" x2="57.8" y2="13.5"/>
		<line fill="none" stroke="#A6A6A6" stroke-miterlimit="10" stroke-dasharray="1,2" x1="59.8" y1="13.5" x2="305.8" y2="13.5"/>
		<line fill="none" stroke="#A6A6A6" stroke-miterlimit="10" x1="306.8" y1="13.5" x2="307.8" y2="13.5"/>
	</g>
</g>
<line fill="none" stroke="#333333" stroke-miterlimit="10" x1="69.3" y1="89" x2="69.3" y2="91"/>
<line fill="none" stroke="#333333" stroke-miterlimit="10" x1="92.3" y1="89" x2="92.3" y2="91"/>
<line fill="none" stroke="#333333" stroke-miterlimit="10" x1="114.3" y1="89" x2="114.3" y2="91"/>
<line fill="none" stroke="#333333" stroke-miterlimit="10" x1="136.3" y1="89" x2="136.3" y2="91"/>
<line fill="none" stroke="#333333" stroke-miterlimit="10" x1="158.3" y1="89" x2="158.3" y2="91"/>
<line fill="none" stroke="#333333" stroke-miterlimit="10" x1="181.3" y1="89" x2="181.3" y2="91"/>
<line fill="none" stroke="#333333" stroke-miterlimit="10" x1="202.3" y1="89" x2="202.3" y2="91"/>
<line fill="none" stroke="#333333" stroke-miterlimit="10" x1="226.3" y1="89" x2="226.3" y2="91"/>
<line fill="none" stroke="#333333" stroke-miterlimit="10" x1="249.3" y1="89" x2="249.3" y2="91"/>
<line fill="none" stroke="#333333" stroke-miterlimit="10" x1="270.3" y1="89" x2="270.3" y2="91"/>
<line fill="none" stroke="#333333" stroke-miterlimit="10" x1="293.3" y1="89" x2="293.3" y2="91"/>
<ellipse opacity="0.2" fill="#5A9DDC" cx="67" cy="23" rx="4.9" ry="4.9"/>
<ellipse opacity="0.2" fill="#5A9DDC" cx="67.6" cy="30.2" rx="4.9" ry="4.9"/>
<ellipse opacity="0.2" fill="#5A9DDC" cx="68.4" cy="36.2" rx="4.9" ry="4.9"/>
<ellipse opacity="0.2" fill="#5A9DDC" cx="76.5" cy="38.4" rx="4.9" ry="4.9"/>
<ellipse opacity="0.2" fill="#5A9DDC" cx="93" cy="44.8" rx="4.9" ry="4.9"/>
<g class="path" opacity="0.5">
</g>
<ellipse opacity="0.2" fill="#5A9DDC" cx="126.9" cy="51.3" rx="4.9" ry="4.9"/>
<ellipse opacity="0.2" fill="#5A9DDC" cx="152.6" cy="52.4" rx="4.9" ry="4.9"/>
<ellipse opacity="0.2" fill="#5A9DDC" cx="164.2" cy="57.4" rx="4.9" ry="4.9"/>
<ellipse opacity="0.2" fill="#5A9DDC" cx="166.2" cy="59.5" rx="4.9" ry="4.9"/>
<ellipse opacity="0.2" fill="#5A9DDC" cx="167.3" cy="59.5" rx="4.9" ry="4.9"/>
<circle opacity="0.2" fill="#5A9DDC" cx="168.9" cy="60.3" r="4.9"/>
<circle opacity="0.2" fill="#5A9DDC" cx="178" cy="63.5" r="4.9"/>
<circle opacity="0.2" fill="#5A9DDC" cx="182.6" cy="63.5" r="4.9"/>
<circle opacity="0.2" fill="#5A9DDC" cx="187.9" cy="63.1" r="4.9"/>
<circle opacity="0.2" fill="#5A9DDC" cx="193.1" cy="66.7" r="4.9"/>
<circle opacity="0.2" fill="#5A9DDC" cx="202.4" cy="70.6" r="4.9"/>
<circle opacity="0.2" fill="#5A9DDC" cx="230.3" cy="71" r="4.9"/>
<circle opacity="0.2" fill="#5A9DDC" cx="236.7" cy="70.6" r="4.9"/>
<circle opacity="0.2" fill="#5A9DDC" cx="237.8" cy="72.1" r="4.9"/>
<circle opacity="0.2" fill="#5A9DDC" cx="244.6" cy="72.4" r="4.9"/>
<circle opacity="0.2" fill="#5A9DDC" cx="268" cy="73.2" r="4.9"/>
<circle opacity="0.2" fill="#5A9DDC" cx="270.2" cy="73.5" r="4.9"/>
<circle opacity="0.2" fill="#5A9DDC" cx="279.1" cy="74.2" r="4.9"/>
<circle opacity="0.2" fill="#5A9DDC" cx="288" cy="74.9" r="4.9"/>
<circle opacity="0.2" fill="#5A9DDC" cx="297.3" cy="76" r="4.9"/>
<text transform="matrix(1 0 0 1 6.9227 12.5283)" fill="#333333" font-family="'CuratorRegular'" font-size="12px">3:00:000</text>
<text transform="matrix(1 0 0 1 6.9227 34.6157)" fill="#333333" font-family="'CuratorRegular'" font-size="12px">2:40:000</text>
<text transform="matrix(1 0 0 1 6.9227 56.3525)" fill="#333333" font-family="'CuratorRegular'" font-size="12px">2:20:000</text>
<text transform="matrix(1 0 0 1 6.9227 77.5635)" fill="#333333" font-family="'CuratorRegular'" font-size="12px">2:00:000</text>
<ellipse class="seven" opacity="0.2" fill="#5A9DDC" cx="65.7" cy="20.1" rx="4.9" ry="4.9"/>
<ellipse class="six" opacity="0.2" fill="#5A9DDC" cx="104.6" cy="48.8" rx="4.9" ry="4.9"/>
<ellipse class="five" opacity="0.2" fill="#5A9DDC" cx="125.5" cy="49.9" rx="4.9" ry="4.9"/>
<circle class="four" opacity="0.2" fill="#5A9DDC" cx="188.8" cy="63.8" r="4.9"/>
<circle class="three" opacity="0.2" fill="#5A9DDC" cx="198.7" cy="69.2" r="4.9"/>
<circle class="two" opacity="0.2" fill="#5A9DDC" cx="275.8" cy="73.9" r="4.9"/>
<circle class="one" fill="#EF4123" cx="301.5" cy="75.7" r="4.9"/>
</svg>
