
<svg version="1.1"  xmlns="http://www.w3.org/2000/svg" xmlns:xlink="http://www.w3.org/1999/xlink" x="0px" y="0px"
	 width="500px" height="695px" viewbox="-149 -197 500 695" enable-background="new -149 -197 500 695" xml:space="preserve">
<text transform="matrix(1 0 0 1 56 470.2998)" fill="#333333" font-family="'CuratorRegular'" font-size="15px"> </text>
<image overflow="visible" enable-background="new    " width="252" height="672" xlink:href="kit.png"  transform="matrix(1 0 0 1 -164 -182.5)">
</image>
<circle opacity="0.2" enable-background="new    " cx="11.4" cy="429" r="50.9"/>
<text transform="matrix(1 0 0 1 115 494.2998)" fill="#333333" font-family="'CuratorRegular'" font-size="15px"> </text>
<rect x="115" y="65.5" fill="none" width="342" height="244"/>
<g id="animate-1">
	<rect x="71.7" y="-185.5" fill="#EFF3F4" width="267.6" height="187.7"/>
	<text transform="matrix(1 0 0 1 89.2667 -153.7002)" fill="#333333" font-family="'CuratorBold'" font-size="15px">THE KIT</text>
	<rect x="91.9" y="-141" fill="none" width="236" height="183"/>
	<text transform="matrix(1 0 0 1 91.9332 -130.1999)"><tspan x="0" y="0" fill="#333333" font-family="'CuratorRegular'" font-size="15px">The three runners will wear special </tspan><tspan x="0" y="21" fill="#333333" font-family="'CuratorRegular'" font-size="15px">socks, shorts and singlets, It is </tspan><tspan x="0" y="42" fill="#333333" font-family="'CuratorRegular'" font-size="15px">claimed they offer an advantage in </tspan><tspan x="0" y="63" fill="#333333" font-family="'CuratorRegular'" font-size="15px">terms of aerodynamics and/or </tspan><tspan x="0" y="84" fill="#333333" font-family="'CuratorRegular'" font-size="15px">ventilation and support.</tspan></text>
</g>
<g id="animate-3">
	<rect x="71.7" y="21.5" fill="#EFF3F4" width="267.6" height="214.3"/>
	<text transform="matrix(1 0 0 1 89.2667 49.2998)" fill="#333333" font-family="'CuratorBold'" font-size="15px">MOBILE SUPPORT</text>
	<rect x="91.9" y="68" fill="none" width="236" height="144"/>
	<text transform="matrix(1 0 0 1 91.9332 78.8001)"><tspan x="0" y="0" fill="#333333" font-family="'CuratorRegular'" font-size="15px">The runners will follow a car with a </tspan><tspan x="0" y="21" fill="#333333" font-family="'CuratorRegular'" font-size="15px">large clock on the back showing </tspan><tspan x="0" y="42" fill="#333333" font-family="'CuratorRegular'" font-size="15px">elapsed time, splits, and projected </tspan><tspan x="0" y="63" fill="#333333" font-family="'CuratorRegular'" font-size="15px">finish time. They will also be served </tspan><tspan x="0" y="84" fill="#333333" font-family="'CuratorRegular'" font-size="15px">drinks on the move, avoiding the </tspan><tspan x="0" y="105" fill="#333333" font-family="'CuratorRegular'" font-size="15px">need to slow down and lose rhythm </tspan><tspan x="0" y="126" fill="#333333" font-family="'CuratorRegular'" font-size="15px">at traditional drinks stations.</tspan></text>
</g>
<g id="animate-4">
	<rect x="71.7" y="251.2" fill="#EFF3F4" width="267.6" height="246.7"/>
	<text transform="matrix(1 0 0 1 89.2667 285.2998)" fill="#333333" font-family="'CuratorBold'" font-size="15px">THE SHOES</text>
	<rect x="91.9" y="300" fill="none" width="236" height="185"/>
	<text transform="matrix(1 0 0 1 91.9332 310.8001)"><tspan x="0" y="0" fill="#333333" font-family="'CuratorRegular'" font-size="15px">Nike&apos;s 200g Zoom Vaporfly Elite has </tspan><tspan x="0" y="21" fill="#333333" font-family="'CuratorRegular'" font-size="15px">been custom-fitted for the three </tspan><tspan x="0" y="42" fill="#333333" font-family="'CuratorRegular'" font-size="15px">athletes. It combines a new foam </tspan><tspan x="0" y="63" fill="#333333" font-family="'CuratorRegular'" font-size="15px">and curved carbon insert, which </tspan><tspan x="0" y="84" fill="#333333" font-family="'CuratorRegular'" font-size="15px">also helps change the angle of the </tspan><tspan x="0" y="105" fill="#333333" font-family="'CuratorRegular'" font-size="15px">foot. This means runners require 4 </tspan><tspan x="0" y="126" fill="#333333" font-family="'CuratorRegular'" font-size="15px">per cent less energy to go at the </tspan><tspan x="0" y="147" fill="#333333" font-family="'CuratorRegular'" font-size="15px">same speed compared to previous </tspan><tspan x="0" y="168" fill="#333333" font-family="'CuratorRegular'" font-size="15px">shoes. </tspan></text>
</g>
</svg>
