<?xml version="1.0" encoding="utf-8"?>
<!-- Generator: Adobe Illustrator 19.1.0, SVG Export Plug-In . SVG Version: 6.00 Build 0)  -->
<svg version="1.1" xmlns="http://www.w3.org/2000/svg" xmlns:xlink="http://www.w3.org/1999/xlink" x="0px" y="0px" width="642.7px"
	 height="374px" viewBox="0 0 642.7 374" enable-background="new 0 0 642.7 374" xml:space="preserve">
<g id="Layer_1">
	<g>
		<path fill="#5A9DDC" d="M459.7,6h-99.2h-80.7h-99.2C84,5,5.9,83.5,6.3,181.3l0,9.3C6,288.4,84,367,180.7,366
			h99.1h80.7h99.1c96.7,1,174.8-77.6,174.4-175.4l0-9.2C634.4,83.5,556.4,5,459.7,6z M519.7,189.4c0.2,46.2-36.6,81.6-82.3,81.6h-77
			h-80.7h-77c-45.6,0-82.5-35.4-82.3-81.6l0-6.9c-0.2-46.2,36.6-81.9,82.3-81.5h77h80.7h77c45.6-0.4,82.5,35.4,82.3,81.5
			L519.7,189.4z"/>
		<g opacity="0.3">
			<path fill="none" stroke="#FFFFFF" stroke-width="0.9953" d="M192.5,355.9c-90.3-0.7-171.9-71.8-172.3-162.3l-0.1-13.3
				C19.8,89.7,92.7,18.3,183,19h273.8c90.3-0.7,163.2,70.7,162.8,161.2l-0.1,13.3c-0.4,90.5-82,161.6-172.3,162.3l-109.6,0.4l-1.2,0
				L192.5,355.9z"/>
			<path fill="none" stroke="#FFFFFF" stroke-width="0.9953" d="M194.6,343.6C110.7,343,34.9,276.9,34.5,192.8l-0.1-12.4
				C34.1,96.3,101.9,29.9,185.8,30.5h268.3c83.9-0.7,151.7,65.7,151.3,149.8l-0.1,12.4C605,276.9,529.2,343,445.2,343.6H194.6z"/>
			<path fill="none" stroke="#FFFFFF" stroke-width="0.9953" d="M196.7,331.4C119.2,330.8,49.1,269.7,48.8,192l0-11.5
				c-0.3-77.7,62.3-139,139.8-138.4h262.7c77.5-0.6,140.1,60.7,139.8,138.4l0,11.5c-0.3,77.7-70.4,138.8-147.9,139.4H196.7z"/>
			<path fill="none" stroke="#FFFFFF" stroke-width="0.9953" d="M198.8,319.1c-71.1-0.6-135.4-56.6-135.7-127.9l0-10.5
				c-0.3-71.3,57.2-127.6,128.3-127l111.1-0.3h35l111.1,0.3c71.1-0.6,128.6,55.7,128.3,127l0,10.5c-0.3,71.3-64.6,127.3-135.7,127.9
				H198.8z"/>
			<path fill="none" stroke="#FFFFFF" stroke-width="0.9953" d="M200.9,306.8c-64.8-0.5-123.3-51.5-123.6-116.4l0-9.6
				c-0.3-64.9,52-116.2,116.8-115.6h251.6c64.8-0.5,117.1,50.7,116.8,115.6l0,9.6c-0.3,64.9-58.8,115.9-123.6,116.4H200.9z"/>
			<path fill="none" stroke="#FFFFFF" stroke-width="0.9953" d="M203,294.6c-58.4-0.5-111.1-46.4-111.4-104.9l0-8.6
				c-0.2-58.5,46.9-104.7,105.3-104.2H443c58.4-0.5,105.5,45.7,105.3,104.2l0,8.6c-0.2,58.5-53,104.5-111.4,104.9H203z"/>
			<path fill="none" stroke="#FFFFFF" stroke-width="0.9953" d="M199.7,88.3c-52-0.4-94,40.7-93.8,92.9l0,7.7
				c0.2,52.1,47.2,93.1,99.2,93.5h229.6c52-0.4,99-41.3,99.2-93.5l0-7.7c0.2-52.1-41.8-93.3-93.8-92.9H199.7z"/>
		</g>
		<line opacity="0.2" fill="none" stroke="#FFFFFF" x1="424.2" y1="272" x2="424.2" y2="368"/>
	</g>
	<path id="marathon" opacity="0.85" fill="#183C6B" d="M419.4,320.3c-0.2,6.7-5.6,12-12.2,11.9c-6.6-0.1-11.8-5.6-11.6-12.2
		c0.2-6.7,5.6-12,12.2-11.9S419.6,313.6,419.4,320.3z"/>
	<path id="singapore" opacity="0.85" fill="#FFD400" d="M419.4,316.4c-0.2,6.7-5.6,12-12.2,11.9s-11.8-5.6-11.6-12.2
		c0.2-6.7,5.6-12,12.2-11.9C414.4,304.3,419.6,309.8,419.4,316.4z"/>
</g>
<g id="path-to-follow">
	<path fill="none" d="M416.2,318.2H444c0,0,24,0.3,58.3-14.5c34.3-14.8,64.7-53,72.3-89.7c7.7-36.7-1.5-71.8-5.2-79.8
		c-3.7-8.1-20.2-47.6-62.3-68.3c-33.2-16.3-75.3-13.3-75.3-13.3H191.2c0,0-61.3-2.1-100,47.3S65.9,217.5,65.9,217.5s15.7,61,75,87.7
		c15.7,6.7,30.7,13.8,72,13.3s200,0,200,0"/>
</g>
<g id="play">
	<g>
		<circle opacity="0.5" fill="#010202" enable-background="new    " cx="328.3" cy="182.8" r="35.7"/>
		<path fill="#FFFFFF" d="M322.7,194.1c0.3,0,0.6-0.1,0.9-0.3l15.7-9.2c0.6-0.3,0.9-0.9,0.9-1.6c0-0.7-0.3-1.3-0.9-1.6l-15.7-9.2
			c-0.3-0.2-0.6-0.3-0.9-0.3s-0.6,0.1-0.9,0.2c-0.6,0.3-0.9,0.9-0.9,1.6v18.5c0,0.7,0.3,1.3,0.9,1.6
			C322.1,194.1,322.3,194.1,322.7,194.1"/>
	</g>
</g>
<g id="replay" display="none">
	<g display="inline">
		<circle opacity="0.5" fill="#010202" enable-background="new    " cx="328.3" cy="182.8" r="35.7"/>
	</g>
	<g display="inline">
		<g>
			<path fill="none" stroke="#FFFFFF" stroke-width="2.7717" stroke-linecap="square" stroke-miterlimit="10" d="M341.5,173.8
				c-0.6-1-1.4-1.9-2.2-2.7c-6.2-6.2-16.2-6.2-22.3,0s-6.2,16.2,0,22.3s16.2,6.2,22.3,0c2.4-2.4,3.9-5.5,4.4-8.7
				c0.2-1.6,0.2-3.3,0-4.9"/>
		</g>
		<g>

				<polyline fill="none" stroke="#FFFFFF" stroke-width="2.7717" stroke-linecap="round" stroke-linejoin="round" stroke-miterlimit="10" points="
				342.9,168.1 342.9,174.9 336.1,174.9 			"/>
		</g>
	</g>
</g>
</svg>
