<?xml version="1.0" encoding="utf-8"?>
<!-- Generator: Adobe Illustrator 19.1.0, SVG Export Plug-In . SVG Version: 6.00 Build 0)  -->
<svg version="1.1" id="Layer_1" xmlns="http://www.w3.org/2000/svg" xmlns:xlink="http://www.w3.org/1999/xlink" x="0px" y="0px"
	 width="48px" height="48px" viewBox="-125 77 48 48" enable-background="new -125 77 48 48" xml:space="preserve">
<linearGradient id="SVGID_1_" gradientUnits="userSpaceOnUse" x1="-124" y1="100.7" x2="-78.8" y2="100.7">
	<stop  offset="0" style="stop-color:#589EDA"/>
	<stop  offset="1" style="stop-color:#36B4BB"/>
</linearGradient>
<circle fill="url(#SVGID_1_)" cx="-101.4" cy="100.7" r="22.6"/>
<g>
	<circle fill="#FFFFFF" cx="-102.3" cy="91.1" r="1.6"/>
</g>
<g>
	<polygon fill="#FFFFFF" points="-102.3,95.2 -100.9,95.2 -100.9,93 -99.8,93 -99.8,99.6 -99.5,100.7 -99.5,110.6 -102,110.6 
		-102,101.8 -102.3,101.8 -102.6,101.8 -102.6,110.6 -105.1,110.6 -105.1,100.6 -104.7,99.6 -104.7,93 -103.7,93 -103.7,95.2 	"/>
	<path fill="#FFFFFF" d="M-105.3,98l-0.9,3.6l-0.8,0.2l-0.5-0.6c0,0,1.4-6.4,1.8-7.5c0.1-0.3,0.2-0.4,0.4-0.6
		C-105.3,93.1-105.3,98-105.3,98z"/>
	<path fill="#FFFFFF" d="M-99.3,98l0.9,3.6l0.8,0.3l0.5-0.6c0,0-1.4-6.4-1.8-7.5c-0.1-0.3-0.2-0.4-0.4-0.6V98z"/>
</g>
</svg>
