
<svg version="1.1" id="Layer_1" xmlns="http://www.w3.org/2000/svg" xmlns:xlink="http://www.w3.org/1999/xlink" x="0px" y="0px"
	 viewBox="0 0 25 25" style="enable-background:new 0 0 25 25;" xml:space="preserve">
<style type="text/css">
	.st0{fill:#FFFFFF;}
</style>
<g>
	<path class="st0" d="M4.9,5C7,2.8,9.6,1.8,12.5,1.8c3,0,5.5,1.1,7.7,3.2c2.1,2.1,3.2,4.7,3.2,7.7c0,3-1.1,5.6-3.2,7.8
		c-2.1,2.2-4.7,3.3-7.7,3.3c-3,0-5.5-1.1-7.7-3.2c-2.1-2.1-3.2-4.7-3.2-7.7C1.7,9.8,2.7,7.2,4.9,5z M5.9,19.4
		c1.9,1.9,4.1,2.8,6.6,2.8c2.6,0,4.8-0.9,6.6-2.8c1.9-1.9,2.8-4.1,2.8-6.6c0-2.6-0.9-4.8-2.8-6.7c-1.9-1.9-4.1-2.8-6.6-2.8
		c-2.6,0-4.8,0.9-6.6,2.8C4,8,3.1,10.2,3.1,12.8C3.1,15.3,4,17.5,5.9,19.4z M13.2,8l1.2,0.8L10.7,13l3.6,4l-1.1,1l-4.3-5L13.2,8z"/>
</g>
</svg>
