<?xml version="1.0" encoding="utf-8"?>
<!-- Generator: Adobe Illustrator 21.1.0, SVG Export Plug-In . SVG Version: 6.00 Build 0)  -->
<svg version="1.1" id="Layer_1" xmlns="http://www.w3.org/2000/svg" xmlns:xlink="http://www.w3.org/1999/xlink" x="0px" y="0px"
	 viewBox="0 0 15 15" enable-background="new 0 0 15 15" xml:space="preserve">
<g>
	<path fill="#898989" d="M12,14.9L6.1,8l6-7l1.6,1.3L8.6,8l4.9,5.5L12,14.9z"/>
</g>
<g>
	<path fill="#898989" d="M2.8,1l5.9,6.8l-6,7L1,13.5l5.1-5.7L1.2,2.3L2.8,1z"/>
</g>
</svg>
