<?xml version="1.0" encoding="utf-8"?>
<!-- Generator: Adobe Illustrator 21.1.0, SVG Export Plug-In . SVG Version: 6.00 Build 0)  -->
<svg version="1.1" id="Layer_1" xmlns="http://www.w3.org/2000/svg" xmlns:xlink="http://www.w3.org/1999/xlink" x="0px" y="0px"
	 viewBox="0 0 7 12" enable-background="new 0 0 7 12" xml:space="preserve">
<path fill="#FFFFFF" d="M4.5,11.8V6.9h1.7L6.5,5H4.6V3.9c0-0.5,0.1-0.9,0.9-0.9h1V1.1C6.3,1.1,5.8,1,5.1,1C3.7,1,2.7,1.9,2.7,3.5
	v1.4H1v1.9h1.6v4.8L4.5,11.8z"/>
</svg>
