<svg version="1.1" id="Layer_1" xmlns="http://www.w3.org/2000/svg" xmlns:xlink="http://www.w3.org/1999/xlink" x="0px" y="0px"
	 width="350px" height="437.3px" viewBox="0 0 350 437.3" enable-background="new 0 0 350 437.3" xml:space="preserve">
<g>
</g>
<g>
</g>
<g>
</g>
<g>
	<text transform="matrix(1 0 0 1 23.8716 420.3353)" fill="#797979" font-family="'CuratorRegular'" font-size="15px">SOURCE: IMF</text>
</g>
<g>
	<line fill="none" stroke="#000000" stroke-miterlimit="10" x1="36.6" y1="347.3" x2="330.8" y2="347.3"/>
	<g>
		<g>
			<line fill="none" stroke="#000000" stroke-miterlimit="10" x1="36.6" y1="355.3" x2="36.6" y2="347.3"/>
			<line fill="none" stroke="#000000" stroke-miterlimit="10" x1="57.1" y1="355.3" x2="57.1" y2="347.3"/>
			<line fill="none" stroke="#000000" stroke-miterlimit="10" x1="77.7" y1="355.3" x2="77.7" y2="347.3"/>
			<line fill="none" stroke="#000000" stroke-miterlimit="10" x1="98.2" y1="355.3" x2="98.2" y2="347.3"/>
			<line fill="none" stroke="#000000" stroke-miterlimit="10" x1="118.7" y1="355.3" x2="118.7" y2="347.3"/>
			<line fill="none" stroke="#000000" stroke-miterlimit="10" x1="139.3" y1="355.3" x2="139.3" y2="347.3"/>
			<line fill="none" stroke="#000000" stroke-miterlimit="10" x1="159.8" y1="355.3" x2="159.8" y2="347.3"/>
			<line fill="none" stroke="#000000" stroke-miterlimit="10" x1="180.3" y1="355.3" x2="180.3" y2="347.3"/>
			<line fill="none" stroke="#000000" stroke-miterlimit="10" x1="200.8" y1="355.3" x2="200.8" y2="347.3"/>
			<line fill="none" stroke="#000000" stroke-miterlimit="10" x1="221.4" y1="355.3" x2="221.4" y2="347.3"/>
			<line fill="none" stroke="#000000" stroke-miterlimit="10" x1="241.9" y1="355.3" x2="241.9" y2="347.3"/>
			<line fill="none" stroke="#000000" stroke-miterlimit="10" x1="262.4" y1="355.3" x2="262.4" y2="347.3"/>
			<line fill="none" stroke="#000000" stroke-miterlimit="10" x1="283" y1="355.3" x2="283" y2="347.3"/>
			<line fill="none" stroke="#000000" stroke-miterlimit="10" x1="303.5" y1="355.3" x2="303.5" y2="347.3"/>
			<line fill="none" stroke="#000000" stroke-miterlimit="10" x1="324" y1="355.3" x2="324" y2="347.3"/>
		</g>
		<g>
		</g>
	</g>
</g>
<g>
	<g>
		<g>
			<text transform="matrix(1 0 0 1 21.3721 349.513)" fill="#373737" font-family="'CuratorRegular'" font-size="17.3453px">0</text>
			<text transform="matrix(1 0 0 1 22.4478 270.013)" fill="#373737" font-family="'CuratorRegular'" font-size="17.3453px">5</text>
			<text transform="matrix(1 0 0 1 15.3184 190.513)" fill="#373737" font-family="'CuratorRegular'" font-size="17.3453px">10</text>
			<text transform="matrix(1 0 0 1 16.394 111.013)" fill="#373737" font-family="'CuratorRegular'" font-size="17.3453px">15</text>
			<text transform="matrix(1 0 0 1 4.6387 31.513)" fill="#373737" font-family="'CuratorRegular'" font-size="17.3453px">20%</text>
		</g>
	</g>
	<g>
		<g>
			<line fill="none" stroke="#000000" stroke-miterlimit="10" x1="36.6" y1="347.3" x2="44" y2="347.3"/>
			<line fill="none" stroke="#A3A3A3" stroke-miterlimit="10" stroke-dasharray="1,2" x1="36.6" y1="267.8" x2="330.8" y2="267.8"/>
			<line fill="none" stroke="#A3A3A3" stroke-miterlimit="10" stroke-dasharray="1,2" x1="36.6" y1="188.3" x2="330.8" y2="188.3"/>
			<line fill="none" stroke="#A3A3A3" stroke-miterlimit="10" stroke-dasharray="1,2" x1="36.6" y1="108.8" x2="330.8" y2="108.8"/>
			<line fill="none" stroke="#A3A3A3" stroke-miterlimit="10" stroke-dasharray="1,2" x1="41.9" y1="29.3" x2="330.8" y2="29.3"/>
		</g>
		<g>
		</g>
	</g>
</g>
<g>
	<g>
		<g>
			<g class="animate-line">
				<path class="p" fill="none" stroke="#EF4123" stroke-width="2" stroke-linecap="round" stroke-miterlimit="10" d="M37.2,221.7l6.8,44.5
					l6.8-62l6.8-28.6l6.8-70l6.8,27l6.8,73.1l6.8-44.5l6.8,6.4l6.8,112.9l6.8,4.8l6.8-84.3l6.8-81.1l6.8,6.4L133,139l6.8,33.4
					l6.8,17.5l6.8,11.1l6.8,22.3l6.8,3.2l6.8-12.7l6.8,1.6l6.8-12.7l6.8-14.3l6.8-1.6l6.8-19.1l6.8-22.3l6.8-23.8l6.8,73.1l6.8,6.4
					l6.8-22.3l6.8,17.5l6.8,25.4l6.8,1.6l6.8,7.9l6.8,6.4l6.8,3.2l6.8,1.6l6.8,6.4l6.8,3.2l6.8,1.6l6.8,1.6l6.8,1.6
					c0,0,0.7,0,0.9-0.3"/>
			</g>
		</g>
	</g>
</g>
<g>
	<g>
		<text transform="matrix(1 0 0 1 18.0601 374.8392)" fill="#333333" font-family="'CuratorRegular'" font-size="17.3453px">1980</text>
		<text transform="matrix(1 0 0 1 99.6943 374.8392)" fill="#333333" font-family="'CuratorRegular'" font-size="17.3453px">1992</text>
		<text transform="matrix(1 0 0 1 181.6943 374.8392)" fill="#333333" font-family="'CuratorRegular'" font-size="17.3453px">2004</text>
		<text transform="matrix(1 0 0 1 262.7163 374.8392)" fill="#333333" font-family="'CuratorRegular'" font-size="17.3453px">2016</text>
		<text transform="matrix(1 0 0 1 304.9966 374.8392)" fill="#333333" font-family="'CuratorRegular'" font-size="17.3453px">2022</text>
	</g>
</g>
<line fill="none" stroke="#FFFFFF" stroke-width="2" stroke-linecap="round" stroke-miterlimit="10" x1="300.1" y1="239.6" x2="300.1" y2="262.3"/>
<line fill="none" stroke="#FFFFFF" stroke-width="2" stroke-linecap="round" stroke-miterlimit="10" x1="304.8" y1="239.6" x2="304.8" y2="262.3"/>
<line fill="none" stroke="#FFFFFF" stroke-width="2" stroke-linecap="round" stroke-miterlimit="10" x1="309.5" y1="239.6" x2="309.5" y2="262.3"/>
<line fill="none" stroke="#FFFFFF" stroke-width="2" stroke-linecap="round" stroke-miterlimit="10" x1="314.2" y1="239.6" x2="314.2" y2="262.3"/>
<line fill="none" stroke="#FFFFFF" stroke-width="2" stroke-linecap="round" stroke-miterlimit="10" x1="318.9" y1="239.6" x2="318.9" y2="262.3"/>
<line fill="none" stroke="#FFFFFF" stroke-width="2" stroke-linecap="round" stroke-miterlimit="10" x1="323.6" y1="239.6" x2="323.6" y2="262.3"/>
</svg>
