brand_name,item_name,long_name,category,img_name,item_value,short_des,long_des,length of short,summaryExplain,introduction,,info_button,result,min_money,max_money,fb_share,fb_share_2,fb_img,twitter_share,twitter_share_2
EXCISE DUTIES,"Raise liquor, tobacco tax","Raise excise duties and custom duties on liquor, and raise excise duties on tobacco",revenue,grocery-item-excise-tax.svg,0.99,"Duties on tobacco are $388 per kg, that on liquor varies by type.","<p>Revenue from these duties was $1.71 billion in 2016. This made up 2.5 per cent of total revenue. Excise duties on tobacco is $388 per kg. That on liquor varies by type, starting at $60 per litre of beer. These duties last went up in 2014. Adjusting it to increase revenue by 40 per cent means an extra $0.68 billion. The move is in line with the social objectives of avoiding excessive consumption or indulgence in these areas. Read more <a href=""https://www.customs.gov.sg/businesses/valuation-duties-taxes--fees/duties-and-dutiable-goods/list-of-dutiable-goods"" target=""_blank"">here</a>.</p>",65,,,i-surplus/deficit,"<p>A surplus is when revenue exceeds expenditure; a deficit is when expenditure exceeds revenue.</p>
<p>Under the Constitution, Singapore must keep to a balanced Budget over each term of Government. This means expenditure must be less than revenue.</p>
<p>Surpluses are locked away as reserves, which can be drawn on in times of need, such as during a recession, after obtaining the approval of the President.</p> ",$5.01 to $10.16,5.01,10.16,Saving for a rainy day! I added to Singapore's reserves. Budget surplus was,What would you have done? Play ST's game and find out,social-media-share-blurbs-03.png,Saving for a rainy day! Singapore's Budget surplus was,What would you have done?
GST,Raise GST by 3pp,Raise Goods and Services Tax (GST) by 3 percentage points,revenue,grocery-item-voucher-gst.svg,6.65,All supplies of goods and services are taxed at 7 per cent.,"<p>Revenue from GST was $10.62 billion in 2016. This made up 15.52 per cent of total revenue. If GST was raised from 7 per cent to 10 per cent, Singapore could get an extra $4.55 billion. Singapore’s GST rate would be higher than Malaysia (6 per cent), and Thailand (7 per cent) but on a par with Australia, Indonesia and South Korea. Raising the rate may negatively impact the retail sector. Necessities may also cost more. Read more <a href=""https://www.iras.gov.sg/irashome/GST/GST-registered-businesses/Learning-the-basics/Goods-and-Services-Tax--GST---What-It-Is-and-How-It-Works/"" target=""_blank"">here</a>.</p>",59,"<p>At the start, Singapore's Budget for 2016 appears to have been in a deficit. However, in addition to the estimated revenue of $68.44 billion, there was net investment returns, which is transfers from GIC, the Monetary Authority of Singapore and Temasek Holdings.</p>
<p>Similarly, there was budgeted expenditure of $73.43 billion, and also one-off transfers such as the Wage Credit Scheme, top-ups such as GST vouchers, and trust funds created by the Government.</p>
<p>Overall, there was a projected surplus of $3.45 billion for FY 2016. Under the Constitution, Singapore is required to keep to a balanced Budget over each term of Government.</p>
<p>Read more <a href=""http://graphics.straitstimes.com/STI/STIMEDIA/Interactives/2016/03/singapore-budget-revenue-and-spending-breakdown-2016/"" target=""_blank"">here</a>.</p>","<p>You have <strong>$100</strong> in your wallet. This represents Singapore's revenue.</p>
<p>Your shopping basket comes with items worth <strong>$107.29</strong>. This represents Singapore's expenditure in 2016. These items cannot be removed from the basket.</p>
<p>If you were in charge of the Budget, what would you do differently?</p>
<p>Add or remove items to change revenue and expenditure. </p>
<p><strong>Though you start with a deficit, you must end with a surplus.</strong></p>",i-revenue,"<p>Revenue refers to the Government's income, which is obtained through taxation, excise duties and other sources. It is used to finance the Government's spending.</p>
<p>Singapore's revenue in 2016 was $68.44 billion – 19.6 per cent of it was from corporate income tax, while 8.3 per cent of it was from the COE system.</p>",$0.00 to $1.00,0,1,Almost in the red! Singapore's Budget surplus was only,Not much added to reserves. What would you have done? Play ST's game and find out.,social-media-share-blurbs-01.png,Almost in the red! Singapore's Budget surplus was only,What would you have done?
CORP TAX,Raise corporate tax by 2pp,Increase corporate income tax by 2 percentage points,revenue,grocery-item-voucher-corp-tax.svg,2.31,Each company is currently taxed at 17 per cent of its income.,"<p>The amount collected was $13.41 billion in 2016. It was the largest contributor to Singapore’s coffers, making up a whopping 19.59 per cent of total revenue. The Republic’s corporate income tax rate of 17 per cent is among the lowest in the world. This is one of many reasons Singapore is one of the best places in the world to do business. Raising the tax rate to 19 per cent may make Singapore less attractive. Read more <a href=""https://www.iras.gov.sg/irashome/Businesses/Companies/Learning-the-basics-of-Corporate-Income-Tax/Corporate-Tax-Rates--Corporate-Income-Tax-Rebates--Tax-Exemption-Schemes-and-SME-Cash-Grant/"" target=""_blank"">here</a>.</p>",61,,,i-expenditure,"<p>Expenditure refers to the Government's spending. Each ministry's funding is capped at a fixed percentage of gross domestic product (GDP).</p>
<p>Singapore's expenditure in 2016 was $73.43 billion. About half of it was spent on social development such as education ($12.8 billion) and health ($11 billion).</p>",$1.01 to $5.00,1.01,5,I had to make some tough calls to keep Singapore's Budget in the black. Surplus was,What would you have done? Play ST's game and find out.,social-media-share-blurbs-02.png,Made some tough calls to ensure Singapore's Budget had a surplus of,What would you have done?
STAMP DUTY,Remove stamp duties,Remove stamp duties,revenue,grocery-item-money-wings.svg,-3.68,Such duties include Buyer’s Stamp Duty and Seller’s Stamp Duty.,"<p>Revenue from stamp duties was $2.52 billion in 2016. This made up 3.68 per cent of total revenue. The Government uses stamp duty as a property cooling measure to moderate the investment demand for properties. Removing stamp duties may increase short-term speculative activity and increase demand for residential property, making them less affordable for Singaporeans. Read more <a href=""http://www.straitstimes.com/business/paying-stamp-duty-on-property-not-as-easy-as-1-2-3"" target=""_blank"">here</a>.</p>",63,,,,,,,,,,,,
COE,Abolish COE system,Abolish Certificate of Entitlement (COE) system,revenue,grocery-item-money-wings.svg,-8.26,A COE gives you the right to own and use a vehicle for 10 years.,"<p>Revenue from vehicle quota premiums was $5.65 billion in 2016. This made up 8.26 per cent of revenue. The system is used to control the number of vehicles on the roads. In 2015, an estimated 44 per cent of households owned cars. There were 957,246 vehicles in 2015, of which 519,645 were private cars. Abolishing the system may mean more vehicles, and subsequently, more traffic jams. Read more <a href=""http://www.straitstimes.com/tags/coe"" target=""_blank"">here</a>.</p>",64,,,,,,,,,,,,
INCOME TAX,Lower income tax,Lower personal income tax,revenue,grocery-item-money-wings.svg,-0.75,A progressive tax which depends on your personal income.,"<p>The amount collected was $10.13 billion in 2016. This made up 14.8 per cent of total revenue. Personal income tax is a progressive tax  – higher income earners have a higher tax rate, capped at 20 per cent. But there are tax reliefs for some, such as working mothers, to promote specific objectives. Reducing this tax means the tax burden remains low. Singapore may also become more competitive. Read more <a href=""http://www.straitstimes.com/business/economy/tax-revenue-of-448b-collected-in-last-financial-year"" target=""_blank"">here</a>.</p>",56,,,,,,,,,,,,
SMALL CLASSES,Smaller class sizes,Smaller class sizes,expend,grocery-item-mineral-water.svg,0.29,Hiring more teachers may allow for smaller class sizes.,"<p>The Ministry of Education’s expenditure on permanent staff was $4 billion in 2016. This made up 5.45 per cent of total expenditure. Hiring more teachers will increase expenditure, but may allow for smaller class sizes and a lower student-teacher ratio, which may mean more attention for each student. In 2015, the average class size for primary and secondary schools were 33.5 and 34.3 respectively. Read more <a href=""https://data.gov.sg/dataset/number-of-classes-and-class-size-by-level?view_id=a9b569df-54dc-42e0-b6ff-1b43f42b5672&resource_id=9c44631c-b8cd-499d-b01b-11fa1a5c33c0"" target=""_blank"">here</a>.</p>",55,,,,,,,,,,,,
HEALTHCARE,More healthcare subsidies,More healthcare subsidies,expend,grocery-item-plaster.svg,0.16,"More coverage under Medifund and ElderShield, and more subsidies.","<p>The Ministry of Health’s expenditure on social transfers to individuals was $1.06 billion in 2016. A 10 per cent increase in this expenditure will cost the Government $0.11 billion. The additional funds can be used to provide more coverage under schemes such as Medifund and ElderShield. More subsidies can also be given to those in need, such as the disabled. Read more <a href=""http://www.straitstimes.com/singapore/aware-calls-for-more-help-for-seniors-and-caregivers"" target=""_blank"">here</a>.</p>",65,,,,,,,,,,,,
CHILDCARE,More childcare benefits,More childcare benefits,expend,grocery-item-sweets.svg,0.20,More help to keep kindergartens and childcare centres affordable.,"<p>Social transfers to individuals under the Family Development Programme and Early Childhood Development Agency were $1.36 billion in 2016. A 10 per cent increase in this expenditure will cost the Government $0.14 billion. The additional funds can be used to provide more subsidies to keep kindergartens and childcare centres affordable for low- and middle-income families. Read more <a href=""http://www.straitstimes.com/business/economic-growth-families-to-be-top-priorities"" target=""_blank"">here</a>.</p>",65,,,,,,,,,,,,
MILITARY,Cut military expenditure,Cut military expenditure by 20 per cent,expend,grocery-item-soup-can.svg,-3.86,Military expenditure makes up 94.6 per cent of Mindef's spending.,"<p>Military expenditure hit $13.21 billion in 2016. This made up 94.56 per cent of Mindef’s total expenditure. The bulk of it went to the Singapore Armed Forces (SAF). Cutting spending in this area by 20 per cent will save the Government $2.64 billion. The SAF, however, is one of the key pillars of our nation's anti-terrorism effort. Reducing their budget may reduce their effectiveness. Read more <a href=""https://www.mindef.gov.sg/imindef/key_topics/defence_spending.html"" target=""_blank"">here</a>.</p>",65,,,,,,,,,,,,
MANPOWER,Cut manpower expenditure,Cut manpower expenditure by 10 per cent,expend,grocery-item-snacks.svg,-1.27,Reduce spending on government personnel by 10 per cent.,"<p>The Government spent $8.67 billion on manpower in 2016. This made up 11.81 per cent of total expenditure. Out of that sum, $45 million and $22 million were spent on political and parliamentary appointments respectively. The bulk of the expenditure (95.85 per cent) was on permanent staff. Reducing the number of staff may reduce the Government’s efficiency. Read more <a href=""https://data.gov.sg/dataset/government-operating-expenditure-by-sector?resource_id=ba1ca1e9-7b14-48df-b97c-d10c4ce7a1b2"" target=""_blank"">here</a>.</p>",55,,,,,,,,,,,,
GRANTS,Reduce grants,"Reduce grants, subventions and capital injections to statutory boards and educational institutions",expend,grocery-item-chilli-sauce.svg,-2.37,"Cut grants meant for the public, for example, the Tuition Grant scheme.","<p>Expenditure in this area hit $10.82 billion in 2016. This made up 14.74 per cent of total expenditure. Some grants available include the Tuition Grant Scheme, which helps students with the costs of tertiary education, and the National Arts Council grants, which support arts education. Reducing the funding by 15 per cent may result in less support for various social causes and the needy. Read more <a href=""https://tgonline.moe.gov.sg/tgis/normal/studentViewTuitionGrantSubsidyInfo.action"" target=""_blank"">here</a>.</p>",71,,,,,,,,,,,,