<?xml version="1.0" encoding="utf-8"?>
<!-- Generator: Adobe Illustrator 19.1.0, SVG Export Plug-In . SVG Version: 6.00 Build 0)  -->
<svg version="1.1" id="Layer_1" xmlns="http://www.w3.org/2000/svg" xmlns:xlink="http://www.w3.org/1999/xlink" x="0px" y="0px"
	 width="82px" height="95px" viewBox="0 0 82 95" enable-background="new 0 0 82 95" xml:space="preserve">
<polygon fill="#942170" points="40.6,93.9 0.6,70.3 1.1,23.9 41.4,1.1 81.4,24.7 80.9,71.1 "/>
<path fill="#FFFFFF" d="M60.4,36.7l-18.6-8.2l-18.6,8.2v19.1l18.6,9.4l18.6-9.4V36.7z M56,37.7L41.9,45l0,0l0,0l-14.2-7.3l14.2-6.3
	L56,37.7z M25.9,39.8l14.6,7.5v14.2l-14.6-7.4L25.9,39.8z M43.2,61.6V47.4l14.6-7.5v14.4L43.2,61.6z"/>
</svg>
