
<svg version="1.1"  xmlns="http://www.w3.org/2000/svg" xmlns:xlink="http://www.w3.org/1999/xlink" x="0px" y="0px"
	 width="251px" height="76.7px" viewBox="0 0 251 76.7" enable-background="new 0 0 251 76.7" xml:space="preserve">
<g>
	<polygon fill="#FFFFFF" points="228,32 228,18 214,18 214,5 147,5 147,18 132,18 132,32 100,32 100,47 77,47 77,59 8,59 8,72
		228,72 228,64 243,64 243,49.8 243,46.4 243,32 	"/>
	<polygon fill="#EAEBEC" points="228,32 228,18 214,18 214,5 182,5 182,21 187,21 187,32 179,32 179,47 165,47 165,59 150,59
		150,72 228,72 228,64 243,64 243,49.8 243,46.4 243,32 	"/>
</g>
</svg>
