
<svg version="1.1" xmlns="http://www.w3.org/2000/svg" xmlns:xlink="http://www.w3.org/1999/xlink" x="0px" y="0px"
	 width="1200px" height="700px" viewBox="60 40 1200 700" enable-background="new 60 40 1200 700" xml:space="preserve">
<image overflow="visible" width="2400" height="1400" xlink:href="background-desktop.jpg"  transform="matrix(0.5027 0 0 0.5027 56.6299 38.0174)">
</image>
<rect x="379.1" y="302.8" fill="#31C4F3" width="8.3" height="8.3"/>
<rect x="363.7" y="297.8" fill="#31C4F3" width="8.3" height="8.3"/>
<rect x="386.2" y="298.7" fill="#31C4F3" width="9.7" height="9.7"/>
<rect x="392" y="304.8" fill="#31C4F3" width="9.7" height="9.7"/>
<rect x="399.3" y="300.7" opacity="0.9" fill="#31C4F3" enable-background="new    " width="9.7" height="9.7"/>
<rect x="399.3" y="312.1" opacity="0.9" fill="#31C4F3" enable-background="new    " width="12.5" height="12.5"/>
<rect x="406" y="304.7" opacity="0.8" fill="#31C4F3" enable-background="new    " width="12.5" height="12.5"/>
<rect x="411.1" y="320.3" opacity="0.8" fill="#31C4F3" enable-background="new    " width="12.5" height="12.5"/>
<rect x="421" y="326.5" opacity="0.7" fill="#31C4F3" enable-background="new    " width="14.9" height="14.9"/>
<rect x="425" y="314.3" opacity="0.7" fill="#31C4F3" enable-background="new    " width="11" height="11"/>
<rect x="433" y="321.1" opacity="0.7" fill="#31C4F3" enable-background="new    " width="11" height="11"/>
<rect x="433" y="337.3" opacity="0.6" fill="#31C4F3" enable-background="new    " width="15.3" height="15.3"/>
<rect x="446.5" y="329.6" opacity="0.6" fill="#31C4F3" enable-background="new    " width="15.3" height="15.3"/>
<rect x="445.3" y="348.4" opacity="0.6" fill="#31C4F3" enable-background="new    " width="20.9" height="20.9"/>
<rect x="462.6" y="337" opacity="0.6" fill="#31C4F3" enable-background="new    " width="20.9" height="20.9"/>
<rect x="452.9" y="353.7" opacity="0.6" fill="#31C4F3" enable-background="new    " width="20.9" height="20.9"/>
<rect x="467.9" y="371.7" opacity="0.5" fill="#31C4F3" enable-background="new    " width="22.9" height="22.9"/>
<rect x="486.7" y="357.8" opacity="0.5" fill="#31C4F3" enable-background="new    " width="22.9" height="22.9"/>
<rect x="496.4" y="378.8" opacity="0.5" fill="#31C4F3" enable-background="new    " width="29.4" height="29.4"/>
<rect x="488.7" y="405.1" opacity="0.5" fill="#31C4F3" enable-background="new    " width="29.4" height="29.4"/>
<rect x="511.2" y="392.7" opacity="0.4" fill="#31C4F3" enable-background="new    " width="29.4" height="29.4"/>
<rect x="518.8" y="417.6" opacity="0.4" fill="#31C4F3" enable-background="new    " width="36.7" height="36.7"/>
<rect x="567.9" y="444.7" opacity="0.4" fill="#31C4F3" enable-background="new    " width="36.7" height="36.7"/>
<rect x="549.5" y="471" opacity="0.4" fill="#31C4F3" enable-background="new    " width="36.7" height="36.7"/>
<rect x="582.7" y="490.3" opacity="0.3" fill="#31C4F3" enable-background="new    " width="36.7" height="36.7"/>
<rect x="595.8" y="468" opacity="0.3" fill="#31C4F3" enable-background="new    " width="30" height="30"/>
<rect x="605.9" y="520.7" opacity="0.3" fill="#31C4F3" enable-background="new    " width="30" height="30"/>
<rect x="594.2" y="558.8" opacity="0.2" fill="#31C4F3" enable-background="new    " width="43.4" height="43.4"/>
<rect x="630.3" y="537.1" opacity="0.2" fill="#31C4F3" enable-background="new    " width="43.4" height="43.4"/>
<rect x="625.4" y="571.6" opacity="0.2" fill="#31C4F3" enable-background="new    " width="43.9" height="43.9"/>
<rect x="409.1" y="309.9" opacity="0.8" fill="#31C4F3" enable-background="new    " width="12.5" height="12.5"/>
</svg>
