Sector_n,Programme,Total Expenditure
Education,Administration,"502,116,800"
Education,Higher Education and SkillsFuture,"449,347,400"
Education,School Services and Educational Development,"403,798,900"
Education,Government Schools and Junior Colleges,"4,885,859,000"
Education,Special Education Schools,"170,250,700"
Education,Government-Aided Schools and Junior Colleges,"1,324,493,800"
Education,Independent Schools,"415,357,200"
Education,National Institute of Education,"87,929,700"
Education,National University of Singapore,"1,154,052,000"
Education,Nanyang Technological University,"899,131,200"
Education,Institute of Southeast Asian Studies - Yusof Ishak Institute,"13,079,000"
Education,Singapore Polytechnic,"275,034,600"
Education,Ngee Ann Polytechnic,"268,255,600"
Education,Temasek Polytechnic,"263,904,700"
Education,Institute of Technical Education,"455,694,500"
Education,Science Centre Board,"27,682,200"
Education,Nanyang Polytechnic,"256,044,300"
Education,SIM University,"120,701,800"
Education,Singapore Management University,"158,175,500"
Education,Nanyang Academy of Fine Arts,"21,190,800"
Education,Lasalle College of the Arts,"19,548,100"
Education,Republic Polytechnic,"230,297,500"
Education,Singapore Examinations and Assessment Board,"71,589,400"
Education,Singapore University of Technology And Design,"111,752,400"
Education,Singapore Institute of Technology,"199,130,900"
Education,SkillsFuture Singapore,"115,582,000"
Social and Family Development,Corporate Support,"103,468,000"
Social and Family Development,"Strategic Planning, Research and Development","4,187,400"
Social and Family Development,Rehabilitation and Protection Group,"116,881,100"
Social and Family Development,Family Development,"1,730,922,500"
Social and Family Development,Office of the Director of Social Welfare and Office of the Chief Psychologist,"2,531,600"
Social and Family Development,Comcare and Social Support,"71,661,700"
Social and Family Development,Sector Planning and Development,"61,865,600"
Social and Family Development,Service Delivery and Development Group,"389,220,900"
Social and Family Development,Gambling Safeguards,"6,571,100"
Social and Family Development,Central Youth Guidance Office,"3,736,900"
Social and Family Development,Disability,"35,807,900"
Defence,National Defence,"14,206,805,500"
Environment and Water Resources,Administration,"74,772,600"
Environment and Water Resources,Public Utilities Board,"1,221,862,400"
Environment and Water Resources,National Environment Agency,"1,537,608,100"
Finance,Finance,"386,362,200"
Finance,Accounting Services,"36,600,000"
Finance,Shared Services,"43,827,600"
Finance,Singapore Customs,"175,049,700"
Finance,Inland Revenue Authority of Singapore,"432,796,000"
Finance,Integration,"20,046,800"
Finance,Centre for Public Project Management,"6,611,700"
Foreign Affairs,Foreign Affairs,"501,628,100"
Health,Ministry of Health Headquarters,"3,577,288,100"
Health,Services,"6,903,395,000"
Health,Health Promotion,"254,214,500"
Home Affairs,Administration,"574,262,300"
Home Affairs,Information and Communications Technology,"21,780,700"
Home Affairs,Police,"2,896,799,400"
Home Affairs,Civil Defence,"595,777,500"
Home Affairs,Treatment of Offenders,"666,357,300"
Home Affairs,Drug Enforcement,"150,456,900"
Home Affairs,Immigration and Checkpoint Control,"817,893,800"
Home Affairs,Home Team Academy,"53,592,600"
Information and Communications,Administration,"191,665,500"
Information and Communications,Information,"71,382,000"
Information and Communications,National Library Board,"413,276,000"
Information and Communications,Government Technology Agency,"291,576,300"
Information and Communications,Info-communications Media Development Authority,"352,814,800"
Law,Management and Policies,"56,565,400"
Law,Information Technology and Data Management,"10,761,600"
Law,Appeals Board,"234,100"
Law,Public Trustee,"1,697,500"
Law,Registry of Moneylenders and Pawnbrokers,"2,423,900"
Law,Insolvency,"11,610,700"
Law,Legal Aid,"7,544,100"
Law,Support Services,"24,704,800"
Law,Lands and Properties Administration,"406,319,400"
Law,Community Mediation,"1,526,600"
Manpower,Financial Security for Singaporeans,"1,119,337,700"
Manpower,Corporate Services and Information Technology,"139,786,800"
Manpower,Productive Workforce,"282,625,900"
Manpower,Progressive Workplaces,"185,870,200"
National Development,Administration,"193,919,700"
National Development,Planning,"89,097,700"
National Development,Land Development,"65,184,000"
National Development,Public Housing Development,"3,539,820,300"
National Development,Housing Estates Management,"230,139,600"
National Development,Building and Construction Authority,"83,018,000"
National Development,National Parks Board,"459,149,100"
National Development,Agri-Food and Veterinary Authority,"140,056,700"
Prime Minister's Office,Administration,"54,915,000"
Prime Minister's Office,Elections,"36,612,500"
Prime Minister's Office,Corrupt Practices Investigation,"45,378,600"
Prime Minister's Office,National Security and Intelligence Coordination,"48,779,200"
Prime Minister's Office,National Research Foundation,"22,970,100"
Prime Minister's Office,Corporate,"69,873,900"
Prime Minister's Office,HR Management,"16,859,700"
Prime Minister's Office,Functional,"128,559,800"
Prime Minister's Office,Strategy Group,"59,150,100"
Prime Minister's Office,Smart Nation,"5,211,600"
Trade and Industry,Administration,"296,010,800"
Trade and Industry,Statistics,"61,291,700"
Trade and Industry,Economic Development Board,"595,120,500"
Trade and Industry,SPRING Singapore,"398,196,300"
Trade and Industry,"Agency for Science, Technology and Research","1,237,702,400"
Trade and Industry,Sentosa Development Corporation,"53,562,100"
Trade and Industry,International Enterprise Singapore,"168,930,700"
Trade and Industry,Jurong Town Corporation,"189,442,900"
Trade and Industry,Singapore Tourism Board,"657,354,000"
Trade and Industry,Competition Commission of Singapore,"16,856,200"
Trade and Industry,Energy Market Authority,"2,486,400"
Transport,Administration,"3,676,803,700"
Transport,Public Transport Council,"4,238,900"
Transport,Civil Aviation Authority,"212,082,000"
Transport,Land Transport Authority,"5,272,707,700"
"Culture, Community and Youth",Corporate Services,"47,616,800"
"Culture, Community and Youth",Arts and Heritage,"184,204,000"
"Culture, Community and Youth",Charities and Co-operatives,"5,993,500"
"Culture, Community and Youth",Office for Citizen Engagement,"31,353,100"
"Culture, Community and Youth",Community Relations and Engagement,"100,893,100"
"Culture, Community and Youth",Information Technology,"11,939,500"
"Culture, Community and Youth",National Identity and Resilience,"16,276,400"
"Culture, Community and Youth",Sports,"38,706,400"
"Culture, Community and Youth",Youth,"7,655,100"
"Culture, Community and Youth",Majlis Ugama Islam Singapura,"19,298,500"
"Culture, Community and Youth",National Arts Council,"117,295,400"
"Culture, Community and Youth",National Heritage Board,"144,629,500"
"Culture, Community and Youth",People's Association,"842,488,600"
"Culture, Community and Youth",Sport Singapore,"537,357,800"
"Culture, Community and Youth",National Youth Council,"54,078,500"