<?xml version="1.0" encoding="utf-8"?>
<!-- Generator: Adobe Illustrator 19.1.0, SVG Export Plug-In . SVG Version: 6.00 Build 0)  -->
<svg version="1.1" id="Layer_1" xmlns="http://www.w3.org/2000/svg" xmlns:xlink="http://www.w3.org/1999/xlink" x="0px" y="0px"
	 width="650px" height="695px" viewBox="-74 -197 650 695" enable-background="new -74 -197 650 695" xml:space="preserve">
<image overflow="visible" enable-background="new    " width="252" height="672" id="animate-0" xlink:href="kit.jpg"  transform="matrix(1 0 0 1 -85 -187.5)">
</image>
<circle opacity="0.2" enable-background="new    " cx="93.4" cy="429" r="50.9"/>
<text transform="matrix(1 0 0 1 206 488.2998)" fill="#333333" font-family="'CuratorHeadSTRegular'" font-size="15px"> </text>
<rect x="206" y="59.5" fill="none" width="342" height="244"/>
<g id="animate-1">
	<rect x="162.7" y="-191.5" fill="#EFF3F4" width="409.6" height="117.7"/>
	<text transform="matrix(1 0 0 1 180.2667 -159.7002)" fill="#333333" font-family="'CuratorHeadSTBold'" font-size="15px">THE KIT</text>
	<rect x="182.9" y="-147" fill="none" width="378" height="98"/>
	<text transform="matrix(1 0 0 1 182.9332 -136.1999)"><tspan x="0" y="0" fill="#333333" font-family="'CuratorHeadSTRegular'" font-size="15px">The three runners will wear special socks, shorts and </tspan><tspan x="0" y="21" fill="#333333" font-family="'CuratorHeadSTRegular'" font-size="15px">singlets, It is claimed they offer an advantage in terms of </tspan><tspan x="0" y="42" fill="#333333" font-family="'CuratorHeadSTRegular'" font-size="15px">aerodynamics and/or ventilation and support.</tspan></text>
</g>
<g id="animate-2">
	<rect x="162.7" y="-60.2" fill="#EFF3F4" width="409.6" height="204.4"/>
	<text transform="matrix(1 0 0 1 180.2667 -28.3669)" fill="#333333" font-family="'CuratorHeadSTBold'" font-size="15px">PACERS</text>
	<rect x="182.9" y="-15.7" fill="none" width="377.3" height="164"/>
	<text transform="matrix(1 0 0 1 182.9332 -4.8665)"><tspan x="0" y="0" fill="#333333" font-family="'CuratorHeadSTRegular'" font-size="15px">All three runners will be accompanied by an elite group of </tspan><tspan x="0" y="21" fill="#333333" font-family="'CuratorHeadSTRegular'" font-size="15px">pacers, who will rotate among themselves to help ensure </tspan><tspan x="0" y="42" fill="#333333" font-family="'CuratorHeadSTRegular'" font-size="15px">the record-breaking pace. Among the pacers are multiple </tspan><tspan x="0" y="63" fill="#333333" font-family="'CuratorHeadSTRegular'" font-size="15px">Olympic and world championship medallist Bernard Lagat, </tspan><tspan x="0" y="84" fill="#333333" font-family="'CuratorHeadSTRegular'" font-size="15px">Under-20 world champion (5,000m) Selemon Barega and </tspan><tspan x="0" y="105" fill="#333333" font-family="'CuratorHeadSTRegular'" font-size="15px">two-time Olympian Collis Birmingham.</tspan></text>
</g>
<g id="animate-3">
	<rect x="162.7" y="158.5" fill="#EFF3F4" width="409.6" height="165.3"/>
	<text transform="matrix(1 0 0 1 180.2667 186.2998)" fill="#333333" font-family="'CuratorHeadSTBold'" font-size="15px">MOBILE SUPPORT</text>
	<rect x="182.9" y="205" fill="none" width="378" height="144"/>
	<text transform="matrix(1 0 0 1 182.9332 215.8001)"><tspan x="0" y="0" fill="#333333" font-family="'CuratorHeadSTRegular'" font-size="15px">The runners will follow a car with a large clock on the </tspan><tspan x="0" y="21" fill="#333333" font-family="'CuratorHeadSTRegular'" font-size="15px">back showing elapsed time, splits, and projected finish </tspan><tspan x="0" y="42" fill="#333333" font-family="'CuratorHeadSTRegular'" font-size="15px">time. They will also be served drinks on the move, avoiding </tspan><tspan x="0" y="63" fill="#333333" font-family="'CuratorHeadSTRegular'" font-size="15px">the need to slow down and lose rhythm at traditional </tspan><tspan x="0" y="84" fill="#333333" font-family="'CuratorHeadSTRegular'" font-size="15px">drinks stations.</tspan></text>
</g>
<g id="animate-4">
	<rect x="162.7" y="339.2" fill="#EFF3F4" width="409.6" height="155.7"/>
	<text transform="matrix(1 0 0 1 180.2667 373.2998)" fill="#333333" font-family="'CuratorHeadSTBold'" font-size="15px">THE SHOES</text>
	<rect x="182.9" y="388" fill="none" width="378" height="144"/>
	<text transform="matrix(1 0 0 1 182.9332 398.8001)"><tspan x="0" y="0" fill="#333333" font-family="'CuratorHeadSTRegular'" font-size="15px">Nike&apos;s 200g Zoom Vaporfly Elite has been custom-fitted </tspan><tspan x="0" y="21" fill="#333333" font-family="'CuratorHeadSTRegular'" font-size="15px">for the three athletes. It combines a new foam and curved </tspan><tspan x="0" y="42" fill="#333333" font-family="'CuratorHeadSTRegular'" font-size="15px">carbon insert, which also helps change the angle of the </tspan><tspan x="0" y="63" fill="#333333" font-family="'CuratorHeadSTRegular'" font-size="15px">foot. This means runners require 4 per cent less energy to </tspan><tspan x="0" y="84" fill="#333333" font-family="'CuratorHeadSTRegular'" font-size="15px">go at the same speed compared to previous shoes. </tspan></text>
</g>
</svg>
