<?xml version="1.0" encoding="utf-8"?>
<!-- Generator: Adobe Illustrator 19.1.0, SVG Export Plug-In . SVG Version: 6.00 Build 0)  -->
<svg version="1.1" id="Layer_1" xmlns="http://www.w3.org/2000/svg" xmlns:xlink="http://www.w3.org/1999/xlink" x="0px" y="0px"
	 viewBox="0 0 22 35.3" enable-background="new 0 0 22 35.3" xml:space="preserve">
<path opacity="0.5" fill="#FFFCF8" d="M11,35.2c-6.1,0-11-4.9-11-11V11C0,4.9,4.9,0,11,0s11,4.9,11,11v13.2
	C22,30.2,17.1,35.2,11,35.2z M11,1C5.5,1,1,5.5,1,11v13.2c0,5.5,4.5,10,10,10s10-4.5,10-10V11C21,5.5,16.5,1,11,1z"/>
</svg>
