<?xml version="1.0" encoding="utf-8"?>
<!-- Generator: Adobe Illustrator 19.1.0, SVG Export Plug-In . SVG Version: 6.00 Build 0)  -->
<svg version="1.1" id="Layer_1" xmlns="http://www.w3.org/2000/svg" xmlns:xlink="http://www.w3.org/1999/xlink" x="0px" y="0px" viewBox="474 -484 980 1000" enable-background="new 474 -484 980 1000" xml:space="preserve">
	<circle fill="none" stroke="#FFFFFF" stroke-width="5" cx="981" cy="15" r="347.1"/>
	<path
		fill="#FFFFFF"
		d="M981-331.3c-191.6,0-347,155.4-347,347s155.4,347,347,347s347-155.4,347-347S1172.6-331.3,981-331.3z
	 M1059.4-96.9h-31.3c-24.6,0-29.1,13.4-29.1,29.1V-32h58.2l-9,58.2h-51.5v150l-60.4-4.4v-150H887v-58.2h51.5v-42.5
	c0-51.5,31.3-78.4,76.1-78.4c20.2,0,38.1,2.2,44.8,2.2V-96.9z"/>
</svg>
