<?xml version="1.0" encoding="utf-8"?>
<!-- Generator: Adobe Illustrator 19.1.0, SVG Export Plug-In . SVG Version: 6.00 Build 0)  -->
<svg version="1.1" id="Layer_1" xmlns="http://www.w3.org/2000/svg" xmlns:xlink="http://www.w3.org/1999/xlink" x="0px" y="0px"
	 viewBox="0 0 234 82" style="enable-background:new 0 0 234 82;" xml:space="preserve">
<style type="text/css">
	.st0{fill:#FFFFFF;}
	.st1{fill:#0E2C56;}
	.st2{fill:url(#SVGID_1_);}
	.st3{fill:url(#SVGID_2_);}
	.st4{fill:url(#SVGID_3_);}
	.st5{fill:url(#SVGID_4_);}
	.st6{fill:url(#SVGID_5_);}
	.st7{fill:url(#SVGID_6_);}
	.st8{fill:url(#SVGID_7_);}
	.st9{fill:url(#SVGID_8_);}
	.st10{fill:url(#SVGID_9_);}
	.st11{fill:url(#SVGID_10_);}
	.st12{fill:url(#SVGID_11_);}
	.st13{fill:url(#SVGID_12_);}
	.st14{fill:url(#SVGID_13_);}
	.st15{fill:url(#SVGID_14_);}
	.st16{fill:url(#SVGID_15_);}
	.st17{fill:url(#SVGID_16_);}
	.st18{fill:url(#SVGID_17_);}
</style>
<g>
	<g>
		
			<image style="overflow:visible;opacity:5.000000e-02;" width="140" height="43" xlink:href="8DF564F0DDE9F778.png"  transform="matrix(1 0 0 1 -1 -0.5419)">
		</image>
		<g>
			<rect y="4.3" class="st0" width="127.4" height="29.3"/>
		</g>
	</g>
	<g>
		
			<image style="overflow:visible;opacity:5.000000e-02;" width="232" height="50" xlink:href="8DF564F0DDE9F779.png"  transform="matrix(1 0 0 1 -1 28.4581)">
		</image>
		<g>
			<rect y="32.9" class="st0" width="220" height="36.7"/>
		</g>
	</g>
	<g>
		<path class="st1" d="M10.2,14.2h3.5c2.7,0,4.4,0.9,4.4,3.1c0,1.3-0.6,2.5-2,2.8v0.1c1.8,0.4,2.5,1.6,2.5,3.2
			c0,2.3-1.4,3.7-4.5,3.7h-3.9V14.2z M13.9,19.6c2,0,2.8-0.8,2.8-2.2c0-1.5-1.1-1.9-3.1-1.9h-1.9v4.1H13.9z M14.2,25.8
			c1.8,0,2.9-0.7,2.9-2.4c0-1.8-1.1-2.5-3.2-2.5h-2.1v4.8H14.2z"/>
		<path class="st1" d="M20.6,14.2h1.5v8.3c0,2.3,0.9,3.5,2.9,3.5c2.1,0,2.9-1.3,2.9-3.5v-8.3h1.5v8.4c0,2.6-1.3,4.7-4.4,4.7
			c-3.2,0-4.4-1.8-4.4-4.8V14.2z"/>
		<path class="st1" d="M32.3,14.2h2.9c3.8,0,5.9,2,5.9,6.4c0,4.3-2,6.5-6.3,6.5h-2.5V14.2z M34.9,25.8c3.5,0,4.7-1.8,4.7-5.2
			c0-3.6-1.2-5.1-4.6-5.1h-1.2v10.2H34.9z"/>
		<path class="st1" d="M48.6,20.5h3.8v1.7c0,3.3-1.6,5.1-4.6,5.1c-3.2,0-4.8-2.2-4.8-6.7c0-4.4,1.9-6.7,5-6.7c2,0,3.7,0.8,4,2.9
			h-1.4c-0.4-1.2-1.4-1.5-2.6-1.5c-2.2,0-3.4,1.6-3.4,5.3c0,4,1.3,5.4,3.3,5.4c2,0,3.1-1.3,3.1-3.7v-0.6h-2.4V20.5z"/>
		<path class="st1" d="M54.8,14.2h7.5v1.3h-6v4.3h4.4v1.3h-4.4v4.7h6.2v1.3h-7.7V14.2z"/>
		<path class="st1" d="M67.4,15.5h-3.7v-1.3h8.9v1.3h-3.7v11.6h-1.5V15.5z"/>
		<path class="st1" d="M78.2,25.9c0.4-0.6,1.7-2,2.1-2.5l2.2-2.3c1.5-1.6,2.1-2.6,2.1-3.8c0-1.4-1-2-2.3-2c-1.4,0-2.3,0.7-2.5,1.8
			h-1.4c0-1.5,1.4-3.1,3.9-3.1c2.2,0,3.8,1.2,3.8,3.3c0,1.7-0.9,3-2.7,4.8L80,25.7v0.1h6.1v1.3h-7.9V25.9z"/>
		<path class="st1" d="M87.9,20.6c0-4.3,1.5-6.7,4.6-6.7c3.1,0,4.5,1.9,4.5,6.6c0,4.3-1.5,6.7-4.6,6.7
			C89.3,27.3,87.9,25.4,87.9,20.6z M95.5,20.6c0-3.2-0.5-5.3-3-5.3c-2.4,0-3.1,2.3-3.1,5.3c0,3.2,0.5,5.3,3,5.3
			C94.8,25.9,95.5,23.7,95.5,20.6z"/>
		<path class="st1" d="M101,16L99,17h-0.1v-1.3l2.5-1.5h1.2v12.9H101V16z"/>
		<path class="st1" d="M108.8,21c1.1-2.4,2.1-4.5,2.6-5.4v-0.1h-6.7v-1.3h8.3v1.1c-0.9,1.7-2.2,4.6-2.8,6l-2.5,5.8H106L108.8,21z"/>
	</g>
	<g>
		<linearGradient id="SVGID_1_" gradientUnits="userSpaceOnUse" x1="198.4064" y1="50.2295" x2="27.3903" y2="50.2295">
			<stop  offset="0" style="stop-color:#2676DA"/>
			<stop  offset="1" style="stop-color:#36B4BB"/>
		</linearGradient>
		<path class="st2" d="M9.2,58.5c0.6-0.1,1.3-0.3,1.3-1.5V43.5c0-1.2-0.7-1.4-1.3-1.5v-0.2h6.1c4.1,0,5.9,1.6,5.9,3.9
			c0,2.1-1.4,3.4-3.8,3.7l-0.1,0c2.9,0.2,4.7,1.8,4.7,4.3c0,2.9-2,5-6.2,5H9.2V58.5z M15.1,42.4c-0.9,0-1.9,0-2.4,0.1v6.7h3.1
			c2.2,0,3.4-1.1,3.4-3.4C19.1,43.7,18,42.4,15.1,42.4z M15.7,49.9h-3.1V57c0,0.3,0,0.8,0.1,0.9c0.9,0,1.6,0.1,2.5,0.1
			c3.5,0,4.6-2,4.6-4.3C19.8,51,18.2,49.9,15.7,49.9z"/>
		<linearGradient id="SVGID_2_" gradientUnits="userSpaceOnUse" x1="198.4064" y1="53.2361" x2="27.3903" y2="53.2361">
			<stop  offset="0" style="stop-color:#2676DA"/>
			<stop  offset="1" style="stop-color:#36B4BB"/>
		</linearGradient>
		<path class="st3" d="M32,49.5c0-1.2-0.7-1.5-1.2-1.5v-0.2l3.2-0.2l0,0c0,0.8-0.1,1.9-0.1,2.1v7.1c0,1.3,0.7,1.5,1.3,1.5v0.2
			l-3.2,0.2l0-0.1c0-0.8,0.1-2.3,0.1-2.4h0c-0.7,1.8-1.9,2.6-3.7,2.6c-2.2,0-3.6-1.3-3.6-3.9v-5.6c0-1.3-0.7-1.5-1.3-1.6v-0.2
			l3.2-0.2l0,0c0,0.8-0.1,1.9-0.1,2.1v5.1c0,1.9,0.9,2.9,2.5,2.9c1.5,0,2.5-0.9,2.8-1.9V49.5z"/>
		<linearGradient id="SVGID_3_" gradientUnits="userSpaceOnUse" x1="198.4064" y1="50.278" x2="27.3903" y2="50.278">
			<stop  offset="0" style="stop-color:#2676DA"/>
			<stop  offset="1" style="stop-color:#36B4BB"/>
		</linearGradient>
		<path class="st4" d="M42.3,47.3c1.1,0,2.1,0.2,2.7,0.6v-4.4c0-1.3-0.6-1.5-1.4-1.5v-0.2l3.4-0.1l0,0.1c0,0.8-0.1,1.5-0.1,2.2v13
			c0,1.3,0.7,1.5,1.3,1.5v0.2l-3.2,0.2l0-0.1c0-0.8,0.1-2.1,0.1-2.3h0c-0.7,1.6-2,2.5-3.7,2.5c-2.9,0-4.7-2.3-4.7-5.4
			C36.6,49.9,38.7,47.3,42.3,47.3z M42.3,57.7c1.3,0,2.5-0.8,2.8-1.8v-6.3c-0.4-1-1.6-1.6-2.8-1.6c-2,0-3.6,1.9-3.6,5.1
			C38.7,55.5,39.7,57.7,42.3,57.7z"/>
		<linearGradient id="SVGID_4_" gradientUnits="userSpaceOnUse" x1="198.4064" y1="55.4549" x2="27.3903" y2="55.4549">
			<stop  offset="0" style="stop-color:#2676DA"/>
			<stop  offset="1" style="stop-color:#36B4BB"/>
		</linearGradient>
		<path class="st5" d="M54.2,47.3c1.4,0,2.7,0.5,3.2,1.1c0.3-1,0.7-1.6,1.6-1.6c0.5,0,1.1,0.2,1.1,1c0,0.2-0.1,0.5-0.1,0.6l-0.2,0
			c-0.3-0.1-0.9-0.2-1.3-0.2c-0.2,0-0.5,0-0.7,0.1c0,0-0.1,0.1-0.2,0.1c0.8,0.7,1.1,1.6,1.1,2.5c0,2.5-2.2,3.9-4.5,3.9
			c-0.6,0-1.3-0.1-1.8-0.2c-0.9,0.3-1.3,0.7-1.3,1.3c0,0.6,0.4,0.9,1.6,1.1c1.2,0.1,2.4,0.2,3.6,0.3c1.7,0.1,3.6,0.7,3.6,2.8
			c0,2.6-2.7,4.1-5.8,4.1c-2.5,0-5.2-0.7-5.2-3c0-0.9,0.5-1.9,1.9-2.3c0.2-0.1,0.7-0.2,0.9-0.2v0c-1.3-0.2-2.2-0.7-2.2-1.9
			c0-1.3,1.1-2,2.4-2.2v0c-1.3-0.6-2.3-1.7-2.3-3.3C49.7,48.7,51.9,47.3,54.2,47.3z M52.5,58.7c-0.8,0.2-1.6,0.8-1.6,2.2
			c0,1.8,1.4,2.7,3.4,2.7c2,0,3.9-0.9,3.9-3c0-1.1-0.9-1.6-2.4-1.7L52.5,58.7z M54.2,54.2c1.4,0,2.4-1,2.4-3.2c0-2.2-1-3.2-2.4-3.2
			c-1.5,0-2.5,0.9-2.5,3.2C51.7,53.3,52.8,54.2,54.2,54.2z"/>
		<linearGradient id="SVGID_5_" gradientUnits="userSpaceOnUse" x1="198.4064" y1="53.115" x2="27.3903" y2="53.115">
			<stop  offset="0" style="stop-color:#2676DA"/>
			<stop  offset="1" style="stop-color:#36B4BB"/>
		</linearGradient>
		<path class="st6" d="M65.9,47.3c2.7,0,4.4,1.7,4.4,5.2l-0.1,0.1h-7.5V53c0,2.9,1.6,4.7,3.9,4.7c1.1,0,2.3-0.2,3.2-1.1l0.2,0.1
			c-0.9,1.5-2.6,2.3-4.3,2.3c-3.3,0-5.1-2.4-5.1-5.6C60.7,49.4,63.2,47.3,65.9,47.3z M64.9,51.9c2.4,0,3.1-0.1,3.4-0.2
			c0-0.1,0-0.5,0-0.5c0-1.9-0.7-3.2-2.5-3.2c-1,0-1.9,0.5-2.4,1.7c-0.3,0.6-0.5,1.3-0.6,2.3H64.9z"/>
		<linearGradient id="SVGID_6_" gradientUnits="userSpaceOnUse" x1="198.4064" y1="51.7813" x2="27.3903" y2="51.7813">
			<stop  offset="0" style="stop-color:#2676DA"/>
			<stop  offset="1" style="stop-color:#36B4BB"/>
		</linearGradient>
		<path class="st7" d="M74.8,44.6v3.1h3.7l-0.1,0.9h-3.6v7.3c0,1.5,0.7,2.1,1.8,2.1c0.8,0,1.3-0.2,1.8-0.6l0.2,0.1
			c-0.6,0.9-1.6,1.6-3,1.6c-1.8,0-2.7-1-2.7-2.8v-7.6h-1.5v-0.2c1.5-0.3,2.6-1.5,3.1-3.7H74.8z"/>
		<linearGradient id="SVGID_7_" gradientUnits="userSpaceOnUse" x1="198.4064" y1="53.115" x2="27.3903" y2="53.115">
			<stop  offset="0" style="stop-color:#2676DA"/>
			<stop  offset="1" style="stop-color:#36B4BB"/>
		</linearGradient>
		<path class="st8" d="M95.7,53c0,3.2-2.3,5.9-5.6,5.9c-3.3,0-5.4-2.2-5.4-5.7c0-3.2,2.2-5.9,5.6-5.9C93.6,47.3,95.7,49.5,95.7,53z
			 M86.9,53.2c0,3.2,1.1,5.1,3.3,5.1c1.9,0,3.2-1.9,3.2-5.3c0-3.2-1.1-5.1-3.4-5.1C88.2,47.9,86.9,49.8,86.9,53.2z"/>
		<linearGradient id="SVGID_8_" gradientUnits="userSpaceOnUse" x1="198.4064" y1="50.0841" x2="27.3903" y2="50.0841">
			<stop  offset="0" style="stop-color:#2676DA"/>
			<stop  offset="1" style="stop-color:#36B4BB"/>
		</linearGradient>
		<path class="st9" d="M96.9,48.5v-0.2c0.6,0,1.2-0.3,1.5-0.7l0-0.7c0.1-2.9,1-5.4,4.3-5.4c1.3,0,3.2,0.6,3.2,1.9
			c0,0.7-0.5,1.3-1.3,1.3c-0.1,0-0.3,0-0.4,0v-0.5c0-1.6-0.7-2.2-1.6-2.2c-1.3,0-2.2,1.1-2.2,3.9v1.8h2.6l-0.1,0.9h-2.5V57
			c0,1.2,0.7,1.4,1.6,1.5v0.2H97v-0.2c0.7-0.1,1.3-0.3,1.3-1.5v-8.4H96.9z"/>
		<linearGradient id="SVGID_9_" gradientUnits="userSpaceOnUse" x1="198.4064" y1="51.7813" x2="27.3903" y2="51.7813">
			<stop  offset="0" style="stop-color:#2676DA"/>
			<stop  offset="1" style="stop-color:#36B4BB"/>
		</linearGradient>
		<path class="st10" d="M111.7,44.6v3.1h3.7l-0.1,0.9h-3.6v7.3c0,1.5,0.7,2.1,1.8,2.1c0.8,0,1.3-0.2,1.8-0.6l0.2,0.1
			c-0.6,0.9-1.6,1.6-3,1.6c-1.8,0-2.7-1-2.7-2.8v-7.6h-1.5v-0.2c1.5-0.3,2.6-1.5,3.1-3.7H111.7z"/>
		<linearGradient id="SVGID_10_" gradientUnits="userSpaceOnUse" x1="198.4064" y1="50.1568" x2="27.3903" y2="50.1568">
			<stop  offset="0" style="stop-color:#2676DA"/>
			<stop  offset="1" style="stop-color:#36B4BB"/>
		</linearGradient>
		<path class="st11" d="M125,51.3c0-1.9-0.9-2.7-2.5-2.7c-1.5,0-2.5,0.8-2.9,1.9V57c0,1.2,0.6,1.4,1.2,1.5v0.2h-4.5v-0.2
			c0.6-0.1,1.3-0.3,1.3-1.5V43.5c0-1.3-0.8-1.5-1.3-1.5v-0.2l3.2-0.1l0,0.1c0,0.8-0.1,1.5-0.1,2.2v6.1h0c0.7-1.7,1.9-2.6,3.6-2.6
			c2.2,0,3.7,1.2,3.7,3.8V57c0,1.2,0.7,1.4,1.4,1.5v0.2h-4.5v-0.2c0.6-0.1,1.2-0.3,1.2-1.5V51.3z"/>
		<linearGradient id="SVGID_11_" gradientUnits="userSpaceOnUse" x1="198.4064" y1="53.115" x2="27.3903" y2="53.115">
			<stop  offset="0" style="stop-color:#2676DA"/>
			<stop  offset="1" style="stop-color:#36B4BB"/>
		</linearGradient>
		<path class="st12" d="M134.6,47.3c2.7,0,4.4,1.7,4.4,5.2l-0.1,0.1h-7.5V53c0,2.9,1.6,4.7,3.9,4.7c1.1,0,2.3-0.2,3.2-1.1l0.2,0.1
			c-0.9,1.5-2.6,2.3-4.3,2.3c-3.3,0-5.1-2.4-5.1-5.6C129.4,49.4,131.8,47.3,134.6,47.3z M133.5,51.9c2.4,0,3.1-0.1,3.4-0.2
			c0-0.1,0-0.5,0-0.5c0-1.9-0.7-3.2-2.5-3.2c-1,0-1.9,0.5-2.4,1.7c-0.3,0.6-0.5,1.3-0.6,2.3H133.5z"/>
		<linearGradient id="SVGID_12_" gradientUnits="userSpaceOnUse" x1="198.4064" y1="50.0841" x2="27.3903" y2="50.0841">
			<stop  offset="0" style="stop-color:#2676DA"/>
			<stop  offset="1" style="stop-color:#36B4BB"/>
		</linearGradient>
		<path class="st13" d="M145.3,48.5v-0.2c0.6,0,1.2-0.3,1.5-0.7l0-0.7c0.1-2.9,1-5.4,4.3-5.4c1.3,0,3.2,0.6,3.2,1.9
			c0,0.7-0.5,1.3-1.3,1.3c-0.1,0-0.3,0-0.4,0v-0.5c0-1.6-0.7-2.2-1.6-2.2c-1.3,0-2.2,1.1-2.2,3.9v1.8h2.6l-0.1,0.9h-2.5V57
			c0,1.2,0.7,1.4,1.6,1.5v0.2h-4.8v-0.2c0.7-0.1,1.3-0.3,1.3-1.5v-8.4H145.3z"/>
		<linearGradient id="SVGID_13_" gradientUnits="userSpaceOnUse" x1="198.4064" y1="53.2361" x2="27.3903" y2="53.2361">
			<stop  offset="0" style="stop-color:#2676DA"/>
			<stop  offset="1" style="stop-color:#36B4BB"/>
		</linearGradient>
		<path class="st14" d="M160.2,49.5c0-1.2-0.7-1.5-1.2-1.5v-0.2l3.2-0.2l0,0c0,0.8-0.1,1.9-0.1,2.1v7.1c0,1.3,0.7,1.5,1.3,1.5v0.2
			l-3.2,0.2l0-0.1c0-0.8,0.1-2.3,0.1-2.4h0c-0.7,1.8-1.9,2.6-3.7,2.6c-2.2,0-3.6-1.3-3.6-3.9v-5.6c0-1.3-0.7-1.5-1.3-1.6v-0.2
			l3.2-0.2l0,0c0,0.8-0.1,1.9-0.1,2.1v5.1c0,1.9,0.9,2.9,2.5,2.9c1.5,0,2.5-0.9,2.8-1.9V49.5z"/>
		<linearGradient id="SVGID_14_" gradientUnits="userSpaceOnUse" x1="198.4064" y1="51.7813" x2="27.3903" y2="51.7813">
			<stop  offset="0" style="stop-color:#2676DA"/>
			<stop  offset="1" style="stop-color:#36B4BB"/>
		</linearGradient>
		<path class="st15" d="M167.6,44.6v3.1h3.7l-0.1,0.9h-3.6v7.3c0,1.5,0.7,2.1,1.8,2.1c0.8,0,1.3-0.2,1.8-0.6l0.2,0.1
			c-0.6,0.9-1.6,1.6-3,1.6c-1.8,0-2.7-1-2.7-2.8v-7.6h-1.5v-0.2c1.5-0.3,2.6-1.5,3.1-3.7H167.6z"/>
		<linearGradient id="SVGID_15_" gradientUnits="userSpaceOnUse" x1="198.4064" y1="53.2361" x2="27.3903" y2="53.2361">
			<stop  offset="0" style="stop-color:#2676DA"/>
			<stop  offset="1" style="stop-color:#36B4BB"/>
		</linearGradient>
		<path class="st16" d="M180.6,49.5c0-1.2-0.7-1.5-1.2-1.5v-0.2l3.2-0.2l0,0c0,0.8-0.1,1.9-0.1,2.1v7.1c0,1.3,0.7,1.5,1.3,1.5v0.2
			l-3.2,0.2l0-0.1c0-0.8,0.1-2.3,0.1-2.4h0c-0.7,1.8-1.9,2.6-3.7,2.6c-2.2,0-3.6-1.3-3.6-3.9v-5.6c0-1.3-0.7-1.5-1.3-1.6v-0.2
			l3.2-0.2l0,0c0,0.8-0.1,1.9-0.1,2.1v5.1c0,1.9,0.9,2.9,2.5,2.9c1.5,0,2.5-0.9,2.8-1.9V49.5z"/>
		<linearGradient id="SVGID_16_" gradientUnits="userSpaceOnUse" x1="198.4064" y1="53.0422" x2="27.3903" y2="53.0422">
			<stop  offset="0" style="stop-color:#2676DA"/>
			<stop  offset="1" style="stop-color:#36B4BB"/>
		</linearGradient>
		<path class="st17" d="M185,58.5c0.6-0.1,1.3-0.3,1.3-1.5v-7.5c0-1.3-0.8-1.5-1.3-1.6v-0.2l3.2-0.2l0,0.1c-0.1,0.8-0.1,2.2-0.1,2.4
			h0c0.6-1.7,1.6-2.6,3-2.6c0.7,0,1.4,0.3,1.4,1.1c0,0.2,0,0.5-0.1,0.6l-0.2,0c-0.3-0.1-0.9-0.2-1.5-0.2c-1.1,0-2.2,0.4-2.6,1.6V57
			c0,1.2,0.7,1.4,1.6,1.5v0.2H185V58.5z"/>
		<linearGradient id="SVGID_17_" gradientUnits="userSpaceOnUse" x1="198.4064" y1="53.115" x2="27.3903" y2="53.115">
			<stop  offset="0" style="stop-color:#2676DA"/>
			<stop  offset="1" style="stop-color:#36B4BB"/>
		</linearGradient>
		<path class="st18" d="M198.2,47.3c2.7,0,4.4,1.7,4.4,5.2l-0.1,0.1H195V53c0,2.9,1.6,4.7,3.9,4.7c1.1,0,2.3-0.2,3.2-1.1l0.2,0.1
			c-0.9,1.5-2.6,2.3-4.3,2.3c-3.3,0-5.1-2.4-5.1-5.6C193,49.4,195.5,47.3,198.2,47.3z M197.2,51.9c2.4,0,3.1-0.1,3.4-0.2
			c0-0.1,0-0.5,0-0.5c0-1.9-0.7-3.2-2.5-3.2c-1,0-1.9,0.5-2.4,1.7c-0.3,0.6-0.5,1.3-0.6,2.3H197.2z"/>
	</g>
</g>
</svg>
