<?xml version="1.0" encoding="utf-8"?>
<!-- Generator: Adobe Illustrator 19.1.0, SVG Export Plug-In . SVG Version: 6.00 Build 0)  -->
<svg version="1.1" id="Layer_1" xmlns="http://www.w3.org/2000/svg" xmlns:xlink="http://www.w3.org/1999/xlink" x="0px" y="0px"
	 viewBox="0 0 24 24" style="enable-background:new 0 0 24 24;" xml:space="preserve">
<style type="text/css">
	.st0{fill:#999999;}
	.st1{fill:#FFFFFF;}
</style>
<g>
	<path class="st0" d="M23.3,11.6c0,6.2-5,11.1-11.1,11.1S1,17.8,1,11.6S6,0.5,12.1,0.5S23.3,5.5,23.3,11.6z M20.5,20.4
		C18.1,22.8,15.3,24,12,24s-6.1-1.2-8.5-3.5C1.2,18.2,0,15.4,0,12.1C0,8.8,1.2,6,3.5,3.6C5.9,1.2,8.7,0,12,0s6.1,1.2,8.5,3.5
		c2.4,2.3,3.5,5.1,3.5,8.4C24,15.2,22.8,18,20.5,20.4z M19.3,4.6c-2.1-2-4.5-3.1-7.3-3.1s-5.3,1-7.3,3.1c-2.1,2-3.1,4.5-3.1,7.3
		c0,2.8,1,5.3,3.1,7.3c2.1,2,4.5,3.1,7.3,3.1s5.3-1,7.3-3.1c2.1-2,3.1-4.5,3.1-7.3C22.4,9.1,21.4,6.7,19.3,4.6z"/>
</g>
<rect x="5.4" y="11.6" class="st1" width="12.9" height="1.5"/>
</svg>
