<?xml version="1.0" encoding="utf-8"?>
<!-- Generator: Adobe Illustrator 19.1.0, SVG Export Plug-In . SVG Version: 6.00 Build 0)  -->
<svg version="1.1" id="Layer_1" xmlns="http://www.w3.org/2000/svg" xmlns:xlink="http://www.w3.org/1999/xlink" x="0px" y="0px"
	 viewBox="0 0 24 24" style="enable-background:new 0 0 24 24;" xml:space="preserve">
<style type="text/css">
	.st0{fill:#999999;}
	.st1{fill:#FFFFFF;}
</style>
<g>
	<path class="st0" d="M20.5,20.4C18.1,22.8,15.3,24,12,24s-6.1-1.2-8.5-3.5C1.2,18.2,0,15.4,0,12.1C0,8.8,1.2,6,3.5,3.6
		C5.9,1.2,8.7,0,12,0s6.1,1.2,8.5,3.5c2.4,2.3,3.5,5.1,3.5,8.4C24,15.2,22.8,18,20.5,20.4z"/>
	<path class="st0" d="M19.3,4.6c-2.1-2-4.5-3.1-7.3-3.1s-5.3,1-7.3,3.1c-2.1,2-3.1,4.5-3.1,7.3c0,2.8,1,5.3,3.1,7.3
		c2.1,2,4.5,3.1,7.3,3.1s5.3-1,7.3-3.1c2.1-2,3.1-4.5,3.1-7.3C22.4,9.1,21.4,6.7,19.3,4.6z"/>
	<polygon class="st1" points="18.3,7 15.2,7 15.2,8.5 16.7,8.5 16.7,11.7 7.4,11.7 10.9,7.9 9.6,6.8 4.7,12.5 9.5,18 10.7,16.9 
		7.6,13.3 18.3,13.3 	"/>
</g>
</svg>
