<?xml version="1.0" encoding="utf-8"?>
<!-- Generator: Adobe Illustrator 19.1.0, SVG Export Plug-In . SVG Version: 6.00 Build 0)  -->
<svg version="1.1" id="Layer_1" xmlns="http://www.w3.org/2000/svg" xmlns:xlink="http://www.w3.org/1999/xlink" x="0px" y="0px"
	 viewBox="0 0 137 123" style="enable-background:new 0 0 137 123;" xml:space="preserve">
<style type="text/css">
	.st0{fill:#BECACC;}
	.st1{fill:#DAE3E5;}
	.st2{filter:url(#Adobe_OpacityMaskFilter);}
	.st3{fill:#565656;}
	.st4{fill:#A1B7B6;}
	.st5{opacity:0.2;mask:url(#SVGID_1_);fill:#515859;}
	.st6{fill:#4885B7;}
</style>
<g>
	<g>
		<polygon class="st0" points="34.2,49.6 30.7,49.6 68.1,5 105.6,49.3 102,49.3 68.1,9.2 		"/>
		<ellipse class="st0" cx="68.2" cy="7.3" rx="3.4" ry="3.6"/>
		<path class="st1" d="M1.8,49.2H137l-19.7,68.4c-0.9,3.1-3.7,5.2-6.9,5.2H24.9c-3.3,0-6.2-2.2-7-5.4L0.9,49"/>
	</g>
	<defs>
		<filter id="Adobe_OpacityMaskFilter" filterUnits="userSpaceOnUse" x="-36" y="-3.6" width="150.9" height="152.6">
			<feColorMatrix  type="matrix" values="1 0 0 0 0  0 1 0 0 0  0 0 1 0 0  0 0 0 1 0"/>
		</filter>
	</defs>
	<mask maskUnits="userSpaceOnUse" x="-36" y="-3.6" width="150.9" height="152.6" id="SVGID_1_">
		<g class="st2">
			<g>
				<polygon class="st3" points="34.2,49.6 30.7,49.6 68.1,5 105.6,49.3 102,49.3 68.1,9.2 				"/>
				<ellipse class="st3" cx="68.2" cy="7.3" rx="3.4" ry="3.6"/>
				<path class="st4" d="M1.8,49.2H137l-19.7,68.4c-0.9,3.1-3.7,5.2-6.9,5.2H24.9c-3.3,0-6.2-2.2-7-5.4L0.9,49"/>
			</g>
		</g>
	</mask>
	<path class="st5" d="M114.9-3.6L50.4,149H-36V-2.3C-36-2.3,114.1-3.6,114.9-3.6z"/>
	<g>
		<path class="st6" d="M26.4,103.6h2.8c2.1,0,3.5,0.8,3.5,2.5c0,1.1-0.5,2-1.6,2.3v0.1c1.4,0.4,2,1.3,2,2.6c0,1.9-1.1,3-3.6,3h-3.1
			V103.6z M29.3,108c1.6,0,2.2-0.6,2.2-1.8c0-1.2-0.9-1.5-2.5-1.5h-1.5v3.3H29.3z M29.5,112.9c1.5,0,2.3-0.6,2.3-1.9
			c0-1.5-0.9-2-2.6-2h-1.7v3.9H29.5z"/>
		<path class="st6" d="M39.1,113.1L39.1,113.1c-0.6,0.9-1.6,1.1-2.4,1.1c-1.3,0-2.2-0.8-2.2-2.1c0-1.4,0.9-2.4,3-2.4h1.6v-0.8
			c0-1-0.5-1.4-1.6-1.4c-0.7,0-1.3,0.3-1.5,0.8h-1.1c0.1-1.2,1.3-1.8,2.6-1.8c1.7,0,2.7,0.8,2.7,2.4v5.2h-1.1V113.1z M39.1,110.7
			h-1.5c-1.2,0-1.9,0.3-1.9,1.3c0,0.8,0.5,1.2,1.4,1.2c1.2,0,2.1-0.8,2.1-2.1V110.7z"/>
		<path class="st6" d="M42.9,112.3c0.2,0.5,0.8,0.8,1.6,0.8c1.1,0,1.6-0.4,1.6-1.1c0-0.5-0.2-0.9-1.5-1.2l-0.4-0.1
			c-1.2-0.3-2.2-0.8-2.2-2.2c0-1.4,1.2-2.1,2.5-2.1c1.5,0,2.6,0.6,2.7,1.8h-1.1c-0.2-0.5-0.7-0.8-1.5-0.8c-0.9,0-1.5,0.3-1.5,1
			c0,0.6,0.4,0.9,1.5,1.2l0.3,0.1c1.5,0.4,2.3,0.9,2.3,2.2c0,1.4-1.3,2.2-2.8,2.2c-1.5,0-2.6-0.6-2.7-1.8H42.9z"/>
		<path class="st6" d="M49,103.6h1.2v6.1h0.1c0.2-0.2,0.4-0.4,0.5-0.6l2.4-2.5h1.5l-3.4,3.4l3.6,4h-1.6l-2.5-2.8
			c-0.2-0.2-0.3-0.4-0.5-0.7h-0.1v3.5H49V103.6z"/>
		<path class="st6" d="M56.5,110.6c0,1.8,0.9,2.5,2,2.5c0.7,0,1.5-0.2,1.8-0.9h1.1c-0.3,1.2-1.5,2-2.9,2c-2.2,0-3.2-1.6-3.2-3.8
			c0-2,1-3.9,3.3-3.9c1.8,0,2.9,1.2,2.9,3.5c0,0.2,0,0.3,0,0.6L56.5,110.6L56.5,110.6z M60.3,109.6L60.3,109.6
			c-0.1-1.4-0.6-2.1-1.8-2.1c-1.3,0-1.9,1-2,2.1H60.3z"/>
		<path class="st6" d="M63.7,107.6h-1.4v-1h1.4l0-2.1h1.1v2.1h1.9v1h-1.9v4c0,1.3,0.5,1.5,1.4,1.5h0.6v0.9c-0.3,0.1-0.7,0.1-1,0.1
			c-1.5,0-2.2-0.6-2.2-2.4V107.6z"/>
		<path class="st6" d="M74.3,104.7h-3v-1.1h7.2v1.1h-3v9.3h-1.2V104.7z"/>
		<path class="st6" d="M78.2,110.3c0-2,0.9-3.9,3.2-3.9c2.2,0,3.2,1.5,3.2,3.9c0,2-1,3.9-3.2,3.9C79.2,114.2,78.2,112.7,78.2,110.3z
			 M83.5,110.3c0-2-0.7-2.8-2-2.8c-1.3,0-2,0.9-2,2.8c0,2,0.7,2.8,2,2.8C82.8,113.1,83.5,112.2,83.5,110.3z"/>
		<path class="st6" d="M86.7,107.6h-1.4v-1h1.4l0-2.1h1.1v2.1h1.9v1h-1.9v4c0,1.3,0.5,1.5,1.4,1.5H90v0.9c-0.3,0.1-0.7,0.1-1,0.1
			c-1.5,0-2.2-0.6-2.2-2.4V107.6z"/>
		<path class="st6" d="M95.7,113.1L95.7,113.1c-0.6,0.9-1.6,1.1-2.4,1.1c-1.3,0-2.2-0.8-2.2-2.1c0-1.4,0.9-2.4,3-2.4h1.6v-0.8
			c0-1-0.5-1.4-1.6-1.4c-0.7,0-1.3,0.3-1.5,0.8h-1.1c0.1-1.2,1.3-1.8,2.6-1.8c1.7,0,2.7,0.8,2.7,2.4v5.2h-1.1V113.1z M95.6,110.7
			h-1.5c-1.2,0-1.9,0.3-1.9,1.3c0,0.8,0.5,1.2,1.4,1.2c1.2,0,2.1-0.8,2.1-2.1V110.7z"/>
		<path class="st6" d="M99,103.6h1.2V114H99V103.6z"/>
	</g>
</g>
</svg>
