<?xml version="1.0" encoding="utf-8"?>
<!-- Generator: Adobe Illustrator 19.1.0, SVG Export Plug-In . SVG Version: 6.00 Build 0)  -->
<svg version="1.1" id="Layer_1" xmlns="http://www.w3.org/2000/svg" xmlns:xlink="http://www.w3.org/1999/xlink" x="0px" y="0px"
	 width="20px" height="20px" viewBox="-579.6 148.6 20 20" style="enable-background:new -579.6 148.6 20 20;" xml:space="preserve"
	>
<style type="text/css">
	.st0{fill:#EF4123;}
	.st1{fill:#FFFFFF;}
</style>
<circle class="st0" cx="-569.6" cy="158.6" r="9.6"/>
<g>
	<path class="st1" d="M-572.5,156.5h-0.2c0.1-1.4,0.9-2.3,2.7-2.3c1.3,0,2.6,0.7,2.6,2.1c0,1.2-0.7,1.9-2.6,3.3
		c-0.3,0.2-0.8,0.6-1.2,1v0h2.5c0.8,0,1,0,1.2-0.6h0.2l-0.1,2.1h-5.4v-0.2c0.2-0.3,1.4-1.5,1.9-2.1c1.1-1.2,1.5-2,1.5-2.9
		c0-0.9-0.5-1.5-1.5-1.5C-571.9,155.4-572.3,156-572.5,156.5z"/>
</g>
</svg>
