<?xml version="1.0" encoding="utf-8"?>
<!-- Generator: Adobe Illustrator 19.1.0, SVG Export Plug-In . SVG Version: 6.00 Build 0)  -->
<svg version="1.1" id="Layer_1" xmlns="http://www.w3.org/2000/svg" xmlns:xlink="http://www.w3.org/1999/xlink" x="0px" y="0px"
	 width="20px" height="20px" viewBox="-579.6 148.6 20 20" style="enable-background:new -579.6 148.6 20 20;" xml:space="preserve"
	>
<style type="text/css">
	.st0{fill:#EF4123;}
	.st1{fill:#FFFFFF;}
</style>
<circle class="st0" cx="-569.6" cy="158.6" r="9.6"/>
<g>
	<path class="st1" d="M-572.1,162c2.3-0.3,3.1-2.3,3.2-4.2h0c-0.3,0.9-1,1.4-1.8,1.4c-1.3,0-2-1-2-2.3c0-1.5,1.2-2.7,2.9-2.7
		c1.9,0,2.9,1.3,2.9,3.3c0,2.5-1.8,4.7-4.6,4.7c-0.2,0-0.4,0-0.6,0V162z M-569.9,158.2c0.4,0,0.7-0.2,0.9-0.8c0-0.2,0-0.3,0-0.7
		c0-0.7-0.1-2.1-0.9-2.1c-0.9,0-1,1.2-1,2C-570.9,157.2-570.7,158.2-569.9,158.2z"/>
</g>
</svg>
