<?xml version="1.0" encoding="utf-8"?>
<!-- Generator: Adobe Illustrator 19.1.0, SVG Export Plug-In . SVG Version: 6.00 Build 0)  -->
<svg version="1.1" id="Layer_1" xmlns="http://www.w3.org/2000/svg" xmlns:xlink="http://www.w3.org/1999/xlink" x="0px" y="0px"
	 width="95px" height="95px" viewBox="0 0 95 95" enable-background="new 0 0 95 95" xml:space="preserve">
<circle opacity="0.85" fill="none" stroke="#F15D44" stroke-width="5" stroke-miterlimit="10" cx="47.6" cy="47" r="42.7"/>
<circle opacity="0.95" fill="#F15D44" cx="47.6" cy="47" r="33.6"/>
<g>
	<path fill="#FFFFFF" d="M50.3,56c0,0.5,0.1,0.9,0.2,1.2c0.1,0.3,0.3,0.6,0.5,0.7c0.2,0.2,0.4,0.3,0.6,0.4c0.2,0.1,0.5,0.1,0.7,0.2
		v0.7h-9.4v-0.7c0.2,0,0.5-0.1,0.7-0.2c0.2-0.1,0.5-0.2,0.6-0.4c0.2-0.2,0.3-0.4,0.5-0.8c0.1-0.3,0.2-0.7,0.2-1.2V45.4
		c0-0.5-0.1-0.9-0.2-1.2c-0.1-0.3-0.3-0.6-0.5-0.8s-0.4-0.3-0.6-0.4c-0.2-0.1-0.4-0.1-0.6-0.2v-0.7l7.5-0.4l0.1,0.1
		c-0.1,0.6-0.1,1.3-0.1,2c0,0.7,0,1.4,0,2.1V56z M44.3,36.1c0-0.9,0.3-1.6,1-2.1c0.6-0.5,1.4-0.8,2.3-0.8c0.9,0,1.7,0.3,2.3,0.8
		c0.6,0.5,0.9,1.2,0.9,2.2c0,0.9-0.3,1.5-0.9,2.1c-0.6,0.5-1.4,0.8-2.3,0.8s-1.7-0.3-2.3-0.8C44.6,37.7,44.3,37,44.3,36.1z"/>
</g>
</svg>
