<?xml version="1.0" encoding="utf-8"?>
<!-- Generator: Adobe Illustrator 19.1.0, SVG Export Plug-In . SVG Version: 6.00 Build 0)  -->
<svg version="1.0" id="Layer_1" xmlns="http://www.w3.org/2000/svg" xmlns:xlink="http://www.w3.org/1999/xlink" x="0px" y="0px"
	 viewBox="0 0 50 50" style="enable-background:new 0 0 50 50;" xml:space="preserve">
<style type="text/css">
	.st0{fill:#96AAF2;}
	.st1{fill:#FFFFFF;}
</style>
<g>
	<rect x="0" class="st0" width="50" height="50"/>
	<g>
		<path class="st1" d="M31.6,33.3v6H19.5v-6h2v-8h-2v-6h10.1v14.1H31.6z M28.4,10.3c-0.9-0.9-2-1.4-3.2-1.4c-1.3,0-2.4,0.5-3.3,1.4
			c-0.9,0.9-1.4,2-1.4,3.2c0,1.3,0.4,2.4,1.4,3.3c0.9,0.9,2,1.4,3.3,1.4c1.3,0,2.3-0.5,3.2-1.4c0.9-0.9,1.4-2,1.4-3.3
			C29.7,12.3,29.3,11.2,28.4,10.3z"/>
	</g>
</g>
</svg>
