
<svg version="1.1" id="Layer_1" xmlns="http://www.w3.org/2000/svg" xmlns:xlink="http://www.w3.org/1999/xlink" x="0px" y="0px"
	 width="550px" height="448px" viewBox="0 0 550 448" enable-background="new 0 0 550 448" xml:space="preserve">
<g>
</g>
<g>
</g>
<g>
</g>
<g>
	<text transform="matrix(1 0 0 1 14.8662 431.002)" fill="#797979" font-family="'CuratorRegular'" font-size="15px">SOURCE: IMF</text>
</g>
<g>
	<line fill="none" stroke="#000000" stroke-miterlimit="10" x1="36.6" y1="358" x2="538.7" y2="358"/>
	<g>
		<g>
			<line fill="none" stroke="#000000" stroke-miterlimit="10" x1="36.6" y1="366" x2="36.6" y2="358"/>
			<line fill="none" stroke="#000000" stroke-miterlimit="10" x1="71.6" y1="366" x2="71.6" y2="358"/>
			<line fill="none" stroke="#000000" stroke-miterlimit="10" x1="106.7" y1="366" x2="106.7" y2="358"/>
			<line fill="none" stroke="#000000" stroke-miterlimit="10" x1="141.7" y1="366" x2="141.7" y2="358"/>
			<line fill="none" stroke="#000000" stroke-miterlimit="10" x1="176.7" y1="366" x2="176.7" y2="358"/>
			<line fill="none" stroke="#000000" stroke-miterlimit="10" x1="211.8" y1="366" x2="211.8" y2="358"/>
			<line fill="none" stroke="#000000" stroke-miterlimit="10" x1="246.8" y1="366" x2="246.8" y2="358"/>
			<line fill="none" stroke="#000000" stroke-miterlimit="10" x1="281.8" y1="366" x2="281.8" y2="358"/>
			<line fill="none" stroke="#000000" stroke-miterlimit="10" x1="316.9" y1="366" x2="316.9" y2="358"/>
			<line fill="none" stroke="#000000" stroke-miterlimit="10" x1="351.9" y1="366" x2="351.9" y2="358"/>
			<line fill="none" stroke="#000000" stroke-miterlimit="10" x1="386.9" y1="366" x2="386.9" y2="358"/>
			<line fill="none" stroke="#000000" stroke-miterlimit="10" x1="421.9" y1="366" x2="421.9" y2="358"/>
			<line fill="none" stroke="#000000" stroke-miterlimit="10" x1="457" y1="366" x2="457" y2="358"/>
			<line fill="none" stroke="#000000" stroke-miterlimit="10" x1="492" y1="366" x2="492" y2="358"/>
			<line fill="none" stroke="#000000" stroke-miterlimit="10" x1="527" y1="366" x2="527" y2="358"/>
		</g>
		<g>
		</g>
	</g>
</g>
<g>
	<g>
		<g>
			<text transform="matrix(1 0 0 1 18.124 360.1797)" fill="#373737" font-family="'CuratorRegular'" font-size="17.3453px">0</text>
			<text transform="matrix(1 0 0 1 19.1997 280.6797)" fill="#373737" font-family="'CuratorRegular'" font-size="17.3453px">5</text>
			<text transform="matrix(1 0 0 1 12.0703 201.1797)" fill="#373737" font-family="'CuratorRegular'" font-size="17.3453px">10</text>
			<text transform="matrix(1 0 0 1 13.146 121.6797)" fill="#373737" font-family="'CuratorRegular'" font-size="17.3453px">15</text>
			<text transform="matrix(1 0 0 1 5.7197 42.1797)" fill="#373737" font-family="'CuratorRegular'" font-size="17.3453px">20%</text>
		</g>
	</g>
	<g>
		<g>
			<line fill="none" stroke="#000000" stroke-miterlimit="10" x1="36.6" y1="358" x2="49.2" y2="358"/>
			<line fill="none" stroke="#A3A3A3" stroke-miterlimit="10" stroke-dasharray="1,2" x1="36.6" y1="278.5" x2="538.7" y2="278.5"/>
			<line fill="none" stroke="#A3A3A3" stroke-miterlimit="10" stroke-dasharray="1,2" x1="36.6" y1="199" x2="538.7" y2="199"/>
			<line fill="none" stroke="#A3A3A3" stroke-miterlimit="10" stroke-dasharray="1,2" x1="36.6" y1="119.5" x2="538.7" y2="119.5"/>
			<line fill="none" stroke="#A3A3A3" stroke-miterlimit="10" stroke-dasharray="1,2" x1="45.6" y1="40" x2="538.7" y2="40"/>
		</g>
		<g>
		</g>
	</g>
</g>
<g>
	<g>
		<g>
			<g class="animate-line">
				<path class="p" fill="none" stroke="#EF4123" stroke-width="2" stroke-linecap="round" stroke-miterlimit="10" d="M37.7,232.4l11.7,44.5
					l11.7-62l11.7-28.6l11.7-70l11.7,27l11.7,73.1l11.7-44.5l11.7,6.4l11.7,112.9l11.7,4.8l11.7-84.3l11.7-81.1l11.7,6.4l11.7,12.7
					l11.7,33.4l11.7,17.5l11.7,11.1l11.7,22.3l11.7,3.2l11.7-12.7l11.7,1.6l11.7-12.7l11.7-14.3l11.7-1.6l11.7-19.1l11.7-22.3
					l11.7-23.9l11.7,73.1l11.7,6.4l11.7-22.3l11.7,17.5l11.7,25.4L423,234l11.7,7.9l11.7,6.4l11.7,3.2l11.7,1.6l11.7,6.4l11.7,3.2
					l11.7,1.6l11.7,1.6l11.7,1.6c0,0,1.2,0,1.5-0.3"/>
			</g>
		</g>
	</g>
</g>
<g>
	<g>
		<text transform="matrix(1 0 0 1 18.0601 385.5059)" fill="#333333" font-family="'CuratorRegular'" font-size="17.3453px">1980</text>
		<text transform="matrix(1 0 0 1 87.7363 385.5059)" fill="#333333" font-family="'CuratorRegular'" font-size="17.3453px">1986</text>
		<text transform="matrix(1 0 0 1 156.7324 385.5059)" fill="#333333" font-family="'CuratorRegular'" font-size="17.3453px">1992</text>
		<text transform="matrix(1 0 0 1 225.5259 385.5059)" fill="#333333" font-family="'CuratorRegular'" font-size="17.3453px">1998</text>
		<text transform="matrix(1 0 0 1 298.5469 385.5059)" fill="#333333" font-family="'CuratorRegular'" font-size="17.3453px">2004</text>
		<text transform="matrix(1 0 0 1 366.8223 385.5059)" fill="#333333" font-family="'CuratorRegular'" font-size="17.3453px">2010</text>
		<text transform="matrix(1 0 0 1 435.1582 385.5059)" fill="#333333" font-family="'CuratorRegular'" font-size="17.3453px">2016</text>
		<text transform="matrix(1 0 0 1 508.0166 385.5059)" fill="#333333" font-family="'CuratorRegular'" font-size="17.3453px">2022</text>
	</g>
</g>
<line fill="none" stroke="#FFFFFF" stroke-width="2" stroke-linecap="round" stroke-miterlimit="10" x1="482.3" y1="250.2" x2="482.3" y2="272.9"/>
<line fill="none" stroke="#FFFFFF" stroke-width="2" stroke-linecap="round" stroke-miterlimit="10" x1="486.3" y1="250.2" x2="486.3" y2="272.9"/>
<line fill="none" stroke="#FFFFFF" stroke-width="2" stroke-linecap="round" stroke-miterlimit="10" x1="490.3" y1="250.2" x2="490.3" y2="272.9"/>
<line fill="none" stroke="#FFFFFF" stroke-width="2" stroke-linecap="round" stroke-miterlimit="10" x1="494.3" y1="250.2" x2="494.3" y2="272.9"/>
<line fill="none" stroke="#FFFFFF" stroke-width="2" stroke-linecap="round" stroke-miterlimit="10" x1="498.3" y1="250.2" x2="498.3" y2="272.9"/>
<line fill="none" stroke="#FFFFFF" stroke-width="2" stroke-linecap="round" stroke-miterlimit="10" x1="502.3" y1="250.2" x2="502.3" y2="272.9"/>
<line fill="none" stroke="#FFFFFF" stroke-width="2" stroke-linecap="round" stroke-miterlimit="10" x1="506.3" y1="250.2" x2="506.3" y2="272.9"/>
<line fill="none" stroke="#FFFFFF" stroke-width="2" stroke-linecap="round" stroke-miterlimit="10" x1="510.3" y1="250.2" x2="510.3" y2="272.9"/>
<line fill="none" stroke="#FFFFFF" stroke-width="2" stroke-linecap="round" stroke-miterlimit="10" x1="514.3" y1="250.2" x2="514.3" y2="272.9"/>
<line fill="none" stroke="#FFFFFF" stroke-width="2" stroke-linecap="round" stroke-miterlimit="10" x1="518.3" y1="250.2" x2="518.3" y2="272.9"/>
<line fill="none" stroke="#FFFFFF" stroke-width="2" stroke-linecap="round" stroke-miterlimit="10" x1="522.3" y1="250.2" x2="522.3" y2="272.9"/>
<line fill="none" stroke="#FFFFFF" stroke-width="2" stroke-linecap="round" stroke-miterlimit="10" x1="526.3" y1="250.2" x2="526.3" y2="272.9"/>
<line fill="none" stroke="#FFFFFF" stroke-width="2" stroke-linecap="round" stroke-miterlimit="10" x1="530.3" y1="250.2" x2="530.3" y2="272.9"/>
</svg>
