<svg version="1.1"  xmlns="http://www.w3.org/2000/svg" xmlns:xlink="http://www.w3.org/1999/xlink" x="0px" y="0px"
	 width="70px" height="70px" viewbox="0 0 70 70" enable-background="new 0 0 70 70" xml:space="preserve">
<path class="animate" fill="none" stroke="#002626" stroke-miterlimit="10" d="M34.7,2c18.2,0,33,14.8,33,33s-14.8,33-33,33
	s-33-14.8-33-33S16.5,2,34.7,2"/>
<g class="fade-in">
	<g>
		<path fill="#002626" d="M35.5,45.5c-0.2-0.1-0.4-0.1-0.5-0.2c-1.3-0.5-2-1.9-1.7-3.4c0.3-1.3,1.5-2.3,2.8-2.3
			c1.4,0,2.5,1.1,2.7,2.5c0.2,1.3-0.6,2.7-1.9,3.2c-0.1,0-0.3,0.1-0.4,0.2L35.5,45.5L35.5,45.5z"/>
		<path fill="#002626" d="M50.9,29.6c-0.2,0.4-0.3,0.8-0.6,1c-0.4,0.5-1,1-1.4,1.5c-0.7,0.7-1.2,0.7-1.7-0.1
			c-1.6-2.4-3.8-4.2-6.6-5.2c-5.8-2.2-12.3-0.1-15.9,5.2c-0.1,0.1-0.2,0.3-0.3,0.4c-0.3,0.4-0.8,0.4-1.2,0.1
			c-0.6-0.6-1.3-1.3-1.9-1.9C21,30,21,29.3,21.4,28.8c2.9-3.9,6.7-6.6,11.6-7.3c7.2-1.1,13,1.5,17.5,7.2
			C50.7,28.9,50.8,29.3,50.9,29.6z"/>
		<path fill="#002626" d="M45.1,35.8c-0.2,0.3-0.3,0.7-0.6,1c-0.5,0.6-1,1.1-1.6,1.6c-0.5,0.6-1.1,0.5-1.5-0.1
			c-1-1.3-2.3-2.3-3.9-2.7c-2.7-0.6-4.9,0.2-6.7,2.3c-0.1,0.2-0.3,0.4-0.4,0.5c-0.4,0.4-0.9,0.5-1.3,0c-0.6-0.6-1.2-1.2-1.7-1.8
			c-0.5-0.6-0.5-1.3,0-1.9c2.5-2.9,5.6-4.3,9.4-4.1c3.2,0.2,5.9,1.7,8,4.2C44.8,35.1,44.9,35.4,45.1,35.8z"/>
	</g>
</g>
</svg>
