<?xml version="1.0" encoding="utf-8"?>
<!-- Generator: Adobe Illustrator 18.1.1, SVG Export Plug-In . SVG Version: 6.00 Build 0)  -->
<!DOCTYPE svg PUBLIC "-//W3C//DTD SVG 1.1//EN" "http://www.w3.org/Graphics/SVG/1.1/DTD/svg11.dtd">
<svg version="1.1" id="Layer_1" xmlns="http://www.w3.org/2000/svg" xmlns:xlink="http://www.w3.org/1999/xlink" x="0px" y="0px"
	 viewBox="0 0 620 800" enable-background="new 0 0 620 800" xml:space="preserve">
<g>
	<rect x="0.3" y="0" fill="#CCE0F4" width="620.3" height="518.1"/>
	<g>
		<rect x="451.7" y="111.1" fill="#FFFFFF" width="138.7" height="10"/>
		<rect x="527.3" y="111.1" fill="#EBEBEC" width="63.2" height="10"/>
		<rect x="489.4" y="100.6" fill="#FFFFFF" width="113.2" height="13.7"/>
		<rect x="539.7" y="100.6" fill="#EBEBEC" width="63" height="13.7"/>
		<rect x="501.1" y="89.7" fill="#FFFFFF" width="101.5" height="13.7"/>
		<rect x="550" y="89.7" fill="#EBEBEC" width="52.6" height="13.7"/>
		<rect x="512.9" y="78.2" fill="#FFFFFF" width="77.5" height="13.7"/>
		<rect x="556.9" y="78.2" fill="#EBEBEC" width="33.5" height="13.7"/>
		<rect x="524.9" y="67.2" fill="#FFFFFF" width="53.8" height="13.7"/>
		<rect x="553" y="67.2" fill="#EBEBEC" width="25.7" height="13.7"/>
	</g>
	<g>
		<rect x="102.3" y="80.4" fill="#FFFFFF" width="104.5" height="7.5"/>
		<rect x="159.2" y="80.4" fill="#EBEBEC" width="88.6" height="7.5"/>
		<rect x="130.6" y="72.4" fill="#FFFFFF" width="85.3" height="10.3"/>
		<rect x="168.5" y="72.4" fill="#EBEBEC" width="61.7" height="10.3"/>
		<rect x="139.5" y="64.2" fill="#FFFFFF" width="76.5" height="10.3"/>
		<rect x="176.3" y="64.2" fill="#EBEBEC" width="39.6" height="10.3"/>
		<rect x="148.4" y="55.6" fill="#FFFFFF" width="58.4" height="10.3"/>
		<rect x="181.5" y="55.6" fill="#EBEBEC" width="25.3" height="10.3"/>
		<rect x="157.4" y="47.3" fill="#FFFFFF" width="40.5" height="10.3"/>
		<rect x="178.5" y="47.3" fill="#EBEBEC" width="19.4" height="10.3"/>
	</g>
	<polygon fill="#434345" points="620.6,135.3 620.6,285.1 548.4,262.2 553.7,236.9 	"/>
	<rect x="0.3" y="556.1" fill="#405C2D" width="620.3" height="243.9"/>
	<rect x="0.3" y="509.7" fill="#9AA3A7" width="620.3" height="61.9"/>
	<polygon fill="#434345" points="197.8,228.4 197.8,181.2 74.4,0 0.3,0 0.3,285.8 157.9,236.5 	"/>
	<polygon fill="#434345" points="0.3,354.1 0.3,280.3 40.1,280.3 40.1,264.7 88.9,264.7 88.9,249.1 141.1,249.1 141.1,234.8 
		185.1,234.8 185.1,217.8 438.5,217.8 438.5,232.5 484.4,232.5 484.4,249.1 538.6,249.1 538.6,264.7 585.7,264.7 585.7,280.3 
		620.6,280.3 620.6,359.3 0.3,359.3 	"/>
	<g>
		<g>
			<rect x="159.5" y="212.5" fill="#9AA3A7" width="301.9" height="16.5"/>
			<rect x="108.7" y="228.4" fill="#9AA3A7" width="98.4" height="16.1"/>
			<rect x="60.1" y="244" fill="#9AA3A7" width="98.4" height="16.1"/>
			<rect x="11.6" y="259.6" fill="#9AA3A7" width="97.7" height="16.1"/>
			<rect x="0.4" y="275.2" fill="#9AA3A7" width="59.7" height="16.1"/>
			<polygon fill="#9AA3A7" points="620.5,291.8 560.4,291.4 560.4,275.2 620.5,275.6 			"/>
			<rect x="411.2" y="228.4" fill="#9AA3A7" width="98.4" height="16.1"/>
			<rect x="462.8" y="244" fill="#9AA3A7" width="98.4" height="16.1"/>
			<rect x="511.9" y="259.6" fill="#9AA3A7" width="98.4" height="16.1"/>
		</g>
	</g>
	<rect x="231.3" y="10" fill="#9AA3A7" width="333.9" height="16.5"/>
	<rect x="190.5" y="25.6" fill="#9AA3A7" width="51.2" height="16.1"/>
	<rect x="537.7" y="26.6" fill="#9AA3A7" width="82.9" height="15.1"/>
	<rect x="143.7" y="41.3" fill="#9AA3A7" width="66" height="16.1"/>
	<rect x="128" y="57.1" fill="#9AA3A7" width="31.5" height="16.1"/>
	<rect x="0.4" y="109.7" fill="#9AA3A7" width="62.9" height="18.1"/>
	<rect x="30.9" y="91.7" fill="#9AA3A7" width="64.7" height="18.1"/>
	<rect x="79.5" y="73.2" fill="#9AA3A7" width="64.2" height="18.5"/>
	<g>
		<rect x="64.5" y="0" fill="#9AA3A7" width="16.1" height="23.8"/>
		<rect x="80.2" y="0" fill="#9AA3A7" width="16.1" height="47.6"/>
		<rect x="96.3" y="25.6" fill="#9AA3A7" width="16.1" height="47.6"/>
		<rect x="112" y="49.4" fill="#9AA3A7" width="16.1" height="47.6"/>
		<rect x="127.6" y="73.2" fill="#9AA3A7" width="16.1" height="47.6"/>
		<rect x="143.7" y="97" fill="#9AA3A7" width="16.1" height="47.6"/>
		<rect x="159.3" y="120.8" fill="#9AA3A7" width="16.1" height="47.6"/>
		<rect x="175" y="144.7" fill="#9AA3A7" width="16.1" height="47.6"/>
		<rect x="190.9" y="168.5" fill="#9AA3A7" width="16.1" height="47.6"/>
	</g>
	<g>
		<g>
			<rect x="0.3" y="0" fill="#677379" width="16.1" height="36.5"/>
			<rect x="15.9" y="12.7" fill="#677379" width="16.1" height="47.6"/>
			<rect x="32" y="38.3" fill="#677379" width="16.1" height="47.6"/>
			<rect x="47.7" y="62.1" fill="#677379" width="16.1" height="47.6"/>
			<rect x="63.4" y="85.9" fill="#677379" width="16.1" height="47.6"/>
			<rect x="79.5" y="109.7" fill="#677379" width="16.1" height="47.6"/>
			<rect x="95.1" y="133.5" fill="#677379" width="16.1" height="47.6"/>
			<rect x="110.8" y="157.4" fill="#677379" width="16.1" height="47.6"/>
			<rect x="126.7" y="180.7" fill="#677379" width="16.1" height="47.6"/>
			<rect x="141.9" y="212.5" fill="#677379" width="17.6" height="31.5"/>
		</g>
	</g>
	<g>
		<rect x="0.3" y="68.3" fill="#677379" width="4.6" height="38.8"/>
		<rect x="4.9" y="89.2" fill="#677379" width="13.1" height="38.8"/>
		<rect x="17.7" y="108.6" fill="#677379" width="13.1" height="38.8"/>
		<rect x="30.5" y="128" fill="#677379" width="13.1" height="38.8"/>
		<rect x="43.6" y="147.4" fill="#677379" width="13.1" height="38.8"/>
		<rect x="56.3" y="166.9" fill="#677379" width="13.1" height="38.8"/>
		<rect x="69.2" y="186.4" fill="#677379" width="13.1" height="38.8"/>
		<rect x="82.1" y="205.4" fill="#677379" width="13.1" height="38.6"/>
		<rect x="95.1" y="231.3" fill="#677379" width="13.6" height="28.8"/>
	</g>
	<g>
		<rect x="0.3" y="166.7" fill="#677379" width="8.1" height="38.8"/>
		<rect x="8.5" y="186.1" fill="#677379" width="13.1" height="38.8"/>
		<rect x="21.2" y="205.5" fill="#677379" width="13.1" height="38.8"/>
		<rect x="34" y="225" fill="#677379" width="13.1" height="34.6"/>
		<rect x="47" y="244" fill="#677379" width="13.1" height="31.7"/>
	</g>
	<rect x="195.4" y="244.5" fill="#677379" width="11.7" height="14.7"/>
	<rect x="206.7" y="244.5" fill="#677379" width="11.7" height="29.4"/>
	<rect x="224.9" y="309.3" fill="#677379" width="11.7" height="29.4"/>
	<rect x="236.4" y="327.7" fill="#677379" width="11.7" height="29.4"/>
	<rect x="189.4" y="329.8" fill="#677379" width="11.7" height="11.2"/>
	<rect x="201.1" y="329.8" fill="#677379" width="11.7" height="27.3"/>
	<rect x="384.9" y="309.3" fill="#677379" width="11.7" height="29.4"/>
	<rect x="373.4" y="327.7" fill="#677379" width="11.7" height="29.4"/>
	<rect x="420.3" y="329.8" fill="#677379" width="11.7" height="11.2"/>
	<rect x="408.7" y="329.8" fill="#677379" width="11.7" height="27.3"/>
	<rect x="217.7" y="259.2" fill="#677379" width="11.7" height="48.1"/>
	<rect x="238.4" y="229" fill="#677379" width="11.7" height="28.2"/>
	<rect x="249.8" y="242.5" fill="#677379" width="11.7" height="52.9"/>
	<rect x="273.1" y="229" fill="#677379" width="11.7" height="13.5"/>
	<rect x="284.5" y="229" fill="#677379" width="11.7" height="66.5"/>
	<rect x="158.7" y="244.4" fill="#677379" width="11.7" height="29.4"/>
	<rect x="169.6" y="259.1" fill="#677379" width="11.7" height="29.5"/>
	<rect x="181.3" y="273.7" fill="#677379" width="11.7" height="44.7"/>
	<rect x="109.3" y="260.1" fill="#677379" width="11.7" height="29.4"/>
	<rect x="120.4" y="274.8" fill="#677379" width="11.7" height="29.5"/>
	<rect x="130.3" y="289.6" fill="#677379" width="11.7" height="27"/>
	<rect x="141.9" y="304.3" fill="#677379" width="11.7" height="44.7"/>
	<rect x="48.6" y="291.4" fill="#677379" width="11.7" height="8.4"/>
	<rect x="60.1" y="285.1" fill="#677379" width="11.3" height="29.5"/>
	<rect x="69.6" y="299.8" fill="#677379" width="11.7" height="27"/>
	<rect x="81.2" y="314.6" fill="#677379" width="11.7" height="26.1"/>
	<rect x="92.9" y="326.7" fill="#677379" width="11.7" height="44.7"/>
	<rect x="0.3" y="274.8" fill="#677379" width="11.1" height="35.9"/>
	<rect x="11.2" y="296" fill="#677379" width="11.3" height="29.5"/>
	<rect x="20.7" y="310.7" fill="#677379" width="11.7" height="27"/>
	<rect x="32.3" y="325.5" fill="#677379" width="11.7" height="26.1"/>
	<rect x="44" y="337.6" fill="#677379" width="11.7" height="14.1"/>
	<rect x="413.8" y="244.5" fill="#677379" width="11.7" height="14.7"/>
	<rect x="402.5" y="244.5" fill="#677379" width="11.7" height="29.4"/>
	<rect x="391.6" y="259.2" fill="#677379" width="11.7" height="48.1"/>
	<rect x="370.8" y="229" fill="#677379" width="11.7" height="28.2"/>
	<rect x="359.4" y="242.5" fill="#677379" width="11.7" height="52.9"/>
	<rect x="336.1" y="229" fill="#677379" width="11.7" height="13.5"/>
	<rect x="324.7" y="229" fill="#677379" width="11.7" height="66.5"/>
	<rect x="450.5" y="244.4" fill="#677379" width="11.7" height="29.4"/>
	<rect x="439.6" y="259.1" fill="#677379" width="11.7" height="29.5"/>
	<rect x="427.9" y="273.7" fill="#677379" width="11.7" height="44.7"/>
	<rect x="499.9" y="260.1" fill="#677379" width="11.7" height="29.4"/>
	<rect x="488.8" y="274.8" fill="#677379" width="11.7" height="29.5"/>
	<rect x="479" y="289.6" fill="#677379" width="11.7" height="27"/>
	<rect x="467.3" y="304.3" fill="#677379" width="11.7" height="44.7"/>
	<rect x="560.6" y="291.4" fill="#677379" width="11.7" height="8.4"/>
	<rect x="549.5" y="285.1" fill="#677379" width="11.3" height="29.5"/>
	<rect x="539.7" y="299.8" fill="#677379" width="11.7" height="27"/>
	<rect x="528" y="314.6" fill="#677379" width="11.7" height="26.1"/>
	<rect x="516.4" y="326.7" fill="#677379" width="11.7" height="44.7"/>
	<rect x="609.5" y="291.8" fill="#677379" width="11.1" height="19"/>
	<rect x="598.4" y="296" fill="#677379" width="11.3" height="29.5"/>
	<rect x="588.5" y="310.7" fill="#677379" width="11.7" height="27"/>
	<rect x="576.9" y="325.5" fill="#677379" width="11.7" height="26.1"/>
	<rect x="565.2" y="337.6" fill="#677379" width="11.7" height="14.1"/>
	<rect x="0.3" y="357.1" fill="#515B60" width="620.3" height="138.2"/>
	<rect x="0.3" y="351.6" fill="#515B60" width="96.6" height="15.5"/>
	<rect x="524" y="346.8" fill="#515B60" width="96.6" height="15.5"/>
	<rect x="84.3" y="359.4" fill="#515B60" width="536.3" height="7.7"/>
	<rect x="0.3" y="367.1" fill="#9AA3A7" width="620.3" height="7.7"/>
	<rect x="0.3" y="484.8" fill="#9AA3A7" width="620.3" height="7.7"/>
	<rect x="0.3" y="466.1" fill="#9AA3A7" width="620.3" height="7.7"/>
	<rect x="0.3" y="447.3" fill="#9AA3A7" width="620.3" height="7.7"/>
	<rect x="0.3" y="428" fill="#9AA3A7" width="620.3" height="7.7"/>
	<rect x="0.3" y="408.7" fill="#9AA3A7" width="620.3" height="7.7"/>
	<rect x="0.3" y="389.7" fill="#9AA3A7" width="620.3" height="7.7"/>
	<g>
		<rect x="252" y="309.9" fill="#434345" width="116.9" height="68.4"/>
		<rect x="258.5" y="313.7" fill="#FFFFFF" width="103.9" height="60.8"/>
	</g>
	<g>
		<g>
			<g>
				<polygon fill="#414042" points="19.1,367 19.1,383.5 16.6,383.5 16.6,375.7 7.7,375.7 7.7,383.5 5.2,383.5 5.2,367 1.4,367 
					1.4,390.1 5.2,390.1 5.2,397.4 19.1,397.4 19.1,390.1 22.8,390.1 22.8,367 				"/>
				<polygon fill="#414042" points="44.5,367 44.5,383.5 41.9,383.5 41.9,375.7 33.1,375.7 33.1,383.5 30.5,383.5 30.5,367 
					26.8,367 26.8,390.1 30.5,390.1 30.5,397.4 44.5,397.4 44.5,390.1 48.2,390.1 48.2,367 				"/>
				<polygon fill="#414042" points="69.8,367 69.8,383.5 67.3,383.5 67.3,375.7 58.4,375.7 58.4,383.5 55.9,383.5 55.9,367 
					52.2,367 52.2,390.1 55.9,390.1 55.9,397.4 69.8,397.4 69.8,390.1 73.6,390.1 73.6,367 				"/>
				<polygon fill="#414042" points="95.9,367 95.9,383.5 93.4,383.5 93.4,375.7 84.5,375.7 84.5,383.5 82,383.5 82,367 78.3,367 
					78.3,390.1 82,390.1 82,397.4 95.9,397.4 95.9,390.1 99.7,390.1 99.7,367 				"/>
			</g>
			<g>
				<polygon fill="#939598" points="0.3,416.5 3.9,416.5 3.9,409.2 7.7,409.2 7.7,386.1 3.9,386.1 3.9,402.5 1.4,402.5 1.4,394.7 
					0.3,394.7 				"/>
				<polygon fill="#939598" points="29.3,386.1 29.3,402.5 26.8,402.5 26.8,394.7 17.9,394.7 17.9,402.5 15.4,402.5 15.4,386.1 
					11.6,386.1 11.6,409.2 15.4,409.2 15.4,416.5 29.3,416.5 29.3,409.2 33.1,409.2 33.1,386.1 				"/>
				<polygon fill="#939598" points="54.7,386.1 54.7,402.5 52.2,402.5 52.2,394.7 43.3,394.7 43.3,402.5 40.8,402.5 40.8,386.1 
					37,386.1 37,409.2 40.8,409.2 40.8,416.5 54.7,416.5 54.7,409.2 58.4,409.2 58.4,386.1 				"/>
				<polygon fill="#939598" points="80.1,386.1 80.1,402.5 77.5,402.5 77.5,394.7 68.7,394.7 68.7,402.5 66.1,402.5 66.1,386.1 
					62.4,386.1 62.4,409.2 66.1,409.2 66.1,416.5 80.1,416.5 80.1,409.2 83.8,409.2 83.8,386.1 				"/>
				<polygon fill="#939598" points="106.2,386.1 106.2,402.5 103.6,402.5 103.6,394.7 94.7,394.7 94.7,402.5 92.2,402.5 92.2,386.1 
					88.5,386.1 88.5,409.2 92.2,409.2 92.2,416.5 106.2,416.5 106.2,409.2 109.9,409.2 109.9,386.1 				"/>
			</g>
			<g>
				<polygon fill="#BCBEC0" points="0.3,435.8 13.9,435.8 13.9,428.5 17.6,428.5 17.6,405.3 13.9,405.3 13.9,421.8 11.3,421.8 
					11.3,414 2.5,414 2.5,421.8 0.3,421.8 				"/>
				<polygon fill="#BCBEC0" points="39.2,405.3 39.2,421.8 36.7,421.8 36.7,414 27.8,414 27.8,421.8 25.3,421.8 25.3,405.3 
					21.6,405.3 21.6,428.5 25.3,428.5 25.3,435.8 39.2,435.8 39.2,428.5 43,428.5 43,405.3 				"/>
				<polygon fill="#BCBEC0" points="64.6,405.3 64.6,421.8 62.1,421.8 62.1,414 53.2,414 53.2,421.8 50.7,421.8 50.7,405.3 
					46.9,405.3 46.9,428.5 50.7,428.5 50.7,435.8 64.6,435.8 64.6,428.5 68.4,428.5 68.4,405.3 				"/>
				<polygon fill="#BCBEC0" points="90,405.3 90,421.8 87.5,421.8 87.5,414 78.6,414 78.6,421.8 76.1,421.8 76.1,405.3 72.3,405.3 
					72.3,428.5 76.1,428.5 76.1,435.8 90,435.8 90,428.5 93.8,428.5 93.8,405.3 				"/>
				<polygon fill="#BCBEC0" points="116.1,405.3 116.1,421.8 113.6,421.8 113.6,414 104.7,414 104.7,421.8 102.2,421.8 102.2,405.3 
					98.4,405.3 98.4,428.5 102.2,428.5 102.2,435.8 116.1,435.8 116.1,428.5 119.8,428.5 119.8,405.3 				"/>
			</g>
			<g>
				<polygon fill="#D1D3D4" points="24,424.7 24,441.1 21.4,441.1 21.4,433.3 12.5,433.3 12.5,441.1 10,441.1 10,424.7 6.3,424.7 
					6.3,447.8 10,447.8 10,455.1 24,455.1 24,447.8 27.7,447.8 27.7,424.7 				"/>
				<polygon fill="#D1D3D4" points="49.3,424.7 49.3,441.1 46.8,441.1 46.8,433.3 37.9,433.3 37.9,441.1 35.4,441.1 35.4,424.7 
					31.7,424.7 31.7,447.8 35.4,447.8 35.4,455.1 49.3,455.1 49.3,447.8 53.1,447.8 53.1,424.7 				"/>
				<polygon fill="#D1D3D4" points="74.7,424.7 74.7,441.1 72.2,441.1 72.2,433.3 63.3,433.3 63.3,441.1 60.8,441.1 60.8,424.7 
					57,424.7 57,447.8 60.8,447.8 60.8,455.1 74.7,455.1 74.7,447.8 78.5,447.8 78.5,424.7 				"/>
				<polygon fill="#D1D3D4" points="100.1,424.7 100.1,441.1 97.6,441.1 97.6,433.3 88.7,433.3 88.7,441.1 86.2,441.1 86.2,424.7 
					82.4,424.7 82.4,447.8 86.2,447.8 86.2,455.1 100.1,455.1 100.1,447.8 103.8,447.8 103.8,424.7 				"/>
				<polygon fill="#D1D3D4" points="126.2,424.7 126.2,441.1 123.7,441.1 123.7,433.3 114.8,433.3 114.8,441.1 112.2,441.1 
					112.2,424.7 108.5,424.7 108.5,447.8 112.2,447.8 112.2,455.1 126.2,455.1 126.2,447.8 129.9,447.8 129.9,424.7 				"/>
			</g>
			<g>
				<polygon fill="#E6E7E8" points="34,443.4 34,459.9 31.4,459.9 31.4,452.1 22.5,452.1 22.5,459.9 20,459.9 20,443.4 16.3,443.4 
					16.3,466.5 20,466.5 20,473.8 34,473.8 34,466.5 37.7,466.5 37.7,443.4 				"/>
				<polygon fill="#E6E7E8" points="59.3,443.4 59.3,459.9 56.8,459.9 56.8,452.1 47.9,452.1 47.9,459.9 45.4,459.9 45.4,443.4 
					41.7,443.4 41.7,466.5 45.4,466.5 45.4,473.8 59.3,473.8 59.3,466.5 63.1,466.5 63.1,443.4 				"/>
				<polygon fill="#E6E7E8" points="84.7,443.4 84.7,459.9 82.2,459.9 82.2,452.1 73.3,452.1 73.3,459.9 70.8,459.9 70.8,443.4 
					67,443.4 67,466.5 70.8,466.5 70.8,473.8 84.7,473.8 84.7,466.5 88.5,466.5 88.5,443.4 				"/>
				<polygon fill="#E6E7E8" points="110.1,443.4 110.1,459.9 107.6,459.9 107.6,452.1 98.7,452.1 98.7,459.9 96.2,459.9 96.2,443.4 
					92.4,443.4 92.4,466.5 96.2,466.5 96.2,473.8 110.1,473.8 110.1,466.5 113.9,466.5 113.9,443.4 				"/>
				<polygon fill="#E6E7E8" points="136.2,443.4 136.2,459.9 133.7,459.9 133.7,452.1 124.8,452.1 124.8,459.9 122.3,459.9 
					122.3,443.4 118.5,443.4 118.5,466.5 122.3,466.5 122.3,473.8 136.2,473.8 136.2,466.5 139.9,466.5 139.9,443.4 				"/>
			</g>
			<g>
				<polygon fill="#FFFFFF" points="44,462.2 44,478.7 41.5,478.7 41.5,470.9 32.6,470.9 32.6,478.7 30.1,478.7 30.1,462.2 
					26.4,462.2 26.4,485.3 30.1,485.3 30.1,492.6 44,492.6 44,485.3 47.8,485.3 47.8,462.2 				"/>
				<polygon fill="#FFFFFF" points="69.4,462.2 69.4,478.7 66.9,478.7 66.9,470.9 58,470.9 58,478.7 55.5,478.7 55.5,462.2 
					51.7,462.2 51.7,485.3 55.5,485.3 55.5,492.6 69.4,492.6 69.4,485.3 73.2,485.3 73.2,462.2 				"/>
				<polygon fill="#FFFFFF" points="94.8,462.2 94.8,478.7 92.3,478.7 92.3,470.9 83.4,470.9 83.4,478.7 80.9,478.7 80.9,462.2 
					77.1,462.2 77.1,485.3 80.9,485.3 80.9,492.6 94.8,492.6 94.8,485.3 98.5,485.3 98.5,462.2 				"/>
				<polygon fill="#FFFFFF" points="120.2,462.2 120.2,478.7 117.7,478.7 117.7,470.9 108.8,470.9 108.8,478.7 106.2,478.7 
					106.2,462.2 102.5,462.2 102.5,485.3 106.2,485.3 106.2,492.6 120.2,492.6 120.2,485.3 123.9,485.3 123.9,462.2 				"/>
				<polygon fill="#FFFFFF" points="146.3,462.2 146.3,478.7 143.7,478.7 143.7,470.9 134.9,470.9 134.9,478.7 132.3,478.7 
					132.3,462.2 128.6,462.2 128.6,485.3 132.3,485.3 132.3,492.6 146.3,492.6 146.3,485.3 150,485.3 150,462.2 				"/>
			</g>
		</g>
		<g>
			<g>
				<polygon fill="#414042" points="280.8,367 280.8,383.5 278.3,383.5 278.3,375.7 269.4,375.7 269.4,383.5 266.9,383.5 266.9,367 
					263.1,367 263.1,390.1 266.9,390.1 266.9,397.4 280.8,397.4 280.8,390.1 284.6,390.1 284.6,367 				"/>
				<polygon fill="#414042" points="306.2,367 306.2,383.5 303.7,383.5 303.7,375.7 294.8,375.7 294.8,383.5 292.3,383.5 292.3,367 
					288.5,367 288.5,390.1 292.3,390.1 292.3,397.4 306.2,397.4 306.2,390.1 309.9,390.1 309.9,367 				"/>
				<polygon fill="#414042" points="331.6,367 331.6,383.5 329.1,383.5 329.1,375.7 320.2,375.7 320.2,383.5 317.6,383.5 317.6,367 
					313.9,367 313.9,390.1 317.6,390.1 317.6,397.4 331.6,397.4 331.6,390.1 335.3,390.1 335.3,367 				"/>
				<polygon fill="#414042" points="356.9,367 356.9,383.5 354.4,383.5 354.4,375.7 345.5,375.7 345.5,383.5 343,383.5 343,367 
					339.3,367 339.3,390.1 343,390.1 343,397.4 356.9,397.4 356.9,390.1 360.7,390.1 360.7,367 				"/>
			</g>
			<g>
				<polygon fill="#939598" points="280.8,386.1 280.8,402.5 278.3,402.5 278.3,394.7 269.4,394.7 269.4,402.5 266.9,402.5 
					266.9,386.1 263.1,386.1 263.1,409.2 266.9,409.2 266.9,416.5 280.8,416.5 280.8,409.2 284.5,409.2 284.5,386.1 				"/>
				<polygon fill="#939598" points="306.2,386.1 306.2,402.5 303.7,402.5 303.7,394.7 294.8,394.7 294.8,402.5 292.2,402.5 
					292.2,386.1 288.5,386.1 288.5,409.2 292.2,409.2 292.2,416.5 306.2,416.5 306.2,409.2 309.9,409.2 309.9,386.1 				"/>
				<polygon fill="#939598" points="331.6,386.1 331.6,402.5 329,402.5 329,394.7 320.1,394.7 320.1,402.5 317.6,402.5 317.6,386.1 
					313.9,386.1 313.9,409.2 317.6,409.2 317.6,416.5 331.6,416.5 331.6,409.2 335.3,409.2 335.3,386.1 				"/>
				<polygon fill="#939598" points="356.9,386.1 356.9,402.5 354.4,402.5 354.4,394.7 345.5,394.7 345.5,402.5 343,402.5 343,386.1 
					339.3,386.1 339.3,409.2 343,409.2 343,416.5 356.9,416.5 356.9,409.2 360.7,409.2 360.7,386.1 				"/>
			</g>
			<g>
				<polygon fill="#BCBEC0" points="293.1,405.3 293.1,421.8 290.6,421.8 290.6,414 281.7,414 281.7,421.8 279.2,421.8 279.2,405.3 
					275.4,405.3 275.4,428.5 279.2,428.5 279.2,435.8 293.1,435.8 293.1,428.5 296.8,428.5 296.8,405.3 				"/>
				<polygon fill="#BCBEC0" points="318.5,405.3 318.5,421.8 316,421.8 316,414 307.1,414 307.1,421.8 304.5,421.8 304.5,405.3 
					300.8,405.3 300.8,428.5 304.5,428.5 304.5,435.8 318.5,435.8 318.5,428.5 322.2,428.5 322.2,405.3 				"/>
				<polygon fill="#BCBEC0" points="343.9,405.3 343.9,421.8 341.3,421.8 341.3,414 332.4,414 332.4,421.8 329.9,421.8 329.9,405.3 
					326.2,405.3 326.2,428.5 329.9,428.5 329.9,435.8 343.9,435.8 343.9,428.5 347.6,428.5 347.6,405.3 				"/>
			</g>
			<g>
				<polygon fill="#D1D3D4" points="306.3,424.7 306.3,441.1 303.8,441.1 303.8,433.3 294.9,433.3 294.9,441.1 292.4,441.1 
					292.4,424.7 288.7,424.7 288.7,447.8 292.4,447.8 292.4,455.1 306.3,455.1 306.3,447.8 310.1,447.8 310.1,424.7 				"/>
				<polygon fill="#D1D3D4" points="331.7,424.7 331.7,441.1 329.2,441.1 329.2,433.3 320.3,433.3 320.3,441.1 317.8,441.1 
					317.8,424.7 314,424.7 314,447.8 317.8,447.8 317.8,455.1 331.7,455.1 331.7,447.8 335.5,447.8 335.5,424.7 				"/>
			</g>
			<g>
				<polygon fill="#E6E7E8" points="306.1,443.4 306.1,459.9 303.6,459.9 303.6,452.1 294.7,452.1 294.7,459.9 292.2,459.9 
					292.2,443.4 288.4,443.4 288.4,466.5 292.2,466.5 292.2,473.8 306.1,473.8 306.1,466.5 309.9,466.5 309.9,443.4 				"/>
				<polygon fill="#E6E7E8" points="331.5,443.4 331.5,459.9 329,459.9 329,452.1 320.1,452.1 320.1,459.9 317.6,459.9 317.6,443.4 
					313.8,443.4 313.8,466.5 317.6,466.5 317.6,473.8 331.5,473.8 331.5,466.5 335.2,466.5 335.2,443.4 				"/>
			</g>
			<g>
				<polygon fill="#FFFFFF" points="319.3,462.2 319.3,478.7 316.8,478.7 316.8,470.9 307.9,470.9 307.9,478.7 305.4,478.7 
					305.4,462.2 301.7,462.2 301.7,485.3 305.4,485.3 305.4,492.6 319.3,492.6 319.3,485.3 323.1,485.3 323.1,462.2 				"/>
			</g>
		</g>
		<g>
			<g>
				<polygon fill="#540000" points="136.2,367 136.2,383.5 133.7,383.5 133.7,375.7 124.8,375.7 124.8,383.5 122.3,383.5 122.3,367 
					118.6,367 118.6,390.1 122.3,390.1 122.3,397.4 136.2,397.4 136.2,390.1 140,390.1 140,367 				"/>
				<polygon fill="#540000" points="161.6,367 161.6,383.5 159.1,383.5 159.1,375.7 150.2,375.7 150.2,383.5 147.7,383.5 147.7,367 
					143.9,367 143.9,390.1 147.7,390.1 147.7,397.4 161.6,397.4 161.6,390.1 165.4,390.1 165.4,367 				"/>
				<polygon fill="#540000" points="187,367 187,383.5 184.5,383.5 184.5,375.7 175.6,375.7 175.6,383.5 173.1,383.5 173.1,367 
					169.3,367 169.3,390.1 173.1,390.1 173.1,397.4 187,397.4 187,390.1 190.8,390.1 190.8,367 				"/>
				<polygon fill="#540000" points="212.4,367 212.4,383.5 209.9,383.5 209.9,375.7 201,375.7 201,383.5 198.5,383.5 198.5,367 
					194.7,367 194.7,390.1 198.5,390.1 198.5,397.4 212.4,397.4 212.4,390.1 216.1,390.1 216.1,367 				"/>
				<polygon fill="#540000" points="238.5,367 238.5,383.5 236,383.5 236,375.7 227.1,375.7 227.1,383.5 224.5,383.5 224.5,367 
					220.8,367 220.8,390.1 224.5,390.1 224.5,397.4 238.5,397.4 238.5,390.1 242.2,390.1 242.2,367 				"/>
			</g>
			<g>
				<polygon fill="#8B0304" points="142.1,386.1 142.1,402.5 139.6,402.5 139.6,394.7 130.7,394.7 130.7,402.5 128.1,402.5 
					128.1,386.1 124.4,386.1 124.4,409.2 128.1,409.2 128.1,416.5 142.1,416.5 142.1,409.2 145.8,409.2 145.8,386.1 				"/>
				<polygon fill="#8B0304" points="167.5,386.1 167.5,402.5 164.9,402.5 164.9,394.7 156,394.7 156,402.5 153.5,402.5 153.5,386.1 
					149.8,386.1 149.8,409.2 153.5,409.2 153.5,416.5 167.5,416.5 167.5,409.2 171.2,409.2 171.2,386.1 				"/>
				<polygon fill="#8B0304" points="192.8,386.1 192.8,402.5 190.3,402.5 190.3,394.7 181.4,394.7 181.4,402.5 178.9,402.5 
					178.9,386.1 175.2,386.1 175.2,409.2 178.9,409.2 178.9,416.5 192.8,416.5 192.8,409.2 196.6,409.2 196.6,386.1 				"/>
				<polygon fill="#8B0304" points="218.2,386.1 218.2,402.5 215.7,402.5 215.7,394.7 206.8,394.7 206.8,402.5 204.3,402.5 
					204.3,386.1 200.5,386.1 200.5,409.2 204.3,409.2 204.3,416.5 218.2,416.5 218.2,409.2 222,409.2 222,386.1 				"/>
				<polygon fill="#8B0304" points="244.3,386.1 244.3,402.5 241.8,402.5 241.8,394.7 232.9,394.7 232.9,402.5 230.4,402.5 
					230.4,386.1 226.6,386.1 226.6,409.2 230.4,409.2 230.4,416.5 244.3,416.5 244.3,409.2 248,409.2 248,386.1 				"/>
			</g>
			<g>
				<polygon fill="#B11116" points="151.2,405.3 151.2,421.8 148.7,421.8 148.7,414 139.8,414 139.8,421.8 137.3,421.8 137.3,405.3 
					133.5,405.3 133.5,428.5 137.3,428.5 137.3,435.8 151.2,435.8 151.2,428.5 155,428.5 155,405.3 				"/>
				<polygon fill="#B11116" points="176.6,405.3 176.6,421.8 174.1,421.8 174.1,414 165.2,414 165.2,421.8 162.7,421.8 162.7,405.3 
					158.9,405.3 158.9,428.5 162.7,428.5 162.7,435.8 176.6,435.8 176.6,428.5 180.4,428.5 180.4,405.3 				"/>
				<polygon fill="#B11116" points="202,405.3 202,421.8 199.5,421.8 199.5,414 190.6,414 190.6,421.8 188.1,421.8 188.1,405.3 
					184.3,405.3 184.3,428.5 188.1,428.5 188.1,435.8 202,435.8 202,428.5 205.7,428.5 205.7,405.3 				"/>
				<polygon fill="#B11116" points="227.4,405.3 227.4,421.8 224.9,421.8 224.9,414 216,414 216,421.8 213.4,421.8 213.4,405.3 
					209.7,405.3 209.7,428.5 213.4,428.5 213.4,435.8 227.4,435.8 227.4,428.5 231.1,428.5 231.1,405.3 				"/>
				<polygon fill="#B11116" points="253.5,405.3 253.5,421.8 250.9,421.8 250.9,414 242,414 242,421.8 239.5,421.8 239.5,405.3 
					235.8,405.3 235.8,428.5 239.5,428.5 239.5,435.8 253.5,435.8 253.5,428.5 257.2,428.5 257.2,405.3 				"/>
			</g>
			<g>
				<polygon fill="#C4161C" points="161.3,424.7 161.3,441.1 158.8,441.1 158.8,433.3 149.9,433.3 149.9,441.1 147.4,441.1 
					147.4,424.7 143.6,424.7 143.6,447.8 147.4,447.8 147.4,455.1 161.3,455.1 161.3,447.8 165.1,447.8 165.1,424.7 				"/>
				<polygon fill="#C4161C" points="186.7,424.7 186.7,441.1 184.2,441.1 184.2,433.3 175.3,433.3 175.3,441.1 172.8,441.1 
					172.8,424.7 169,424.7 169,447.8 172.8,447.8 172.8,455.1 186.7,455.1 186.7,447.8 190.4,447.8 190.4,424.7 				"/>
				<polygon fill="#C4161C" points="212.1,424.7 212.1,441.1 209.6,441.1 209.6,433.3 200.7,433.3 200.7,441.1 198.1,441.1 
					198.1,424.7 194.4,424.7 194.4,447.8 198.1,447.8 198.1,455.1 212.1,455.1 212.1,447.8 215.8,447.8 215.8,424.7 				"/>
				<polygon fill="#C4161C" points="237.5,424.7 237.5,441.1 234.9,441.1 234.9,433.3 226,433.3 226,441.1 223.5,441.1 223.5,424.7 
					219.8,424.7 219.8,447.8 223.5,447.8 223.5,455.1 237.5,455.1 237.5,447.8 241.2,447.8 241.2,424.7 				"/>
				<polygon fill="#C4161C" points="263.5,424.7 263.5,441.1 261,441.1 261,433.3 252.1,433.3 252.1,441.1 249.6,441.1 249.6,424.7 
					245.9,424.7 245.9,447.8 249.6,447.8 249.6,455.1 263.5,455.1 263.5,447.8 267.3,447.8 267.3,424.7 				"/>
			</g>
			<g>
				<polygon fill="#D71920" points="171.3,443.4 171.3,459.9 168.8,459.9 168.8,452.1 159.9,452.1 159.9,459.9 157.4,459.9 
					157.4,443.4 153.6,443.4 153.6,466.5 157.4,466.5 157.4,473.8 171.3,473.8 171.3,466.5 175.1,466.5 175.1,443.4 				"/>
				<polygon fill="#D71920" points="196.7,443.4 196.7,459.9 194.2,459.9 194.2,452.1 185.3,452.1 185.3,459.9 182.8,459.9 
					182.8,443.4 179,443.4 179,466.5 182.8,466.5 182.8,473.8 196.7,473.8 196.7,466.5 200.4,466.5 200.4,443.4 				"/>
				<polygon fill="#D71920" points="222.1,443.4 222.1,459.9 219.6,459.9 219.6,452.1 210.7,452.1 210.7,459.9 208.1,459.9 
					208.1,443.4 204.4,443.4 204.4,466.5 208.1,466.5 208.1,473.8 222.1,473.8 222.1,466.5 225.8,466.5 225.8,443.4 				"/>
				<polygon fill="#D71920" points="247.5,443.4 247.5,459.9 244.9,459.9 244.9,452.1 236,452.1 236,459.9 233.5,459.9 233.5,443.4 
					229.8,443.4 229.8,466.5 233.5,466.5 233.5,473.8 247.5,473.8 247.5,466.5 251.2,466.5 251.2,443.4 				"/>
				<polygon fill="#D71920" points="273.5,443.4 273.5,459.9 271,459.9 271,452.1 262.1,452.1 262.1,459.9 259.6,459.9 259.6,443.4 
					255.9,443.4 255.9,466.5 259.6,466.5 259.6,473.8 273.5,473.8 273.5,466.5 277.3,466.5 277.3,443.4 				"/>
			</g>
			<g>
				<polygon fill="#ED1C24" points="178.6,462.2 178.6,478.7 176.1,478.7 176.1,470.9 167.2,470.9 167.2,478.7 164.6,478.7 
					164.6,462.2 160.9,462.2 160.9,485.3 164.6,485.3 164.6,492.6 178.6,492.6 178.6,485.3 182.3,485.3 182.3,462.2 				"/>
				<polygon fill="#ED1C24" points="204,462.2 204,478.7 201.4,478.7 201.4,470.9 192.5,470.9 192.5,478.7 190,478.7 190,462.2 
					186.3,462.2 186.3,485.3 190,485.3 190,492.6 204,492.6 204,485.3 207.7,485.3 207.7,462.2 				"/>
				<polygon fill="#ED1C24" points="229.3,462.2 229.3,478.7 226.8,478.7 226.8,470.9 217.9,470.9 217.9,478.7 215.4,478.7 
					215.4,462.2 211.7,462.2 211.7,485.3 215.4,485.3 215.4,492.6 229.3,492.6 229.3,485.3 233.1,485.3 233.1,462.2 				"/>
				<polygon fill="#ED1C24" points="254.7,462.2 254.7,478.7 252.2,478.7 252.2,470.9 243.3,470.9 243.3,478.7 240.8,478.7 
					240.8,462.2 237,462.2 237,485.3 240.8,485.3 240.8,492.6 254.7,492.6 254.7,485.3 258.5,485.3 258.5,462.2 				"/>
				<polygon fill="#ED1C24" points="280.8,462.2 280.8,478.7 278.3,478.7 278.3,470.9 269.4,470.9 269.4,478.7 266.9,478.7 
					266.9,462.2 263.1,462.2 263.1,485.3 266.9,485.3 266.9,492.6 280.8,492.6 280.8,485.3 284.6,485.3 284.6,462.2 				"/>
			</g>
		</g>
		<g>
			<g>
				<g>
					<polygon fill="#414042" points="601.9,367 601.9,383.5 604.4,383.5 604.4,375.7 613.3,375.7 613.3,383.5 615.8,383.5 
						615.8,367 619.5,367 619.5,390.1 615.8,390.1 615.8,397.4 601.9,397.4 601.9,390.1 598.1,390.1 598.1,367 					"/>
					<polygon fill="#414042" points="576.5,367 576.5,383.5 579,383.5 579,375.7 587.9,375.7 587.9,383.5 590.4,383.5 590.4,367 
						594.2,367 594.2,390.1 590.4,390.1 590.4,397.4 576.5,397.4 576.5,390.1 572.7,390.1 572.7,367 					"/>
					<polygon fill="#414042" points="551.1,367 551.1,383.5 553.6,383.5 553.6,375.7 562.5,375.7 562.5,383.5 565,383.5 565,367 
						568.8,367 568.8,390.1 565,390.1 565,397.4 551.1,397.4 551.1,390.1 547.3,390.1 547.3,367 					"/>
					<polygon fill="#414042" points="525,367 525,383.5 527.5,383.5 527.5,375.7 536.4,375.7 536.4,383.5 538.9,383.5 538.9,367 
						542.7,367 542.7,390.1 538.9,390.1 538.9,397.4 525,397.4 525,390.1 521.3,390.1 521.3,367 					"/>
				</g>
				<g>
					<polygon fill="#939598" points="620.6,416.5 617,416.5 617,409.2 613.3,409.2 613.3,386.1 617,386.1 617,402.5 619.5,402.5 
						619.5,394.7 620.6,394.7 					"/>
					<polygon fill="#939598" points="591.6,386.1 591.6,402.5 594.1,402.5 594.1,394.7 603,394.7 603,402.5 605.6,402.5 
						605.6,386.1 609.3,386.1 609.3,409.2 605.6,409.2 605.6,416.5 591.6,416.5 591.6,409.2 587.9,409.2 587.9,386.1 					"/>
					<polygon fill="#939598" points="566.2,386.1 566.2,402.5 568.8,402.5 568.8,394.7 577.7,394.7 577.7,402.5 580.2,402.5 
						580.2,386.1 583.9,386.1 583.9,409.2 580.2,409.2 580.2,416.5 566.2,416.5 566.2,409.2 562.5,409.2 562.5,386.1 					"/>
					<polygon fill="#939598" points="540.9,386.1 540.9,402.5 543.4,402.5 543.4,394.7 552.3,394.7 552.3,402.5 554.8,402.5 
						554.8,386.1 558.6,386.1 558.6,409.2 554.8,409.2 554.8,416.5 540.9,416.5 540.9,409.2 537.1,409.2 537.1,386.1 					"/>
					<polygon fill="#939598" points="514.8,386.1 514.8,402.5 517.3,402.5 517.3,394.7 526.2,394.7 526.2,402.5 528.7,402.5 
						528.7,386.1 532.5,386.1 532.5,409.2 528.7,409.2 528.7,416.5 514.8,416.5 514.8,409.2 511,409.2 511,386.1 					"/>
				</g>
				<g>
					<polygon fill="#BCBEC0" points="620.6,435.8 607.1,435.8 607.1,428.5 603.3,428.5 603.3,405.3 607.1,405.3 607.1,421.8 
						609.6,421.8 609.6,414 618.5,414 618.5,421.8 620.6,421.8 					"/>
					<polygon fill="#BCBEC0" points="581.7,405.3 581.7,421.8 584.2,421.8 584.2,414 593.1,414 593.1,421.8 595.6,421.8 
						595.6,405.3 599.4,405.3 599.4,428.5 595.6,428.5 595.6,435.8 581.7,435.8 581.7,428.5 577.9,428.5 577.9,405.3 					"/>
					<polygon fill="#BCBEC0" points="556.3,405.3 556.3,421.8 558.8,421.8 558.8,414 567.7,414 567.7,421.8 570.2,421.8 
						570.2,405.3 574,405.3 574,428.5 570.2,428.5 570.2,435.8 556.3,435.8 556.3,428.5 552.6,428.5 552.6,405.3 					"/>
					<polygon fill="#BCBEC0" points="530.9,405.3 530.9,421.8 533.4,421.8 533.4,414 542.3,414 542.3,421.8 544.9,421.8 
						544.9,405.3 548.6,405.3 548.6,428.5 544.9,428.5 544.9,435.8 530.9,435.8 530.9,428.5 527.2,428.5 527.2,405.3 					"/>
					<polygon fill="#BCBEC0" points="504.8,405.3 504.8,421.8 507.4,421.8 507.4,414 516.3,414 516.3,421.8 518.8,421.8 
						518.8,405.3 522.5,405.3 522.5,428.5 518.8,428.5 518.8,435.8 504.8,435.8 504.8,428.5 501.1,428.5 501.1,405.3 					"/>
				</g>
				<g>
					<polygon fill="#D1D3D4" points="597,424.7 597,441.1 599.5,441.1 599.5,433.3 608.4,433.3 608.4,441.1 610.9,441.1 
						610.9,424.7 614.7,424.7 614.7,447.8 610.9,447.8 610.9,455.1 597,455.1 597,447.8 593.2,447.8 593.2,424.7 					"/>
					<polygon fill="#D1D3D4" points="571.6,424.7 571.6,441.1 574.1,441.1 574.1,433.3 583,433.3 583,441.1 585.5,441.1 
						585.5,424.7 589.3,424.7 589.3,447.8 585.5,447.8 585.5,455.1 571.6,455.1 571.6,447.8 567.9,447.8 567.9,424.7 					"/>
					<polygon fill="#D1D3D4" points="546.2,424.7 546.2,441.1 548.7,441.1 548.7,433.3 557.6,433.3 557.6,441.1 560.2,441.1 
						560.2,424.7 563.9,424.7 563.9,447.8 560.2,447.8 560.2,455.1 546.2,455.1 546.2,447.8 542.5,447.8 542.5,424.7 					"/>
					<polygon fill="#D1D3D4" points="520.8,424.7 520.8,441.1 523.4,441.1 523.4,433.3 532.3,433.3 532.3,441.1 534.8,441.1 
						534.8,424.7 538.5,424.7 538.5,447.8 534.8,447.8 534.8,455.1 520.8,455.1 520.8,447.8 517.1,447.8 517.1,424.7 					"/>
					<polygon fill="#D1D3D4" points="494.8,424.7 494.8,441.1 497.3,441.1 497.3,433.3 506.2,433.3 506.2,441.1 508.7,441.1 
						508.7,424.7 512.4,424.7 512.4,447.8 508.7,447.8 508.7,455.1 494.8,455.1 494.8,447.8 491,447.8 491,424.7 					"/>
				</g>
				<g>
					<polygon fill="#E6E7E8" points="587,443.4 587,459.9 589.5,459.9 589.5,452.1 598.4,452.1 598.4,459.9 600.9,459.9 
						600.9,443.4 604.7,443.4 604.7,466.5 600.9,466.5 600.9,473.8 587,473.8 587,466.5 583.2,466.5 583.2,443.4 					"/>
					<polygon fill="#E6E7E8" points="561.6,443.4 561.6,459.9 564.1,459.9 564.1,452.1 573,452.1 573,459.9 575.5,459.9 
						575.5,443.4 579.3,443.4 579.3,466.5 575.5,466.5 575.5,473.8 561.6,473.8 561.6,466.5 557.8,466.5 557.8,443.4 					"/>
					<polygon fill="#E6E7E8" points="536.2,443.4 536.2,459.9 538.7,459.9 538.7,452.1 547.6,452.1 547.6,459.9 550.1,459.9 
						550.1,443.4 553.9,443.4 553.9,466.5 550.1,466.5 550.1,473.8 536.2,473.8 536.2,466.5 532.5,466.5 532.5,443.4 					"/>
					<polygon fill="#E6E7E8" points="510.8,443.4 510.8,459.9 513.4,459.9 513.4,452.1 522.2,452.1 522.2,459.9 524.8,459.9 
						524.8,443.4 528.5,443.4 528.5,466.5 524.8,466.5 524.8,473.8 510.8,473.8 510.8,466.5 507.1,466.5 507.1,443.4 					"/>
					<polygon fill="#E6E7E8" points="484.7,443.4 484.7,459.9 487.3,459.9 487.3,452.1 496.2,452.1 496.2,459.9 498.7,459.9 
						498.7,443.4 502.4,443.4 502.4,466.5 498.7,466.5 498.7,473.8 484.7,473.8 484.7,466.5 481,466.5 481,443.4 					"/>
				</g>
				<g>
					<polygon fill="#FFFFFF" points="576.9,462.2 576.9,478.7 579.4,478.7 579.4,470.9 588.3,470.9 588.3,478.7 590.8,478.7 
						590.8,462.2 594.6,462.2 594.6,485.3 590.8,485.3 590.8,492.6 576.9,492.6 576.9,485.3 573.1,485.3 573.1,462.2 					"/>
					<polygon fill="#FFFFFF" points="551.5,462.2 551.5,478.7 554,478.7 554,470.9 562.9,470.9 562.9,478.7 565.4,478.7 
						565.4,462.2 569.2,462.2 569.2,485.3 565.4,485.3 565.4,492.6 551.5,492.6 551.5,485.3 547.8,485.3 547.8,462.2 					"/>
					<polygon fill="#FFFFFF" points="526.1,462.2 526.1,478.7 528.7,478.7 528.7,470.9 537.5,470.9 537.5,478.7 540.1,478.7 
						540.1,462.2 543.8,462.2 543.8,485.3 540.1,485.3 540.1,492.6 526.1,492.6 526.1,485.3 522.4,485.3 522.4,462.2 					"/>
					<polygon fill="#FFFFFF" points="500.8,462.2 500.8,478.7 503.3,478.7 503.3,470.9 512.2,470.9 512.2,478.7 514.7,478.7 
						514.7,462.2 518.4,462.2 518.4,485.3 514.7,485.3 514.7,492.6 500.8,492.6 500.8,485.3 497,485.3 497,462.2 					"/>
					<polygon fill="#FFFFFF" points="474.7,462.2 474.7,478.7 477.2,478.7 477.2,470.9 486.1,470.9 486.1,478.7 488.6,478.7 
						488.6,462.2 492.3,462.2 492.3,485.3 488.6,485.3 488.6,492.6 474.7,492.6 474.7,485.3 470.9,485.3 470.9,462.2 					"/>
				</g>
			</g>
			<g>
				<g>
					<polygon fill="#540000" points="484.7,367 484.7,383.5 487.2,383.5 487.2,375.7 496.1,375.7 496.1,383.5 498.6,383.5 
						498.6,367 502.4,367 502.4,390.1 498.6,390.1 498.6,397.4 484.7,397.4 484.7,390.1 480.9,390.1 480.9,367 					"/>
					<polygon fill="#540000" points="459.3,367 459.3,383.5 461.8,383.5 461.8,375.7 470.7,375.7 470.7,383.5 473.2,383.5 
						473.2,367 477,367 477,390.1 473.2,390.1 473.2,397.4 459.3,397.4 459.3,390.1 455.6,390.1 455.6,367 					"/>
					<polygon fill="#540000" points="433.9,367 433.9,383.5 436.4,383.5 436.4,375.7 445.3,375.7 445.3,383.5 447.9,383.5 
						447.9,367 451.6,367 451.6,390.1 447.9,390.1 447.9,397.4 433.9,397.4 433.9,390.1 430.2,390.1 430.2,367 					"/>
					<polygon fill="#540000" points="408.5,367 408.5,383.5 411.1,383.5 411.1,375.7 420,375.7 420,383.5 422.5,383.5 422.5,367 
						426.2,367 426.2,390.1 422.5,390.1 422.5,397.4 408.5,397.4 408.5,390.1 404.8,390.1 404.8,367 					"/>
					<polygon fill="#540000" points="382.5,367 382.5,383.5 385,383.5 385,375.7 393.9,375.7 393.9,383.5 396.4,383.5 396.4,367 
						400.1,367 400.1,390.1 396.4,390.1 396.4,397.4 382.5,397.4 382.5,390.1 378.7,390.1 378.7,367 					"/>
				</g>
				<g>
					<polygon fill="#8B0304" points="478.9,386.1 478.9,402.5 481.4,402.5 481.4,394.7 490.3,394.7 490.3,402.5 492.8,402.5 
						492.8,386.1 496.5,386.1 496.5,409.2 492.8,409.2 492.8,416.5 478.9,416.5 478.9,409.2 475.1,409.2 475.1,386.1 					"/>
					<polygon fill="#8B0304" points="453.5,386.1 453.5,402.5 456,402.5 456,394.7 464.9,394.7 464.9,402.5 467.4,402.5 
						467.4,386.1 471.2,386.1 471.2,409.2 467.4,409.2 467.4,416.5 453.5,416.5 453.5,409.2 449.7,409.2 449.7,386.1 					"/>
					<polygon fill="#8B0304" points="428.1,386.1 428.1,402.5 430.6,402.5 430.6,394.7 439.5,394.7 439.5,402.5 442,402.5 
						442,386.1 445.8,386.1 445.8,409.2 442,409.2 442,416.5 428.1,416.5 428.1,409.2 424.4,409.2 424.4,386.1 					"/>
					<polygon fill="#8B0304" points="402.7,386.1 402.7,402.5 405.2,402.5 405.2,394.7 414.1,394.7 414.1,402.5 416.7,402.5 
						416.7,386.1 420.4,386.1 420.4,409.2 416.7,409.2 416.7,416.5 402.7,416.5 402.7,409.2 399,409.2 399,386.1 					"/>
					<polygon fill="#8B0304" points="376.6,386.1 376.6,402.5 379.2,402.5 379.2,394.7 388.1,394.7 388.1,402.5 390.6,402.5 
						390.6,386.1 394.3,386.1 394.3,409.2 390.6,409.2 390.6,416.5 376.6,416.5 376.6,409.2 372.9,409.2 372.9,386.1 					"/>
				</g>
				<g>
					<polygon fill="#B11116" points="469.7,405.3 469.7,421.8 472.2,421.8 472.2,414 481.1,414 481.1,421.8 483.6,421.8 
						483.6,405.3 487.4,405.3 487.4,428.5 483.6,428.5 483.6,435.8 469.7,435.8 469.7,428.5 466,428.5 466,405.3 					"/>
					<polygon fill="#B11116" points="444.3,405.3 444.3,421.8 446.8,421.8 446.8,414 455.7,414 455.7,421.8 458.3,421.8 
						458.3,405.3 462,405.3 462,428.5 458.3,428.5 458.3,435.8 444.3,435.8 444.3,428.5 440.6,428.5 440.6,405.3 					"/>
					<polygon fill="#B11116" points="418.9,405.3 418.9,421.8 421.5,421.8 421.5,414 430.4,414 430.4,421.8 432.9,421.8 
						432.9,405.3 436.6,405.3 436.6,428.5 432.9,428.5 432.9,435.8 418.9,435.8 418.9,428.5 415.2,428.5 415.2,405.3 					"/>
					<polygon fill="#B11116" points="393.6,405.3 393.6,421.8 396.1,421.8 396.1,414 405,414 405,421.8 407.5,421.8 407.5,405.3 
						411.2,405.3 411.2,428.5 407.5,428.5 407.5,435.8 393.6,435.8 393.6,428.5 389.8,428.5 389.8,405.3 					"/>
					<polygon fill="#B11116" points="367.5,405.3 367.5,421.8 370,421.8 370,414 378.9,414 378.9,421.8 381.4,421.8 381.4,405.3 
						385.2,405.3 385.2,428.5 381.4,428.5 381.4,435.8 367.5,435.8 367.5,428.5 363.7,428.5 363.7,405.3 					"/>
				</g>
				<g>
					<polygon fill="#C4161C" points="459.6,424.7 459.6,441.1 462.1,441.1 462.1,433.3 471,433.3 471,441.1 473.6,441.1 
						473.6,424.7 477.3,424.7 477.3,447.8 473.6,447.8 473.6,455.1 459.6,455.1 459.6,447.8 455.9,447.8 455.9,424.7 					"/>
					<polygon fill="#C4161C" points="434.2,424.7 434.2,441.1 436.8,441.1 436.8,433.3 445.7,433.3 445.7,441.1 448.2,441.1 
						448.2,424.7 451.9,424.7 451.9,447.8 448.2,447.8 448.2,455.1 434.2,455.1 434.2,447.8 430.5,447.8 430.5,424.7 					"/>
					<polygon fill="#C4161C" points="408.9,424.7 408.9,441.1 411.4,441.1 411.4,433.3 420.3,433.3 420.3,441.1 422.8,441.1 
						422.8,424.7 426.5,424.7 426.5,447.8 422.8,447.8 422.8,455.1 408.9,455.1 408.9,447.8 405.1,447.8 405.1,424.7 					"/>
					<polygon fill="#C4161C" points="383.5,424.7 383.5,441.1 386,441.1 386,433.3 394.9,433.3 394.9,441.1 397.4,441.1 
						397.4,424.7 401.2,424.7 401.2,447.8 397.4,447.8 397.4,455.1 383.5,455.1 383.5,447.8 379.7,447.8 379.7,424.7 					"/>
					<polygon fill="#C4161C" points="357.4,424.7 357.4,441.1 359.9,441.1 359.9,433.3 368.8,433.3 368.8,441.1 371.3,441.1 
						371.3,424.7 375.1,424.7 375.1,447.8 371.3,447.8 371.3,455.1 357.4,455.1 357.4,447.8 353.6,447.8 353.6,424.7 					"/>
				</g>
				<g>
					<polygon fill="#D71920" points="449.6,443.4 449.6,459.9 452.1,459.9 452.1,452.1 461,452.1 461,459.9 463.5,459.9 
						463.5,443.4 467.3,443.4 467.3,466.5 463.5,466.5 463.5,473.8 449.6,473.8 449.6,466.5 445.9,466.5 445.9,443.4 					"/>
					<polygon fill="#D71920" points="424.2,443.4 424.2,459.9 426.8,459.9 426.8,452.1 435.6,452.1 435.6,459.9 438.2,459.9 
						438.2,443.4 441.9,443.4 441.9,466.5 438.2,466.5 438.2,473.8 424.2,473.8 424.2,466.5 420.5,466.5 420.5,443.4 					"/>
					<polygon fill="#D71920" points="398.9,443.4 398.9,459.9 401.4,459.9 401.4,452.1 410.3,452.1 410.3,459.9 412.8,459.9 
						412.8,443.4 416.5,443.4 416.5,466.5 412.8,466.5 412.8,473.8 398.9,473.8 398.9,466.5 395.1,466.5 395.1,443.4 					"/>
					<polygon fill="#D71920" points="373.5,443.4 373.5,459.9 376,459.9 376,452.1 384.9,452.1 384.9,459.9 387.4,459.9 
						387.4,443.4 391.2,443.4 391.2,466.5 387.4,466.5 387.4,473.8 373.5,473.8 373.5,466.5 369.7,466.5 369.7,443.4 					"/>
					<polygon fill="#D71920" points="347.4,443.4 347.4,459.9 349.9,459.9 349.9,452.1 358.8,452.1 358.8,459.9 361.3,459.9 
						361.3,443.4 365.1,443.4 365.1,466.5 361.3,466.5 361.3,473.8 347.4,473.8 347.4,466.5 343.6,466.5 343.6,443.4 					"/>
				</g>
				<g>
					<polygon fill="#ED1C24" points="442.4,462.2 442.4,478.7 444.9,478.7 444.9,470.9 453.8,470.9 453.8,478.7 456.3,478.7 
						456.3,462.2 460,462.2 460,485.3 456.3,485.3 456.3,492.6 442.4,492.6 442.4,485.3 438.6,485.3 438.6,462.2 					"/>
					<polygon fill="#ED1C24" points="417,462.2 417,478.7 419.5,478.7 419.5,470.9 428.4,470.9 428.4,478.7 430.9,478.7 
						430.9,462.2 434.7,462.2 434.7,485.3 430.9,485.3 430.9,492.6 417,492.6 417,485.3 413.2,485.3 413.2,462.2 					"/>
					<polygon fill="#ED1C24" points="391.6,462.2 391.6,478.7 394.1,478.7 394.1,470.9 403,470.9 403,478.7 405.5,478.7 
						405.5,462.2 409.3,462.2 409.3,485.3 405.5,485.3 405.5,492.6 391.6,492.6 391.6,485.3 387.8,485.3 387.8,462.2 					"/>
					<polygon fill="#ED1C24" points="366.2,462.2 366.2,478.7 368.7,478.7 368.7,470.9 377.6,470.9 377.6,478.7 380.1,478.7 
						380.1,462.2 383.9,462.2 383.9,485.3 380.1,485.3 380.1,492.6 366.2,492.6 366.2,485.3 362.5,485.3 362.5,462.2 					"/>
					<polygon fill="#ED1C24" points="340.1,462.2 340.1,478.7 342.6,478.7 342.6,470.9 351.5,470.9 351.5,478.7 354.1,478.7 
						354.1,462.2 357.8,462.2 357.8,485.3 354.1,485.3 354.1,492.6 340.1,492.6 340.1,485.3 336.4,485.3 336.4,462.2 					"/>
				</g>
			</g>
		</g>
	</g>
	<g>
		<rect x="0.3" y="492.7" fill="#D7D7DC" width="620.3" height="19.1"/>
		<rect x="44.8" y="492.7" fill="#E52F2E" width="52.1" height="19.1"/>
		<rect x="146.6" y="492.7" fill="#E52F2E" width="52.1" height="19.1"/>
		<rect x="250.5" y="492.7" fill="#E52F2E" width="52.1" height="19.1"/>
		<rect x="352.3" y="492.7" fill="#E52F2E" width="52.1" height="19.1"/>
		<rect x="455.6" y="492.7" fill="#E52F2E" width="52.1" height="19.1"/>
		<rect x="557.4" y="492.7" fill="#E52F2E" width="52.1" height="19.1"/>
	</g>
	<rect x="0.3" y="583.5" fill="#8DA07D" width="620.3" height="6.4"/>
	<polygon fill="#8DA07D" points="471.9,586.6 471.9,701.9 149.8,701.9 149.8,586.6 143.4,586.6 143.4,708.3 478.3,708.3 
		478.3,701.9 478.3,586.6 	"/>
	<g>
		<rect x="247.3" y="527.6" fill="#EDEDEE" width="125.3" height="8.8"/>
		<rect x="247.3" y="527.6" fill="#EDEDEE" width="7.1" height="69.9"/>
		<rect x="366.6" y="527.6" fill="#EDEDEE" width="7.1" height="69.9"/>
	</g>
	<g>
		<rect x="333.3" y="149.9" fill="#FFFFFF" width="138.7" height="10"/>
		<rect x="408.8" y="149.9" fill="#EBEBEC" width="63.2" height="10"/>
		<rect x="371" y="139.4" fill="#FFFFFF" width="113.2" height="13.7"/>
		<rect x="421.2" y="139.4" fill="#EBEBEC" width="63" height="13.7"/>
		<rect x="382.7" y="128.5" fill="#FFFFFF" width="101.5" height="13.7"/>
		<rect x="431.6" y="128.5" fill="#EBEBEC" width="52.6" height="13.7"/>
		<rect x="394.5" y="117" fill="#FFFFFF" width="77.5" height="13.7"/>
		<rect x="438.5" y="117" fill="#EBEBEC" width="33.5" height="13.7"/>
		<rect x="406.5" y="106" fill="#FFFFFF" width="53.8" height="13.7"/>
		<rect x="434.6" y="106" fill="#EBEBEC" width="25.7" height="13.7"/>
	</g>
	<g>
		<rect x="608.1" y="125.1" fill="#9AA3A7" width="12.5" height="47.6"/>
		<rect x="592" y="148.9" fill="#9AA3A7" width="16.1" height="47.6"/>
		<rect x="576.4" y="172.7" fill="#9AA3A7" width="16.1" height="47.6"/>
		<rect x="560.7" y="196.7" fill="#9AA3A7" width="16.1" height="47.6"/>
		<rect x="544.8" y="220.5" fill="#9AA3A7" width="16.1" height="47.6"/>
	</g>
	<g>
		<path fill="#8C1F38" d="M265.7,358.7v-38.3h6.4v6.4h6.4v6.4h-6.4v25.5H265.7z M284.9,358.7v-19.2h-6.4v-6.4h6.4v-12.8h6.4v38.3
			H284.9z"/>
		<path fill="#8C1F38" d="M297.7,358.7v-38.3h19.2v6.4H304v25.5h12.8v6.4H297.7z M316.8,352.3v-25.5h6.4v25.5H316.8z"/>
		<path fill="#8C1F38" d="M329.6,358.7v-38.3h25.5v19.2H336v19.2H329.6z M348.7,333.2v-6.4H336v6.4H348.7z"/>
	</g>
	<g>
		<rect x="217.7" y="295.4" fill="#8A9296" width="183.6" height="11.9"/>
		<rect x="189.1" y="306.9" fill="#8A9296" width="59.2" height="11.6"/>
		<rect x="159.8" y="318.2" fill="#8A9296" width="59.2" height="11.6"/>
		<rect x="130.3" y="329.4" fill="#8A9296" width="59.2" height="11.6"/>
		<rect x="97" y="340.6" fill="#8A9296" width="62.9" height="18.7"/>
		<polygon fill="#8A9296" points="524,358.7 460.9,358.7 460.9,340.6 524,341 		"/>
		<rect x="371.1" y="306.9" fill="#8A9296" width="59.2" height="11.6"/>
		<rect x="402.1" y="318.2" fill="#8A9296" width="59.2" height="11.6"/>
		<rect x="431.7" y="329.4" fill="#8A9296" width="59.2" height="11.6"/>
	</g>
</g>
</svg>
