<?xml version="1.0" encoding="utf-8"?>
<!-- Generator: Adobe Illustrator 18.1.1, SVG Export Plug-In . SVG Version: 6.00 Build 0)  -->
<!DOCTYPE svg PUBLIC "-//W3C//DTD SVG 1.1//EN" "http://www.w3.org/Graphics/SVG/1.1/DTD/svg11.dtd">
<svg version="1.1" id="Layer_1" xmlns="http://www.w3.org/2000/svg" xmlns:xlink="http://www.w3.org/1999/xlink" x="0px" y="0px"
	 viewBox="112 0 777.1 1000" enable-background="new 112 0 777.1 1000" xml:space="preserve">
<g>
	<rect x="112.9" fill="#CCE0F4" width="776.2" height="648.4"/>
	<g>
		<rect x="597.4" y="56" fill="#FFFFFF" width="173.6" height="12.5"/>
		<rect x="691.9" y="56" fill="#EBEBEC" width="79.1" height="12.5"/>
		<rect x="644.5" y="42.9" fill="#FFFFFF" width="141.8" height="17.1"/>
		<rect x="707.4" y="42.9" fill="#EBEBEC" width="78.9" height="17.1"/>
		<rect x="659.1" y="29.1" fill="#FFFFFF" width="127.1" height="17.1"/>
		<rect x="720.4" y="29.1" fill="#EBEBEC" width="65.9" height="17.1"/>
		<rect x="673.9" y="14.9" fill="#FFFFFF" width="97" height="17.1"/>
		<rect x="729" y="14.9" fill="#EBEBEC" width="42" height="17.1"/>
		<rect x="688.9" y="1" fill="#FFFFFF" width="67.4" height="17.1"/>
		<rect x="724.1" y="1" fill="#EBEBEC" width="32.2" height="17.1"/>
	</g>
	<g>
		<rect x="183.5" y="88" fill="#FFFFFF" width="130.8" height="9.5"/>
		<rect x="254.8" y="88" fill="#EBEBEC" width="110.9" height="9.5"/>
		<rect x="219" y="78.1" fill="#FFFFFF" width="106.8" height="12.9"/>
		<rect x="266.4" y="78.1" fill="#EBEBEC" width="77.1" height="12.9"/>
		<rect x="230.1" y="67.9" fill="#FFFFFF" width="95.8" height="12.9"/>
		<rect x="276.1" y="67.9" fill="#EBEBEC" width="49.6" height="12.9"/>
		<rect x="241.2" y="57" fill="#FFFFFF" width="73.1" height="12.9"/>
		<rect x="282.8" y="57" fill="#EBEBEC" width="31.6" height="12.9"/>
		<rect x="252.5" y="46.6" fill="#FFFFFF" width="50.8" height="12.9"/>
		<rect x="279" y="46.6" fill="#EBEBEC" width="24.2" height="12.9"/>
	</g>
	<rect x="112.9" y="782.8" fill="#746B65" width="776.2" height="217.2"/>
	<rect x="112.9" y="579.1" fill="#9AA3A7" width="776.2" height="170"/>
	<rect x="112.9" y="277.8" fill="#677379" width="776.2" height="331.9"/>
	<rect x="112.9" y="373.1" fill="#515B60" width="776.2" height="221.9"/>
	<rect x="112.9" y="267.6" fill="#9AA3A7" width="776.2" height="40.2"/>
	<g>
		<rect x="348" y="214.9" fill="#B9BABF" width="306.6" height="52.6"/>
		<rect x="338.2" y="227.2" fill="#B9BABF" width="325.6" height="40.2"/>
		<rect x="358.9" y="203.1" fill="#D7D7DC" width="285.5" height="64.5"/>
		<g>
			<rect x="373.9" y="215.8" fill="#677379" width="21.6" height="43.8"/>
			<rect x="421.8" y="215.8" fill="#677379" width="21.6" height="43.8"/>
			<rect x="401.4" y="215.8" fill="#677379" width="14.5" height="43.8"/>
		</g>
		<g>
			<rect x="558.1" y="215.8" fill="#677379" width="21.6" height="43.8"/>
			<rect x="606" y="215.8" fill="#677379" width="21.6" height="43.8"/>
			<rect x="585.6" y="215.8" fill="#677379" width="14.5" height="43.8"/>
		</g>
		<g>
			<rect x="466.9" y="215.8" fill="#677379" width="21.6" height="43.8"/>
			<rect x="514.8" y="215.8" fill="#677379" width="21.6" height="43.8"/>
			<rect x="494.4" y="215.8" fill="#677379" width="14.5" height="43.8"/>
		</g>
	</g>
	<rect x="112.9" y="324" fill="#9AA3A7" width="776.2" height="17.2"/>
	<g>
		<g>
			<rect x="486.9" y="249.1" fill="#E52F2E" width="35.6" height="35.9"/>
			<rect x="492.8" y="249.1" fill="#E52F2E" width="23.9" height="42.7"/>
			<g>
				<polygon fill="#EDEDEE" points="494.5,277.6 494.5,281.4 496.9,281.4 496.9,285.6 512.8,285.5 512.8,281.6 515,281.6 515,277.8 
					517.6,277.8 517.6,272.5 512.4,272.5 512.4,276.4 509.6,276.4 509.6,280.4 499.8,280.4 499.8,276.2 497.1,276.2 497.1,272.4 
					491.9,272.4 491.9,277.6 				"/>
				<g>
					<rect x="502.5" y="253.1" fill="#EDEDEE" width="4.5" height="4.5"/>
					<rect x="495.6" y="259.5" fill="#EDEDEE" width="4.5" height="4.5"/>
					<rect x="509.4" y="259.5" fill="#EDEDEE" width="4.5" height="4.5"/>
					<rect x="498.5" y="267.6" fill="#EDEDEE" width="4.5" height="4.5"/>
					<rect x="506.6" y="267.6" fill="#EDEDEE" width="4.5" height="4.5"/>
				</g>
			</g>
		</g>
		<g>
			<rect x="524.9" y="234.9" fill="#D6B629" width="13.4" height="12.4"/>
			<rect x="522.5" y="247.2" fill="#D6B629" width="13.4" height="12.4"/>
			<rect x="517.9" y="258.4" fill="#D6B629" width="19.6" height="5.5"/>
			<rect x="528.8" y="262.5" fill="#D6B629" width="10.6" height="16.2"/>
			<rect x="527.8" y="268" fill="#D6B629" width="13" height="6.9"/>
			<rect x="523.5" y="278.8" fill="#D6B629" width="9.5" height="5.5"/>
			<rect x="537.5" y="278.8" fill="#D6B629" width="6.5" height="10.9"/>
			<g>
				<rect x="539.4" y="270.6" fill="#D6B629" width="6.2" height="3.3"/>
				<rect x="540.6" y="270.6" width="1.6" height="3.3"/>
				<rect x="544" y="270.6" width="1.6" height="3.3"/>
			</g>
			<g>
				<rect x="543.2" y="264.4" fill="#D6B629" width="3.3" height="6.2"/>
				<rect x="543.2" y="267.8" width="3.3" height="1.6"/>
				<rect x="543.2" y="264.4" width="3.3" height="1.6"/>
			</g>
			<g>
				<rect x="540" y="259.4" fill="#D6B629" width="3.3" height="6.6"/>
				<rect x="540" y="262.8" width="3.3" height="1.6"/>
				<rect x="540" y="259.4" width="3.3" height="1.6"/>
			</g>
			<g>
				<rect x="537.5" y="252.4" fill="#D6B629" width="2.4" height="8.5"/>
				<rect x="537.5" y="257.8" width="2.4" height="1.6"/>
			</g>
			<rect x="536.9" y="254" fill="#D6B629" width="3.9" height="3.3"/>
			<rect x="537.5" y="283.5" width="3.3" height="1.6"/>
			<rect x="537.5" y="280.8" width="3.3" height="1.6"/>
			<rect x="528.8" y="276" width="3.3" height="1.6"/>
			<rect x="522.5" y="258.4" width="1.6" height="3.3"/>
			<rect x="525.2" y="258.4" width="1.6" height="3.3"/>
			<rect x="536.8" y="244" width="1.6" height="3.3"/>
			<rect x="524.9" y="244" width="1.6" height="3.3"/>
			<rect x="526.6" y="235.9" width="10.1" height="1.6"/>
			<rect x="529.6" y="241.5" fill="#E52F2E" width="4" height="4.5"/>
			<rect x="526.9" y="256.8" width="1.6" height="1.6"/>
			<rect x="528.5" y="258.4" width="1.6" height="1.6"/>
			<rect x="536.1" y="262.5" width="3.3" height="1.6"/>
			<rect x="532.9" y="264.1" width="3.3" height="1.6"/>
			<rect x="536.1" y="266.4" width="3.3" height="1.6"/>
			<rect x="532.9" y="268" width="3.3" height="1.6"/>
			<rect x="534.2" y="259.4" width="3.3" height="1.6"/>
			<rect x="531" y="261" width="3.3" height="1.6"/>
			<rect x="528.5" y="255.1" width="3.3" height="1.6"/>
			<rect x="528.5" y="252.2" width="3.3" height="1.6"/>
			<rect x="527.8" y="273.2" width="4.4" height="1.6"/>
			<rect x="527.8" y="270.6" width="4.4" height="1.6"/>
			<rect x="527.8" y="268" width="4.4" height="1.6"/>
			<rect x="528.9" y="241.5" fill="#EDEDEE" width="1.4" height="2.3"/>
			<rect x="532.9" y="241.5" fill="#EDEDEE" width="1.4" height="2.3"/>
		</g>
		<g>
			<rect x="471.2" y="234.9" fill="#D6B629" width="13.4" height="12.4"/>
			<rect x="473.6" y="247.2" fill="#D6B629" width="13.4" height="12.4"/>
			<rect x="472" y="258.4" fill="#D6B629" width="19.6" height="5.5"/>
			<rect x="470.1" y="262.5" fill="#D6B629" width="10.6" height="16.2"/>
			<rect x="468.9" y="268" fill="#D6B629" width="13" height="6.9"/>
			<rect x="476.5" y="278.8" fill="#D6B629" width="9.5" height="5.5"/>
			<rect x="465.5" y="278.8" fill="#D6B629" width="6.5" height="10.9"/>
			<g>
				<rect x="461.4" y="270.6" fill="#D6B629" width="8.8" height="3.3"/>
			</g>
			<g>
				<rect x="459.8" y="264.4" fill="#D6B629" width="3.3" height="6.2"/>
			</g>
			<g>
				<rect x="462.1" y="259.4" fill="#D6B629" width="3.3" height="6.6"/>
			</g>
			<g>
				<rect x="468.6" y="245.2" fill="#D6B629" width="4.2" height="2"/>
			</g>
			<g>
				<rect x="469.5" y="242" fill="#D6B629" width="4.2" height="2"/>
			</g>
			<g>
				<rect x="470.5" y="238.6" fill="#D6B629" width="4.2" height="2"/>
			</g>
			<g>
				<rect x="483.4" y="245.2" fill="#D6B629" width="4.2" height="2"/>
			</g>
			<g>
				<rect x="482.6" y="242" fill="#D6B629" width="4.2" height="2"/>
			</g>
			<g>
				<rect x="481.5" y="238.6" fill="#D6B629" width="4.2" height="2"/>
			</g>
			<g>
				<rect x="455.5" y="257.2" fill="#D6B629" width="8.5" height="2.4"/>
			</g>
			<rect x="457.1" y="256.6" fill="#D6B629" width="3.3" height="3.9"/>
			<rect x="475.9" y="241.5" fill="#E52F2E" width="4" height="4.5"/>
			<rect x="479.2" y="241.5" fill="#EDEDEE" width="1.4" height="2.3"/>
			<rect x="475.3" y="241.5" fill="#EDEDEE" width="1.4" height="2.3"/>
		</g>
		<g>
			<rect x="462.9" y="287.8" fill="#3D5497" width="15.4" height="5.8"/>
			<rect x="478.4" y="292.5" fill="#3D5497" width="15.4" height="5.8"/>
			<rect x="531.1" y="287.8" fill="#3D5497" width="15.4" height="5.8"/>
			<rect x="540.2" y="293.5" fill="#EDEDEE" width="6.4" height="5.8"/>
			<rect x="533.9" y="295.4" fill="#EDEDEE" width="6.4" height="6.7"/>
			<rect x="462.9" y="293.5" fill="#EDEDEE" width="6.4" height="5.8"/>
			<rect x="469.2" y="295.4" fill="#EDEDEE" width="6.4" height="6.7"/>
			<rect x="515.8" y="292.5" fill="#3D5497" width="15.4" height="5.8"/>
			<rect x="493.8" y="294.6" fill="#3D5497" width="22" height="5.8"/>
		</g>
	</g>
	<g>
		<g>
			<path fill="#8C1F38" d="M606,307.9v-9.8h29.2v-19.5H606v-29.2h39v9.8h-29.2v9.8H645v39H606z"/>
			<path fill="#8C1F38" d="M654.8,307.9v-58.5h9.8v58.5H654.8z"/>
			<path fill="#8C1F38" d="M674.2,307.9v-58.5h9.8v9.8h9.7v9.8H684v39H674.2z M703.4,307.9v-29.2h-9.8v-9.8h9.8v-19.5h9.8v58.5
				H703.4z"/>
			<path fill="#8C1F38" d="M722.9,298.1v-39h9.8v39H722.9z M732.6,259.1v-9.8h29.2v9.8H732.6z M732.6,307.9v-9.8h19.5v9.8H732.6z
				 M752.1,298.1v-19.5h-9.8v-9.8h19.5v29.2L752.1,298.1L752.1,298.1z"/>
			<path fill="#8C1F38" d="M771.6,307.9v-48.8h9.8v19.5h19.5v-19.5h9.8v48.8h-9.8v-19.5h-19.5v19.5H771.6z M781.4,259.1v-9.8h19.5
				v9.8H781.4z"/>
			<path fill="#8C1F38" d="M820.4,307.9v-58.5h39v29.2h-29.2v29.2H820.4L820.4,307.9z M849.6,269v-9.8h-19.5v9.8H849.6z"/>
			<path fill="#8C1F38" d="M869.1,298.1v-48.8h9.8v48.8H869.1z M878.9,307.9v-9.8h10.4v9.8H878.9z"/>
		</g>
	</g>
	<g>
		<g>
			<path fill="#8C1F38" d="M112.9,307.9v-48.8h9.8v19.5h19.5v-19.5h9.8v48.8h-9.8v-19.5h-19.5v19.5H112.9z M122.6,259.1v-9.8h19.5
				v9.8H122.6z"/>
			<path fill="#8C1F38" d="M190.9,298.1v-39h-29.2v-9.8h39v48.8H190.9z M161.6,298.1v-9.8h9.8v9.8H161.6z M171.4,307.9v-9.8h19.5
				v9.8H171.4z"/>
			<path fill="#8C1F38" d="M210.4,298.1v-48.8h9.8v48.8H210.4z M220.1,307.9v-9.8h19.5v9.8H220.1z M239.5,298.1v-48.8h9.8v48.8
				H239.5z"/>
			<path fill="#8C1F38" d="M259,307.9v-58.5h9.8v48.8H298v9.8H259z"/>
			<path fill="#8C1F38" d="M307.8,307.9v-48.8h9.8v19.5H337v-19.5h9.8v48.8H337v-19.5h-19.5v19.5H307.8z M317.5,259.1v-9.8H337v9.8
				H317.5z"/>
			<path fill="#8C1F38" d="M356.5,307.9v-58.5h9.8v19.5h19.5v-19.5h9.8v58.5h-9.8v-29.2h-19.5v29.2H356.5z"/>
		</g>
	</g>
	<g>
		<path fill="#E52F2E" d="M611,307.9v-9.8h29.2v-19.5H611v-29.2h39v9.8h-29.2v9.8H650v39H611z"/>
		<path fill="#E52F2E" d="M659.8,307.9v-58.5h9.8v58.5H659.8z"/>
		<path fill="#E52F2E" d="M679.2,307.9v-58.5h9.8v9.8h9.7v9.8H689v39H679.2z M708.5,307.9v-29.2h-9.8v-9.8h9.8v-19.5h9.8v58.5H708.5
			z"/>
		<path fill="#E52F2E" d="M728,298.1v-39h9.8v39H728z M737.8,259.1v-9.8H767v9.8H737.8z M737.8,307.9v-9.8h19.5v9.8H737.8z
			 M757.1,298.1v-19.5h-9.8v-9.8h19.5v29.2L757.1,298.1L757.1,298.1z"/>
		<path fill="#E52F2E" d="M776.6,307.9v-48.8h9.8v19.5h19.5v-19.5h9.8v48.8h-9.8v-19.5h-19.5v19.5H776.6z M786.4,259.1v-9.8h19.5
			v9.8H786.4z"/>
		<path fill="#E52F2E" d="M825.4,307.9v-58.5h39v29.2h-29.2v29.2H825.4L825.4,307.9z M854.6,269v-9.8h-19.5v9.8H854.6z"/>
		<path fill="#E52F2E" d="M874.1,298.1v-48.8h9.8v48.8H874.1z M883.9,307.9v-9.8h5.2v9.8H883.9z"/>
	</g>
	<g>
		<path fill="#E52F2E" d="M117.9,307.9v-48.8h9.8v19.5h19.5v-19.5h9.8v48.8h-9.8v-19.5h-19.5v19.5H117.9z M127.6,259.1v-9.8h19.5
			v9.8H127.6z"/>
		<path fill="#E52F2E" d="M195.9,298.1v-39h-29.2v-9.8h39v48.8H195.9z M166.6,298.1v-9.8h9.8v9.8H166.6z M176.4,307.9v-9.8h19.5v9.8
			H176.4z"/>
		<path fill="#E52F2E" d="M215.4,298.1v-48.8h9.8v48.8H215.4z M225.1,307.9v-9.8h19.5v9.8H225.1z M244.6,298.1v-48.8h9.8v48.8H244.6
			z"/>
		<path fill="#E52F2E" d="M264.1,307.9v-58.5h9.8v48.8h29.2v9.8H264.1z"/>
		<path fill="#E52F2E" d="M312.8,307.9v-48.8h9.8v19.5H342v-19.5h9.8v48.8H342v-19.5h-19.5v19.5H312.8z M322.5,259.1v-9.8H342v9.8
			H322.5z"/>
		<path fill="#E52F2E" d="M361.5,307.9v-58.5h9.8v19.5h19.5v-19.5h9.8v58.5h-9.8v-29.2h-19.5v29.2H361.5z"/>
	</g>
	<g>
		<g>
			<rect x="112.9" y="388.8" fill="#677379" width="59.6" height="83.6"/>
			<rect x="122.9" y="398.4" fill="#434345" width="39.6" height="64.4"/>
			<polygon fill="#677379" points="172.6,427.1 146.2,427.1 146.2,388.8 139.1,388.8 139.1,427.1 112.9,427.1 112.9,434.2 
				139.1,434.2 139.1,472.5 146.2,472.5 146.2,434.2 172.6,434.2 			"/>
		</g>
		<g>
			<rect x="112.9" y="486.8" fill="#677379" width="59.6" height="83.6"/>
			<rect x="122.9" y="496.4" fill="#434345" width="39.6" height="64.4"/>
			<polygon fill="#677379" points="172.6,525 146.2,525 146.2,486.8 139.1,486.8 139.1,525 112.9,525 112.9,532.1 139.1,532.1 
				139.1,570.4 146.2,570.4 146.2,532.1 172.6,532.1 			"/>
		</g>
	</g>
	<g>
		<g>
			<rect x="189.6" y="388.8" fill="#677379" width="59.6" height="83.6"/>
			<rect x="199.6" y="398.4" fill="#434345" width="39.6" height="64.4"/>
			<polygon fill="#677379" points="249.4,427.1 223.1,427.1 223.1,388.8 216,388.8 216,427.1 189.6,427.1 189.6,434.2 216,434.2 
				216,472.5 223.1,472.5 223.1,434.2 249.4,434.2 			"/>
		</g>
		<g>
			<rect x="189.6" y="486.8" fill="#677379" width="59.6" height="83.6"/>
			<rect x="199.6" y="496.4" fill="#434345" width="39.6" height="64.4"/>
			<polygon fill="#677379" points="249.4,525 223.1,525 223.1,486.8 216,486.8 216,525 189.6,525 189.6,532.1 216,532.1 216,570.4 
				223.1,570.4 223.1,532.1 249.4,532.1 			"/>
		</g>
	</g>
	<g>
		<g>
			<rect x="269.8" y="388.8" fill="#677379" width="59.6" height="83.6"/>
			<rect x="279.8" y="398.4" fill="#434345" width="39.6" height="64.4"/>
			<polygon fill="#677379" points="329.4,427.1 303.1,427.1 303.1,388.8 296,388.8 296,427.1 269.8,427.1 269.8,434.2 296,434.2 
				296,472.5 303.1,472.5 303.1,434.2 329.4,434.2 			"/>
		</g>
		<g>
			<rect x="269.8" y="486.8" fill="#677379" width="59.6" height="83.6"/>
			<rect x="279.8" y="496.4" fill="#434345" width="39.6" height="64.4"/>
			<polygon fill="#677379" points="329.4,525 303.1,525 303.1,486.8 296,486.8 296,525 269.8,525 269.8,532.1 296,532.1 296,570.4 
				303.1,570.4 303.1,532.1 329.4,532.1 			"/>
		</g>
	</g>
	<g>
		<g>
			<rect x="349.2" y="388.8" fill="#677379" width="59.6" height="83.6"/>
			<rect x="359.2" y="398.4" fill="#434345" width="39.6" height="64.4"/>
			<polygon fill="#677379" points="408.9,427.1 382.6,427.1 382.6,388.8 375.5,388.8 375.5,427.1 349.2,427.1 349.2,434.2 
				375.5,434.2 375.5,472.5 382.6,472.5 382.6,434.2 408.9,434.2 			"/>
		</g>
		<g>
			<rect x="349.2" y="486.8" fill="#677379" width="59.6" height="83.6"/>
			<rect x="359.2" y="496.4" fill="#434345" width="39.6" height="64.4"/>
			<polygon fill="#677379" points="408.9,525 382.6,525 382.6,486.8 375.5,486.8 375.5,525 349.2,525 349.2,532.1 375.5,532.1 
				375.5,570.4 382.6,570.4 382.6,532.1 408.9,532.1 			"/>
		</g>
	</g>
	<g>
		<g>
			<rect x="426" y="388.8" fill="#677379" width="59.6" height="83.6"/>
			<rect x="436" y="398.4" fill="#434345" width="39.6" height="64.4"/>
			<polygon fill="#677379" points="485.6,427.1 459.4,427.1 459.4,388.8 452.2,388.8 452.2,427.1 426,427.1 426,434.2 452.2,434.2 
				452.2,472.5 459.4,472.5 459.4,434.2 485.6,434.2 			"/>
		</g>
		<g>
			<rect x="426" y="486.8" fill="#677379" width="59.6" height="83.6"/>
			<rect x="436" y="496.4" fill="#434345" width="39.6" height="64.4"/>
			<polygon fill="#677379" points="485.6,525 459.4,525 459.4,486.8 452.2,486.8 452.2,525 426,525 426,532.1 452.2,532.1 
				452.2,570.4 459.4,570.4 459.4,532.1 485.6,532.1 			"/>
		</g>
	</g>
	<g>
		<g>
			<rect x="506" y="388.8" fill="#677379" width="59.6" height="83.6"/>
			<rect x="516" y="398.4" fill="#434345" width="39.6" height="64.4"/>
			<polygon fill="#677379" points="565.8,427.1 539.5,427.1 539.5,388.8 532.4,388.8 532.4,427.1 506,427.1 506,434.2 532.4,434.2 
				532.4,472.5 539.5,472.5 539.5,434.2 565.8,434.2 			"/>
		</g>
		<g>
			<rect x="506" y="486.8" fill="#677379" width="59.6" height="83.6"/>
			<rect x="516" y="496.4" fill="#434345" width="39.6" height="64.4"/>
			<polygon fill="#677379" points="565.8,525 539.5,525 539.5,486.8 532.4,486.8 532.4,525 506,525 506,532.1 532.4,532.1 
				532.4,570.4 539.5,570.4 539.5,532.1 565.8,532.1 			"/>
		</g>
	</g>
	<g>
		<g>
			<rect x="580.4" y="388.8" fill="#677379" width="59.6" height="83.6"/>
			<rect x="590.4" y="398.4" fill="#434345" width="39.6" height="64.4"/>
			<polygon fill="#677379" points="640.1,427.1 613.8,427.1 613.8,388.8 606.8,388.8 606.8,427.1 580.4,427.1 580.4,434.2 
				606.8,434.2 606.8,472.5 613.8,472.5 613.8,434.2 640.1,434.2 			"/>
		</g>
		<g>
			<rect x="580.4" y="486.8" fill="#677379" width="59.6" height="83.6"/>
			<rect x="590.4" y="496.4" fill="#434345" width="39.6" height="64.4"/>
			<polygon fill="#677379" points="640.1,525 613.8,525 613.8,486.8 606.8,486.8 606.8,525 580.4,525 580.4,532.1 606.8,532.1 
				606.8,570.4 613.8,570.4 613.8,532.1 640.1,532.1 			"/>
		</g>
	</g>
	<g>
		<g>
			<rect x="660.5" y="388.8" fill="#677379" width="59.6" height="83.6"/>
			<rect x="670.5" y="398.4" fill="#434345" width="39.6" height="64.4"/>
			<polygon fill="#677379" points="720.1,427.1 693.9,427.1 693.9,388.8 686.8,388.8 686.8,427.1 660.5,427.1 660.5,434.2 
				686.8,434.2 686.8,472.5 693.9,472.5 693.9,434.2 720.1,434.2 			"/>
		</g>
		<g>
			<rect x="660.5" y="486.8" fill="#677379" width="59.6" height="83.6"/>
			<rect x="670.5" y="496.4" fill="#434345" width="39.6" height="64.4"/>
			<polygon fill="#677379" points="720.1,525 693.9,525 693.9,486.8 686.8,486.8 686.8,525 660.5,525 660.5,532.1 686.8,532.1 
				686.8,570.4 693.9,570.4 693.9,532.1 720.1,532.1 			"/>
		</g>
	</g>
	<g>
		<g>
			<rect x="741.1" y="388.8" fill="#677379" width="59.6" height="83.6"/>
			<rect x="751.1" y="398.4" fill="#434345" width="39.6" height="64.4"/>
			<polygon fill="#677379" points="800.8,427.1 774.5,427.1 774.5,388.8 767.4,388.8 767.4,427.1 741.1,427.1 741.1,434.2 
				767.4,434.2 767.4,472.5 774.5,472.5 774.5,434.2 800.8,434.2 			"/>
		</g>
		<g>
			<rect x="741.1" y="486.8" fill="#677379" width="59.6" height="83.6"/>
			<rect x="751.1" y="496.4" fill="#434345" width="39.6" height="64.4"/>
			<polygon fill="#677379" points="800.8,525 774.5,525 774.5,486.8 767.4,486.8 767.4,525 741.1,525 741.1,532.1 767.4,532.1 
				767.4,570.4 774.5,570.4 774.5,532.1 800.8,532.1 			"/>
		</g>
	</g>
	<g>
		<g>
			<rect x="829.5" y="388.8" fill="#677379" width="59.6" height="83.6"/>
			<rect x="839.5" y="398.4" fill="#434345" width="39.6" height="64.4"/>
			<polygon fill="#677379" points="889.1,427.1 862.9,427.1 862.9,388.8 855.8,388.8 855.8,427.1 829.5,427.1 829.5,434.2 
				855.8,434.2 855.8,472.5 862.9,472.5 862.9,434.2 889.1,434.2 			"/>
		</g>
		<g>
			<rect x="829.5" y="486.8" fill="#677379" width="59.6" height="83.6"/>
			<rect x="839.5" y="496.4" fill="#434345" width="39.6" height="64.4"/>
			<polygon fill="#677379" points="889.1,525 862.9,525 862.9,486.8 855.8,486.8 855.8,525 829.5,525 829.5,532.1 855.8,532.1 
				855.8,570.4 862.9,570.4 862.9,532.1 889.1,532.1 			"/>
		</g>
	</g>
	<g>
		<polygon fill="#9AA3A7" points="178.4,355.6 178.4,348.6 186.2,348.6 186.2,340.5 112.9,340.5 112.9,348.6 120.9,348.6 
			120.9,355.6 132.8,355.6 132.8,579.8 120.9,579.8 120.9,586.8 112.9,586.8 112.9,594.9 186.2,594.9 186.2,586.8 178.4,586.8 
			178.4,579.8 166.5,579.8 166.5,355.6 		"/>
		<rect x="132.8" y="361.1" fill="#8A9296" width="5.8" height="210.2"/>
		<rect x="160.8" y="361.1" fill="#8A9296" width="5.7" height="210.2"/>
		<g>
			<rect x="142.1" y="361.1" fill="#8A9296" width="5.8" height="210.2"/>
			<rect x="151.4" y="361.1" fill="#8A9296" width="5.8" height="210.2"/>
		</g>
	</g>
	<g>
		<polygon fill="#9AA3A7" points="266.5,355.6 266.5,348.6 274.4,348.6 274.4,340.5 201,340.5 201,348.6 209,348.6 209,355.6 
			220.9,355.6 220.9,579.8 209,579.8 209,586.8 201,586.8 201,594.9 274.4,594.9 274.4,586.8 266.5,586.8 266.5,579.8 254.6,579.8 
			254.6,355.6 		"/>
		<rect x="220.9" y="361.1" fill="#8A9296" width="5.7" height="210.2"/>
		<rect x="249" y="361.1" fill="#8A9296" width="5.7" height="210.2"/>
		<g>
			<rect x="230.2" y="361.1" fill="#8A9296" width="5.7" height="210.2"/>
			<rect x="239.5" y="361.1" fill="#8A9296" width="5.7" height="210.2"/>
		</g>
	</g>
	<g>
		<polygon fill="#9AA3A7" points="354.2,355.6 354.2,348.6 362.1,348.6 362.1,340.5 288.8,340.5 288.8,348.6 296.8,348.6 
			296.8,355.6 308.6,355.6 308.6,579.8 296.8,579.8 296.8,586.8 288.8,586.8 288.8,594.9 362.1,594.9 362.1,586.8 354.2,586.8 
			354.2,579.8 342.4,579.8 342.4,355.6 		"/>
		<rect x="308.6" y="361.1" fill="#8A9296" width="5.8" height="210.2"/>
		<rect x="336.6" y="361.1" fill="#8A9296" width="5.8" height="210.2"/>
		<g>
			<rect x="318" y="361.1" fill="#8A9296" width="5.8" height="210.2"/>
			<rect x="327.2" y="361.1" fill="#8A9296" width="5.8" height="210.2"/>
		</g>
	</g>
	<g>
		<polygon fill="#9AA3A7" points="442.4,355.6 442.4,348.6 450.2,348.6 450.2,340.5 376.9,340.5 376.9,348.6 384.9,348.6 
			384.9,355.6 396.8,355.6 396.8,579.8 384.9,579.8 384.9,586.8 376.9,586.8 376.9,594.9 450.2,594.9 450.2,586.8 442.4,586.8 
			442.4,579.8 430.5,579.8 430.5,355.6 		"/>
		<rect x="396.8" y="361.1" fill="#8A9296" width="5.8" height="210.2"/>
		<rect x="424.9" y="361.1" fill="#8A9296" width="5.8" height="210.2"/>
		<g>
			<rect x="406.1" y="361.1" fill="#8A9296" width="5.8" height="210.2"/>
			<rect x="415.4" y="361.1" fill="#8A9296" width="5.8" height="210.2"/>
		</g>
	</g>
	<g>
		<polygon fill="#9AA3A7" points="531,355.6 531,348.6 538.9,348.6 538.9,340.5 465.5,340.5 465.5,348.6 473.5,348.6 473.5,355.6 
			485.4,355.6 485.4,579.8 473.5,579.8 473.5,586.8 465.5,586.8 465.5,594.9 538.9,594.9 538.9,586.8 531,586.8 531,579.8 
			519.1,579.8 519.1,355.6 		"/>
		<rect x="485.4" y="361.1" fill="#8A9296" width="5.8" height="210.2"/>
		<rect x="513.4" y="361.1" fill="#8A9296" width="5.8" height="210.2"/>
		<g>
			<rect x="494.8" y="361.1" fill="#8A9296" width="5.8" height="210.2"/>
			<rect x="504" y="361.1" fill="#8A9296" width="5.8" height="210.2"/>
		</g>
	</g>
	<g>
		<polygon fill="#9AA3A7" points="619.1,355.6 619.1,348.6 627,348.6 627,340.5 553.6,340.5 553.6,348.6 561.6,348.6 561.6,355.6 
			573.5,355.6 573.5,579.8 561.6,579.8 561.6,586.8 553.6,586.8 553.6,594.9 627,594.9 627,586.8 619.1,586.8 619.1,579.8 
			607.2,579.8 607.2,355.6 		"/>
		<rect x="573.5" y="361.1" fill="#8A9296" width="5.8" height="210.2"/>
		<rect x="601.6" y="361.1" fill="#8A9296" width="5.8" height="210.2"/>
		<g>
			<rect x="582.9" y="361.1" fill="#8A9296" width="5.8" height="210.2"/>
			<rect x="592.1" y="361.1" fill="#8A9296" width="5.8" height="210.2"/>
		</g>
	</g>
	<g>
		<polygon fill="#9AA3A7" points="705.5,355.6 705.5,348.6 713.5,348.6 713.5,340.5 640.1,340.5 640.1,348.6 648,348.6 648,355.6 
			659.9,355.6 659.9,579.8 648,579.8 648,586.8 640.1,586.8 640.1,594.9 713.5,594.9 713.5,586.8 705.5,586.8 705.5,579.8 
			693.6,579.8 693.6,355.6 		"/>
		<rect x="659.9" y="361.1" fill="#8A9296" width="5.8" height="210.2"/>
		<rect x="688" y="361.1" fill="#8A9296" width="5.8" height="210.2"/>
		<g>
			<rect x="669.4" y="361.1" fill="#8A9296" width="5.8" height="210.2"/>
			<rect x="678.5" y="361.1" fill="#8A9296" width="5.8" height="210.2"/>
		</g>
	</g>
	<g>
		<polygon fill="#9AA3A7" points="794.5,355.6 794.5,348.6 802.4,348.6 802.4,340.5 729,340.5 729,348.6 737,348.6 737,355.6 
			748.9,355.6 748.9,579.8 737,579.8 737,586.8 729,586.8 729,594.9 802.4,594.9 802.4,586.8 794.5,586.8 794.5,579.8 782.6,579.8 
			782.6,355.6 		"/>
		<rect x="748.9" y="361.1" fill="#8A9296" width="5.8" height="210.2"/>
		<rect x="776.9" y="361.1" fill="#8A9296" width="5.7" height="210.2"/>
		<g>
			<rect x="758.2" y="361.1" fill="#8A9296" width="5.7" height="210.2"/>
			<rect x="767.4" y="361.1" fill="#8A9296" width="5.7" height="210.2"/>
		</g>
	</g>
	<g>
		<polygon fill="#9AA3A7" points="881.2,355.6 881.2,348.6 889.1,348.6 889.1,340.5 815.8,340.5 815.8,348.6 823.8,348.6 
			823.8,355.6 835.6,355.6 835.6,579.8 823.8,579.8 823.8,586.8 815.8,586.8 815.8,594.9 889.1,594.9 889.1,586.8 881.2,586.8 
			881.2,579.8 869.4,579.8 869.4,355.6 		"/>
		<rect x="835.6" y="361.1" fill="#8A9296" width="5.7" height="210.2"/>
		<rect x="863.6" y="361.1" fill="#8A9296" width="5.7" height="210.2"/>
		<g>
			<rect x="845" y="361.1" fill="#8A9296" width="5.7" height="210.2"/>
			<rect x="854.2" y="361.1" fill="#8A9296" width="5.7" height="210.2"/>
		</g>
	</g>
	<rect x="112.9" y="669.8" fill="#515B60" width="776.2" height="157.6"/>
	<g>
		<rect x="112.9" y="616.6" fill="#D7D7DC" width="776.2" height="23.9"/>
		<rect x="168.6" y="616.6" fill="#E52F2E" width="65.3" height="23.9"/>
		<rect x="295.9" y="616.6" fill="#E52F2E" width="65.2" height="23.9"/>
		<rect x="426" y="616.6" fill="#E52F2E" width="65.2" height="23.9"/>
		<rect x="553.4" y="616.6" fill="#E52F2E" width="65.3" height="23.9"/>
		<rect x="682.6" y="616.6" fill="#E52F2E" width="65.3" height="23.9"/>
		<rect x="810" y="616.6" fill="#E52F2E" width="65.3" height="23.9"/>
	</g>
</g>
<rect x="113.9" opacity="0.2" fill="#FFFFFF" enable-background="new    " width="776.8" height="1000"/>
</svg>
